%!PS-Adobe-3.0 EPSF-3.0
%%Creator: cairo 1.16.0 (https://cairographics.org)
%%CreationDate: Tue Feb 25 23:32:13 2020
%%Pages: 1
%%DocumentData: Clean7Bit
%%LanguageLevel: 2
%%BoundingBox: 0 0 861 861
%%EndComments
%%BeginProlog
50 dict begin
/q { gsave } bind def
/Q { grestore } bind def
/cm { 6 array astore concat } bind def
/w { setlinewidth } bind def
/J { setlinecap } bind def
/j { setlinejoin } bind def
/M { setmiterlimit } bind def
/d { setdash } bind def
/m { moveto } bind def
/l { lineto } bind def
/c { curveto } bind def
/h { closepath } bind def
/re { exch dup neg 3 1 roll 5 3 roll moveto 0 rlineto
      0 exch rlineto 0 rlineto closepath } bind def
/S { stroke } bind def
/f { fill } bind def
/f* { eofill } bind def
/n { newpath } bind def
/W { clip } bind def
/W* { eoclip } bind def
/BT { } bind def
/ET { } bind def
/BDC { mark 3 1 roll /BDC pdfmark } bind def
/EMC { mark /EMC pdfmark } bind def
/cairo_store_point { /cairo_point_y exch def /cairo_point_x exch def } def
/Tj { show currentpoint cairo_store_point } bind def
/TJ {
  {
    dup
    type /stringtype eq
    { show } { -0.001 mul 0 cairo_font_matrix dtransform rmoveto } ifelse
  } forall
  currentpoint cairo_store_point
} bind def
/cairo_selectfont { cairo_font_matrix aload pop pop pop 0 0 6 array astore
    cairo_font exch selectfont cairo_point_x cairo_point_y moveto } bind def
/Tf { pop /cairo_font exch def /cairo_font_matrix where
      { pop cairo_selectfont } if } bind def
/Td { matrix translate cairo_font_matrix matrix concatmatrix dup
      /cairo_font_matrix exch def dup 4 get exch 5 get cairo_store_point
      /cairo_font where { pop cairo_selectfont } if } bind def
/Tm { 2 copy 8 2 roll 6 array astore /cairo_font_matrix exch def
      cairo_store_point /cairo_font where { pop cairo_selectfont } if } bind def
/g { setgray } bind def
/rg { setrgbcolor } bind def
/d1 { setcachedevice } bind def
/cairo_data_source {
  CairoDataIndex CairoData length lt
    { CairoData CairoDataIndex get /CairoDataIndex CairoDataIndex 1 add def }
    { () } ifelse
} def
/cairo_flush_ascii85_file { cairo_ascii85_file status { cairo_ascii85_file flushfile } if } def
/cairo_image { image cairo_flush_ascii85_file } def
/cairo_imagemask { imagemask cairo_flush_ascii85_file } def
%%EndProlog
%%BeginSetup
%%EndSetup
%%Page: 1 1
%%BeginPageSetup
%%PageBoundingBox: 0 0 861 861
%%EndPageSetup
q 0 0 861 861 rectclip
1 0 0 -1 0 861 cm q
1 g
0 0 860.25 860.25 re f
0 g
279 46.5 23.25 23.25 re f
372 46.5 23.25 23.25 re f
395.25 46.5 23.25 23.25 re f
465 46.5 23.25 23.25 re f
488.25 46.5 23.25 23.25 re f
558 46.5 23.25 23.25 re f
325.5 69.75 23.25 23.25 re f
372 69.75 23.25 23.25 re f
395.25 69.75 23.25 23.25 re f
418.5 69.75 23.25 23.25 re f
534.75 69.75 23.25 23.25 re f
581.25 69.75 23.25 23.25 re f
604.5 69.75 23.25 23.25 re f
395.25 93 23.25 23.25 re f
418.5 93 23.25 23.25 re f
441.75 93 23.25 23.25 re f
488.25 93 23.25 23.25 re f
511.5 93 23.25 23.25 re f
558 93 23.25 23.25 re f
604.5 93 23.25 23.25 re f
302.25 116.25 23.25 23.25 re f
348.75 116.25 23.25 23.25 re f
418.5 116.25 23.25 23.25 re f
465 116.25 23.25 23.25 re f
511.5 116.25 23.25 23.25 re f
558 116.25 23.25 23.25 re f
581.25 116.25 23.25 23.25 re f
255.75 139.5 23.25 23.25 re f
302.25 139.5 23.25 23.25 re f
325.5 139.5 23.25 23.25 re f
348.75 139.5 23.25 23.25 re f
372 139.5 23.25 23.25 re f
395.25 139.5 23.25 23.25 re f
418.5 139.5 23.25 23.25 re f
581.25 139.5 23.25 23.25 re f
232.5 162.75 23.25 23.25 re f
255.75 162.75 23.25 23.25 re f
302.25 162.75 23.25 23.25 re f
325.5 162.75 23.25 23.25 re f
348.75 162.75 23.25 23.25 re f
395.25 162.75 23.25 23.25 re f
441.75 162.75 23.25 23.25 re f
488.25 162.75 23.25 23.25 re f
534.75 162.75 23.25 23.25 re f
604.5 162.75 23.25 23.25 re f
232.5 186 23.25 23.25 re f
279 186 23.25 23.25 re f
325.5 186 23.25 23.25 re f
372 186 23.25 23.25 re f
418.5 186 23.25 23.25 re f
465 186 23.25 23.25 re f
511.5 186 23.25 23.25 re f
558 186 23.25 23.25 re f
604.5 186 23.25 23.25 re f
255.75 209.25 23.25 23.25 re f
302.25 209.25 23.25 23.25 re f
325.5 209.25 23.25 23.25 re f
372 209.25 23.25 23.25 re f
441.75 209.25 23.25 23.25 re f
465 209.25 23.25 23.25 re f
534.75 209.25 23.25 23.25 re f
558 209.25 23.25 23.25 re f
581.25 209.25 23.25 23.25 re f
46.5 232.5 23.25 23.25 re f
116.25 232.5 23.25 23.25 re f
162.75 232.5 23.25 23.25 re f
186 232.5 23.25 23.25 re f
232.5 232.5 23.25 23.25 re f
279 232.5 23.25 23.25 re f
302.25 232.5 23.25 23.25 re f
348.75 232.5 23.25 23.25 re f
372 232.5 23.25 23.25 re f
395.25 232.5 23.25 23.25 re f
418.5 232.5 23.25 23.25 re f
534.75 232.5 23.25 23.25 re f
581.25 232.5 23.25 23.25 re f
627.75 232.5 23.25 23.25 re f
674.25 232.5 23.25 23.25 re f
46.5 255.75 23.25 23.25 re f
69.75 255.75 23.25 23.25 re f
93 255.75 23.25 23.25 re f
116.25 255.75 23.25 23.25 re f
209.25 255.75 23.25 23.25 re f
232.5 255.75 23.25 23.25 re f
418.5 255.75 23.25 23.25 re f
441.75 255.75 23.25 23.25 re f
604.5 255.75 23.25 23.25 re f
627.75 255.75 23.25 23.25 re f
651 255.75 23.25 23.25 re f
720.75 255.75 23.25 23.25 re f
767.25 255.75 23.25 23.25 re f
46.5 279 23.25 23.25 re f
69.75 279 23.25 23.25 re f
116.25 279 23.25 23.25 re f
162.75 279 23.25 23.25 re f
186 279 23.25 23.25 re f
232.5 279 23.25 23.25 re f
279 279 23.25 23.25 re f
325.5 279 23.25 23.25 re f
441.75 279 23.25 23.25 re f
465 279 23.25 23.25 re f
488.25 279 23.25 23.25 re f
511.5 279 23.25 23.25 re f
627.75 279 23.25 23.25 re f
651 279 23.25 23.25 re f
697.5 279 23.25 23.25 re f
720.75 279 23.25 23.25 re f
744 279 23.25 23.25 re f
790.5 279 23.25 23.25 re f
46.5 302.25 23.25 23.25 re f
69.75 302.25 23.25 23.25 re f
93 302.25 23.25 23.25 re f
116.25 302.25 23.25 23.25 re f
139.5 302.25 23.25 23.25 re f
209.25 302.25 23.25 23.25 re f
232.5 302.25 23.25 23.25 re f
279 302.25 23.25 23.25 re f
302.25 302.25 23.25 23.25 re f
325.5 302.25 23.25 23.25 re f
372 302.25 23.25 23.25 re f
465 302.25 23.25 23.25 re f
511.5 302.25 23.25 23.25 re f
534.75 302.25 23.25 23.25 re f
558 302.25 23.25 23.25 re f
581.25 302.25 23.25 23.25 re f
604.5 302.25 23.25 23.25 re f
651 302.25 23.25 23.25 re f
674.25 302.25 23.25 23.25 re f
697.5 302.25 23.25 23.25 re f
720.75 302.25 23.25 23.25 re f
790.5 302.25 23.25 23.25 re f
69.75 325.5 23.25 23.25 re f
139.5 325.5 23.25 23.25 re f
186 325.5 23.25 23.25 re f
255.75 325.5 23.25 23.25 re f
279 325.5 23.25 23.25 re f
418.5 325.5 23.25 23.25 re f
441.75 325.5 23.25 23.25 re f
511.5 325.5 23.25 23.25 re f
534.75 325.5 23.25 23.25 re f
581.25 325.5 23.25 23.25 re f
604.5 325.5 23.25 23.25 re f
627.75 325.5 23.25 23.25 re f
651 325.5 23.25 23.25 re f
767.25 325.5 23.25 23.25 re f
46.5 348.75 23.25 23.25 re f
69.75 348.75 23.25 23.25 re f
93 348.75 23.25 23.25 re f
209.25 348.75 23.25 23.25 re f
255.75 348.75 23.25 23.25 re f
279 348.75 23.25 23.25 re f
302.25 348.75 23.25 23.25 re f
325.5 348.75 23.25 23.25 re f
348.75 348.75 23.25 23.25 re f
511.5 348.75 23.25 23.25 re f
534.75 348.75 23.25 23.25 re f
558 348.75 23.25 23.25 re f
604.5 348.75 23.25 23.25 re f
651 348.75 23.25 23.25 re f
697.5 348.75 23.25 23.25 re f
790.5 348.75 23.25 23.25 re f
69.75 372 23.25 23.25 re f
162.75 372 23.25 23.25 re f
186 372 23.25 23.25 re f
232.5 372 23.25 23.25 re f
279 372 23.25 23.25 re f
325.5 372 23.25 23.25 re f
372 372 23.25 23.25 re f
534.75 372 23.25 23.25 re f
581.25 372 23.25 23.25 re f
651 372 23.25 23.25 re f
697.5 372 23.25 23.25 re f
720.75 372 23.25 23.25 re f
744 372 23.25 23.25 re f
767.25 372 23.25 23.25 re f
46.5 395.25 23.25 23.25 re f
69.75 395.25 23.25 23.25 re f
93 395.25 23.25 23.25 re f
139.5 395.25 23.25 23.25 re f
162.75 395.25 23.25 23.25 re f
232.5 395.25 23.25 23.25 re f
255.75 395.25 23.25 23.25 re f
395.25 395.25 23.25 23.25 re f
418.5 395.25 23.25 23.25 re f
441.75 395.25 23.25 23.25 re f
465 395.25 23.25 23.25 re f
488.25 395.25 23.25 23.25 re f
534.75 395.25 23.25 23.25 re f
558 395.25 23.25 23.25 re f
581.25 395.25 23.25 23.25 re f
604.5 395.25 23.25 23.25 re f
627.75 395.25 23.25 23.25 re f
651 395.25 23.25 23.25 re f
69.75 418.5 23.25 23.25 re f
186 418.5 23.25 23.25 re f
209.25 418.5 23.25 23.25 re f
232.5 418.5 23.25 23.25 re f
255.75 418.5 23.25 23.25 re f
279 418.5 23.25 23.25 re f
441.75 418.5 23.25 23.25 re f
488.25 418.5 23.25 23.25 re f
511.5 418.5 23.25 23.25 re f
534.75 418.5 23.25 23.25 re f
558 418.5 23.25 23.25 re f
604.5 418.5 23.25 23.25 re f
651 418.5 23.25 23.25 re f
674.25 418.5 23.25 23.25 re f
697.5 418.5 23.25 23.25 re f
46.5 441.75 23.25 23.25 re f
69.75 441.75 23.25 23.25 re f
139.5 441.75 23.25 23.25 re f
209.25 441.75 23.25 23.25 re f
302.25 441.75 23.25 23.25 re f
348.75 441.75 23.25 23.25 re f
372 441.75 23.25 23.25 re f
418.5 441.75 23.25 23.25 re f
581.25 441.75 23.25 23.25 re f
604.5 441.75 23.25 23.25 re f
627.75 441.75 23.25 23.25 re f
674.25 441.75 23.25 23.25 re f
744 441.75 23.25 23.25 re f
46.5 465 23.25 23.25 re f
93 465 23.25 23.25 re f
162.75 465 23.25 23.25 re f
186 465 23.25 23.25 re f
209.25 465 23.25 23.25 re f
232.5 465 23.25 23.25 re f
255.75 465 23.25 23.25 re f
279 465 23.25 23.25 re f
325.5 465 23.25 23.25 re f
534.75 465 23.25 23.25 re f
604.5 465 23.25 23.25 re f
627.75 465 23.25 23.25 re f
674.25 465 23.25 23.25 re f
720.75 465 23.25 23.25 re f
744 465 23.25 23.25 re f
790.5 465 23.25 23.25 re f
46.5 488.25 23.25 23.25 re f
69.75 488.25 23.25 23.25 re f
93 488.25 23.25 23.25 re f
162.75 488.25 23.25 23.25 re f
209.25 488.25 23.25 23.25 re f
255.75 488.25 23.25 23.25 re f
279 488.25 23.25 23.25 re f
348.75 488.25 23.25 23.25 re f
395.25 488.25 23.25 23.25 re f
441.75 488.25 23.25 23.25 re f
465 488.25 23.25 23.25 re f
534.75 488.25 23.25 23.25 re f
558 488.25 23.25 23.25 re f
604.5 488.25 23.25 23.25 re f
46.5 511.5 23.25 23.25 re f
69.75 511.5 23.25 23.25 re f
93 511.5 23.25 23.25 re f
162.75 511.5 23.25 23.25 re f
186 511.5 23.25 23.25 re f
255.75 511.5 23.25 23.25 re f
302.25 511.5 23.25 23.25 re f
348.75 511.5 23.25 23.25 re f
418.5 511.5 23.25 23.25 re f
534.75 511.5 23.25 23.25 re f
581.25 511.5 23.25 23.25 re f
604.5 511.5 23.25 23.25 re f
674.25 511.5 23.25 23.25 re f
720.75 511.5 23.25 23.25 re f
767.25 511.5 23.25 23.25 re f
69.75 534.75 23.25 23.25 re f
93 534.75 23.25 23.25 re f
116.25 534.75 23.25 23.25 re f
139.5 534.75 23.25 23.25 re f
162.75 534.75 23.25 23.25 re f
209.25 534.75 23.25 23.25 re f
255.75 534.75 23.25 23.25 re f
348.75 534.75 23.25 23.25 re f
418.5 534.75 23.25 23.25 re f
465 534.75 23.25 23.25 re f
604.5 534.75 23.25 23.25 re f
627.75 534.75 23.25 23.25 re f
651 534.75 23.25 23.25 re f
720.75 534.75 23.25 23.25 re f
744 534.75 23.25 23.25 re f
767.25 534.75 23.25 23.25 re f
790.5 534.75 23.25 23.25 re f
46.5 558 23.25 23.25 re f
69.75 558 23.25 23.25 re f
93 558 23.25 23.25 re f
116.25 558 23.25 23.25 re f
186 558 23.25 23.25 re f
209.25 558 23.25 23.25 re f
232.5 558 23.25 23.25 re f
255.75 558 23.25 23.25 re f
302.25 558 23.25 23.25 re f
325.5 558 23.25 23.25 re f
418.5 558 23.25 23.25 re f
488.25 558 23.25 23.25 re f
604.5 558 23.25 23.25 re f
674.25 558 23.25 23.25 re f
720.75 558 23.25 23.25 re f
744 558 23.25 23.25 re f
790.5 558 23.25 23.25 re f
69.75 581.25 23.25 23.25 re f
116.25 581.25 23.25 23.25 re f
232.5 581.25 23.25 23.25 re f
255.75 581.25 23.25 23.25 re f
302.25 581.25 23.25 23.25 re f
325.5 581.25 23.25 23.25 re f
348.75 581.25 23.25 23.25 re f
395.25 581.25 23.25 23.25 re f
418.5 581.25 23.25 23.25 re f
465 581.25 23.25 23.25 re f
511.5 581.25 23.25 23.25 re f
534.75 581.25 23.25 23.25 re f
558 581.25 23.25 23.25 re f
581.25 581.25 23.25 23.25 re f
674.25 581.25 23.25 23.25 re f
697.5 581.25 23.25 23.25 re f
720.75 581.25 23.25 23.25 re f
790.5 581.25 23.25 23.25 re f
46.5 604.5 23.25 23.25 re f
93 604.5 23.25 23.25 re f
116.25 604.5 23.25 23.25 re f
162.75 604.5 23.25 23.25 re f
186 604.5 23.25 23.25 re f
209.25 604.5 23.25 23.25 re f
255.75 604.5 23.25 23.25 re f
302.25 604.5 23.25 23.25 re f
372 604.5 23.25 23.25 re f
395.25 604.5 23.25 23.25 re f
441.75 604.5 23.25 23.25 re f
465 604.5 23.25 23.25 re f
511.5 604.5 23.25 23.25 re f
534.75 604.5 23.25 23.25 re f
604.5 604.5 23.25 23.25 re f
627.75 604.5 23.25 23.25 re f
651 604.5 23.25 23.25 re f
674.25 604.5 23.25 23.25 re f
697.5 604.5 23.25 23.25 re f
767.25 604.5 23.25 23.25 re f
232.5 627.75 23.25 23.25 re f
255.75 627.75 23.25 23.25 re f
279 627.75 23.25 23.25 re f
302.25 627.75 23.25 23.25 re f
441.75 627.75 23.25 23.25 re f
465 627.75 23.25 23.25 re f
488.25 627.75 23.25 23.25 re f
511.5 627.75 23.25 23.25 re f
534.75 627.75 23.25 23.25 re f
604.5 627.75 23.25 23.25 re f
697.5 627.75 23.25 23.25 re f
744 627.75 23.25 23.25 re f
767.25 627.75 23.25 23.25 re f
790.5 627.75 23.25 23.25 re f
255.75 651 23.25 23.25 re f
279 651 23.25 23.25 re f
302.25 651 23.25 23.25 re f
325.5 651 23.25 23.25 re f
348.75 651 23.25 23.25 re f
372 651 23.25 23.25 re f
465 651 23.25 23.25 re f
604.5 651 23.25 23.25 re f
651 651 23.25 23.25 re f
697.5 651 23.25 23.25 re f
720.75 651 23.25 23.25 re f
744 651 23.25 23.25 re f
767.25 651 23.25 23.25 re f
232.5 674.25 23.25 23.25 re f
302.25 674.25 23.25 23.25 re f
325.5 674.25 23.25 23.25 re f
348.75 674.25 23.25 23.25 re f
441.75 674.25 23.25 23.25 re f
465 674.25 23.25 23.25 re f
488.25 674.25 23.25 23.25 re f
511.5 674.25 23.25 23.25 re f
534.75 674.25 23.25 23.25 re f
558 674.25 23.25 23.25 re f
604.5 674.25 23.25 23.25 re f
697.5 674.25 23.25 23.25 re f
790.5 674.25 23.25 23.25 re f
255.75 697.5 23.25 23.25 re f
302.25 697.5 23.25 23.25 re f
325.5 697.5 23.25 23.25 re f
348.75 697.5 23.25 23.25 re f
441.75 697.5 23.25 23.25 re f
534.75 697.5 23.25 23.25 re f
558 697.5 23.25 23.25 re f
604.5 697.5 23.25 23.25 re f
627.75 697.5 23.25 23.25 re f
651 697.5 23.25 23.25 re f
674.25 697.5 23.25 23.25 re f
697.5 697.5 23.25 23.25 re f
720.75 697.5 23.25 23.25 re f
767.25 697.5 23.25 23.25 re f
790.5 697.5 23.25 23.25 re f
232.5 720.75 23.25 23.25 re f
302.25 720.75 23.25 23.25 re f
372 720.75 23.25 23.25 re f
418.5 720.75 23.25 23.25 re f
441.75 720.75 23.25 23.25 re f
465 720.75 23.25 23.25 re f
534.75 720.75 23.25 23.25 re f
558 720.75 23.25 23.25 re f
604.5 720.75 23.25 23.25 re f
651 720.75 23.25 23.25 re f
674.25 720.75 23.25 23.25 re f
697.5 720.75 23.25 23.25 re f
720.75 720.75 23.25 23.25 re f
255.75 744 23.25 23.25 re f
302.25 744 23.25 23.25 re f
325.5 744 23.25 23.25 re f
348.75 744 23.25 23.25 re f
372 744 23.25 23.25 re f
441.75 744 23.25 23.25 re f
604.5 744 23.25 23.25 re f
627.75 744 23.25 23.25 re f
674.25 744 23.25 23.25 re f
697.5 744 23.25 23.25 re f
720.75 744 23.25 23.25 re f
790.5 744 23.25 23.25 re f
279 767.25 23.25 23.25 re f
418.5 767.25 23.25 23.25 re f
441.75 767.25 23.25 23.25 re f
465 767.25 23.25 23.25 re f
488.25 767.25 23.25 23.25 re f
534.75 767.25 23.25 23.25 re f
558 767.25 23.25 23.25 re f
674.25 767.25 23.25 23.25 re f
697.5 767.25 23.25 23.25 re f
232.5 790.5 23.25 23.25 re f
255.75 790.5 23.25 23.25 re f
279 790.5 23.25 23.25 re f
325.5 790.5 23.25 23.25 re f
348.75 790.5 23.25 23.25 re f
534.75 790.5 23.25 23.25 re f
604.5 790.5 23.25 23.25 re f
674.25 790.5 23.25 23.25 re f
697.5 790.5 23.25 23.25 re f
720.75 790.5 23.25 23.25 re f
767.25 790.5 23.25 23.25 re f
184.836 46.5 m 46.5 46.5 l 46.5 209.25 l 209.25 209.25 l 209.25 46.5 l 
h
184.836 184.836 m 70.914 184.836 l 70.914 70.914 l 184.836 70.914 l h
184.836 184.836 m f
789.336 46.5 m 651 46.5 l 651 209.25 l 813.75 209.25 l 813.75 46.5 l h
789.336 184.836 m 675.414 184.836 l 675.414 70.914 l 789.336 70.914 l h
789.336 184.836 m f
184.836 651 m 46.5 651 l 46.5 813.75 l 209.25 813.75 l 209.25 651 l h
184.836 789.336 m 70.914 789.336 l 70.914 675.414 l 184.836 675.414 l h
184.836 789.336 m f
93 93 69.75 69.75 re f
697.5 93 69.75 69.75 re f
93 697.5 69.75 69.75 re f
Q Q
showpage
%%Trailer
end
%%EOF
