%!Adobe-FontList 1.23
%Locale:0x409

%BeginFont
Handler:DirectoryHandler
FontType:Invalid
OutlineFileName:/Volumes/Seagate Mahalo/Mahalo drive/Gitlab/Brand stuff/eBook templates/uploads/ebook-master-template_rebrand_R8 Folder/Document fonts/AdobeFnt23.lst
FileLength:1703
FileModTime:678403082
%EndFont

%BeginFont
Handler:DirectoryHandler
FontType:TrueType
FontName:Inter-Regular
FamilyName:Inter
StyleName:Regular
MenuName:Inter
FamilyPrefix:Inter
StyleBits:0
WeightClass:400
WidthClass:5
AngleClass:0
FullName:Inter
WritingScript:Roman
OutlineFileName:/Volumes/Seagate Mahalo/Mahalo drive/Gitlab/Brand stuff/eBook templates/uploads/ebook-master-template_rebrand_R8 Folder/Document fonts/Inter-VariableFont_slnt,wght.ttf
DataFormat:sfntData
hasSVG:no
VariableFontType:TrueTypeVariableFont
FileLength:748068
FileModTime:601545600
NameArray:0,Win,1,Inter
%EndFont

%BeginFont
Handler:DirectoryHandler
FontType:TrueType
FontName:InaiMathi
FamilyName:InaiMathi
StyleName:Regular
MenuName:InaiMathi
StyleBits:0
WeightClass:400
WidthClass:5
AngleClass:0
FullName:InaiMathi
WritingScript:Tamil
OutlineFileName:/Volumes/Seagate Mahalo/Mahalo drive/Gitlab/Brand stuff/eBook templates/uploads/ebook-master-template_rebrand_R8 Folder/Document fonts/InaiMathi-MN.ttc
TTCOffset:32
DataFormat:sfntData
hasSVG:no
VariableFontType:NonVariableFont
FileLength:457432
FileModTime:678403081
NameArray:0,Mac,4,InaiMathi
%EndFont

%BeginFont
Handler:DirectoryHandler
FontType:TrueType
FontName:InaiMathi-Bold
FamilyName:InaiMathi
StyleName:Bold
MenuName:InaiMathi
StyleBits:0
WeightClass:700
WidthClass:5
AngleClass:0
FullName:InaiMathi Bold
WritingScript:Tamil
OutlineFileName:/Volumes/Seagate Mahalo/Mahalo drive/Gitlab/Brand stuff/eBook templates/uploads/ebook-master-template_rebrand_R8 Folder/Document fonts/InaiMathi-MN.ttc
TTCOffset:412
DataFormat:sfntData
hasSVG:no
VariableFontType:NonVariableFont
FileLength:457432
FileModTime:678403081
NameArray:0,Mac,4,InaiMathi Bold
%EndFont

