<?xml version="1.0" encoding="utf-8"?>
<!-- Generator: Adobe Illustrator 19.2.1, SVG Export Plug-In . SVG Version: 6.00 Build 0)  -->
<svg version="1.1" id="Layer_1" xmlns:sketch="http://www.bohemiancoding.com/sketch/ns"
	 xmlns="http://www.w3.org/2000/svg" xmlns:xlink="http://www.w3.org/1999/xlink" x="0px" y="0px" viewBox="0 0 76 76"
	 style="enable-background:new 0 0 76 76;" xml:space="preserve">
<style type="text/css">
	.st0{fill:#E24329;}
	.st1{fill:none;stroke:#E5E5E4;stroke-width:2;stroke-linecap:round;stroke-linejoin:round;stroke-miterlimit:10;}
	.st2{fill:#8C929D;}
	.st3{fill:#FC6D26;}
	.st4{fill:#FCA326;}
	.st5{fill:#444444;}
	.st6{fill:#554488;}
	.st7{fill:#4887C5;}
	.st8{fill:url(#SVGID_1_);}
	.st9{fill:url(#SVGID_2_);}
	.st10{fill:#FFFFFF;}
	.st11{opacity:0.1;}
	.st12{fill:#5C5C5C;}
	.st13{fill:#787878;}
	.st14{fill:#A1A1A1;}
	.st15{opacity:0.15;}
	.st16{fill:#373D47;}
	.st17{fill:#6B4FBB;}
	.st18{fill:none;stroke:#000000;stroke-miterlimit:10;}
	.st19{fill:none;stroke:#FC6D26;stroke-width:1.8;stroke-linecap:round;stroke-linejoin:round;stroke-miterlimit:10;}
	.st20{fill:none;stroke:#E24329;stroke-width:1.8;stroke-linecap:round;stroke-linejoin:round;stroke-miterlimit:10;}
	.st21{fill:none;stroke:#FCA326;stroke-width:1.8;stroke-linecap:round;stroke-linejoin:round;stroke-miterlimit:10;}
	.st22{fill:none;stroke:#E5E5E4;stroke-width:1.8;stroke-linecap:round;stroke-linejoin:round;stroke-miterlimit:10;}
	.st23{fill:#2B2B2B;}
	.st24{fill:#FFFFFF;stroke:#E5E5E4;stroke-width:2;stroke-linecap:round;stroke-linejoin:round;stroke-miterlimit:10;}
	.st25{fill:#E5E5E4;}
	.st26{fill:none;stroke:#E5E5E4;stroke-width:1.8353;stroke-linecap:round;stroke-linejoin:round;stroke-miterlimit:10;}
	.st27{fill:none;stroke:#E14329;stroke-width:2;stroke-linecap:round;stroke-linejoin:round;stroke-miterlimit:10;}
	.st28{fill:#FFFFFF;stroke:#E14329;stroke-width:2;stroke-linecap:round;stroke-linejoin:round;stroke-miterlimit:10;}
	.st29{fill:none;stroke:#E14329;stroke-width:1.9627;stroke-linecap:round;stroke-linejoin:round;stroke-miterlimit:10;}
	.st30{fill:#E14329;}
	.st31{fill:none;stroke:#E14329;stroke-width:2.1099;stroke-linecap:round;stroke-linejoin:round;stroke-miterlimit:10;}
	.st32{fill:none;stroke:#FCA326;stroke-width:2;stroke-linecap:round;stroke-linejoin:round;stroke-miterlimit:10;}
	.st33{fill:none;stroke:#E14329;stroke-width:4;stroke-linecap:round;stroke-linejoin:round;stroke-miterlimit:10;}
	.st34{fill:none;stroke:#E14329;stroke-width:1.8353;stroke-linecap:round;stroke-linejoin:round;stroke-miterlimit:10;}
	.st35{fill:none;stroke:#E24329;stroke-width:2;stroke-linecap:round;stroke-linejoin:round;stroke-miterlimit:10;}
	.st36{fill:none;stroke:#E14329;stroke-width:2.055;stroke-linecap:round;stroke-linejoin:round;stroke-miterlimit:10;}
	.st37{fill:#463675;}
	.st38{fill:none;stroke:#FFFFFF;stroke-width:2;stroke-miterlimit:10;}
	.st39{fill:none;stroke:#FFFFFF;stroke-width:2.0065;stroke-miterlimit:10;}
	.st40{fill:none;stroke:#E14329;stroke-width:2.1111;stroke-linecap:round;stroke-linejoin:round;stroke-miterlimit:10;}
	.st41{fill:none;stroke:#E14329;stroke-width:2.0295;stroke-linecap:round;stroke-linejoin:round;stroke-miterlimit:10;}
	.st42{fill:#FFB6CA;}
	.st43{fill:none;stroke:#E14329;stroke-width:2.0074;stroke-linecap:round;stroke-linejoin:round;stroke-miterlimit:10;}
	.st44{fill:none;stroke:#E14329;stroke-width:1.9282;stroke-linecap:round;stroke-linejoin:round;stroke-miterlimit:10;}
	.st45{fill:none;stroke:#E14329;stroke-width:2.0019;stroke-linecap:round;stroke-linejoin:round;stroke-miterlimit:10;}
	.st46{fill:none;stroke:#E14329;stroke-width:2.0013;stroke-linecap:round;stroke-linejoin:round;stroke-miterlimit:10;}
	.st47{fill:none;stroke:#E14329;stroke-width:2.0821;stroke-linecap:round;stroke-linejoin:round;stroke-miterlimit:10;}
	.st48{fill:none;stroke:#E14329;stroke-width:1.8741;stroke-linecap:round;stroke-linejoin:round;stroke-miterlimit:10;}
	.st49{fill:none;stroke:#E14329;stroke-width:1.9965;stroke-linecap:round;stroke-linejoin:round;stroke-miterlimit:10;}
	.st50{fill:none;stroke:#E14329;stroke-width:2.1108;stroke-linecap:round;stroke-linejoin:round;stroke-miterlimit:10;}
	.st51{fill:none;stroke:#E14329;stroke-width:2.1;stroke-linecap:round;stroke-linejoin:round;stroke-miterlimit:10;}
	.st52{fill:none;stroke:#E14329;stroke-width:2.1103;stroke-linecap:round;stroke-linejoin:round;stroke-miterlimit:10;}
	.st53{fill:none;stroke:#E14329;stroke-width:1.9134;stroke-linecap:round;stroke-linejoin:round;stroke-miterlimit:10;}
	.st54{fill:none;stroke:#E14329;stroke-width:1.8373;stroke-linecap:round;stroke-linejoin:round;stroke-miterlimit:10;}
	.st55{fill:none;stroke:#E24329;stroke-width:2.0215;stroke-linecap:round;stroke-linejoin:round;stroke-miterlimit:10;}
	.st56{fill:none;stroke:#E24329;stroke-width:2.1768;stroke-linecap:round;stroke-linejoin:round;stroke-miterlimit:10;}
	.st57{fill:#FFFFFF;stroke:#E14329;stroke-width:1.8373;stroke-linecap:round;stroke-linejoin:round;stroke-miterlimit:10;}
	.st58{fill:#FFFFFF;stroke:#E14329;stroke-width:1.725;stroke-linecap:round;stroke-linejoin:round;stroke-miterlimit:10;}
	.st59{fill:none;stroke:#000000;stroke-width:2;stroke-miterlimit:10;}
	.st60{fill:none;stroke:#373D47;stroke-width:2;stroke-linecap:round;stroke-linejoin:round;stroke-miterlimit:10;}
	.st61{fill:#FFFFFF;stroke:#373D47;stroke-width:2;stroke-linecap:round;stroke-linejoin:round;stroke-miterlimit:10;}
	.st62{fill:#A3A2A2;}
	.st63{clip-path:url(#SVGID_4_);}
	.st64{fill:none;stroke:#FCA326;stroke-width:1.9663;stroke-linecap:round;stroke-linejoin:round;stroke-miterlimit:10;}
	.st65{fill:none;stroke:#FCA326;stroke-width:2;stroke-linecap:round;stroke-linejoin:round;}
	.st66{fill:none;stroke:#FCA326;stroke-width:2;stroke-linecap:round;stroke-linejoin:round;stroke-dasharray:4.1176,4.1176;}
	.st67{fill:none;stroke:#E14329;stroke-width:1.9862;stroke-linecap:round;stroke-linejoin:round;stroke-miterlimit:10;}
	.st68{fill:none;stroke:#E14329;stroke-width:2.0007;stroke-linecap:round;stroke-linejoin:round;stroke-miterlimit:10;}
	.st69{fill:none;stroke:#FCA326;stroke-width:2.1818;stroke-linecap:round;stroke-linejoin:round;stroke-miterlimit:10;}
	.st70{fill:none;stroke:#FCA326;stroke-width:1.9373;stroke-linecap:round;stroke-linejoin:round;stroke-miterlimit:10;}
	.st71{fill:none;stroke:#FCA326;stroke-width:14;stroke-linecap:round;stroke-miterlimit:10;}
	.st72{fill:none;stroke:#E14329;stroke-width:2.0972;stroke-linecap:round;stroke-linejoin:round;stroke-miterlimit:10;}
	.st73{fill:none;stroke:#E14329;stroke-width:1.8901;stroke-linecap:round;stroke-linejoin:round;stroke-miterlimit:10;}
	.st74{fill:none;stroke:#E24329;stroke-width:1.633;stroke-linecap:round;stroke-linejoin:round;stroke-miterlimit:10;}
	.st75{fill:none;stroke:#E24329;stroke-width:1.9397;stroke-linecap:round;stroke-linejoin:round;stroke-miterlimit:10;}
</style>
<g>
	<path class="st30" d="M64.1,55.3c-14,6.7-30.9,1-37.8-12.7c-6.2-12.3-2.1-27.3,9.5-34.9C36.7,9.1,38.2,10,40,10c2.8,0,5-2.2,5-5
		s-2.2-5-5-5c-2.4,0-4.4,1.7-4.9,4H14.9c-0.5-2.3-2.5-4-4.9-4C7.2,0,5,2.2,5,5s2.2,5,5,5c2.4,0,4.4-1.7,4.9-4h19.9
		c-12.5,8.2-16.9,24.3-10.3,37.5c4.7,9.5,14,15.3,24,16.4c0,0,0,0.1,0,0.1v10h-6.6c-0.5-2.3-2.5-4-4.9-4c-2.8,0-5,2.2-5,5s2.2,5,5,5
		c2.4,0,4.4-1.7,4.9-4h7.5c0,0,0,0,0,0c0,0,0,0,0,0c0.6,0,1-0.4,1-1V60.1c0.4,0,0.8,0,1.2,0c4.4,0,9-1,13.2-3
		c0.5-0.2,0.7-0.8,0.5-1.3C65.2,55.3,64.6,55.1,64.1,55.3z M40,2c1.7,0,3,1.3,3,3s-1.3,3-3,3s-3-1.3-3-3S38.3,2,40,2z M10,8
		C8.3,8,7,6.7,7,5s1.3-3,3-3s3,1.3,3,3S11.7,8,10,8z M37,74c-1.7,0-3-1.3-3-3s1.3-3,3-3s3,1.3,3,3S38.7,74,37,74z"/>
	<path class="st30" d="M69.9,22.8c-0.1-0.2-0.1-0.5-0.2-0.7c-0.1-0.2-0.2-0.4-0.3-0.5c0,0-0.1,0-0.1-0.1C64.6,11.9,53,7.7,43.2,12.2
		c-10,4.5-14.5,16.4-10,26.5c2.2,4.9,6.2,8.6,11.2,10.5c2.3,0.9,4.7,1.3,7.1,1.3c2.8,0,5.6-0.6,8.2-1.8c4.9-2.2,8.6-6.2,10.5-11.2
		C71.9,32.7,71.8,27.5,69.9,22.8z M51.4,12.4c4.5,0,8.8,1.7,12.1,4.6c-0.8,2-2.6,4.1-5.2,6.2c-1.9-3.3-4-6.2-6.3-8.2
		c-1.2-1-2.3-1.8-3.4-2.3C49.5,12.5,50.5,12.4,51.4,12.4z M60.5,33.8c-1.7,1.2-3.7,2.3-6,3.3c-2.2,1-4.4,1.8-6.5,2.3
		c-1.2-1.7-2.3-3.7-3.3-6c-0.2-0.4-0.3-0.8-0.5-1.1c2.3-0.6,4.6-1.4,7-2.4c2.4-1.1,4.5-2.3,6.5-3.6c0.2,0.4,0.4,0.7,0.5,1.1
		C59.2,29.5,59.9,31.7,60.5,33.8z M44,14.1c0.4-0.2,0.8-0.3,1.3-0.3c1.5,0,3.4,0.9,5.4,2.7c2.2,1.9,4.3,4.7,6.1,7.9
		c-1.9,1.3-4,2.6-6.4,3.6c-2.3,1-4.7,1.8-6.9,2.4c-1.3-3.5-1.9-6.9-2-9.8C41.5,17.2,42.4,14.8,44,14.1z M40,16.6
		c-0.3,1.2-0.5,2.6-0.5,4.1c0,3.1,0.7,6.6,2,10.2c-3.2,0.6-6,0.5-8-0.2C33.4,25.3,35.7,20,40,16.6z M35.1,37.8
		c0-0.1-0.1-0.1-0.1-0.2c-0.7-1.6-1.1-3.2-1.4-4.8c1.1,0.3,2.4,0.4,3.8,0.4c1.5,0,3.1-0.2,4.8-0.5c0.2,0.5,0.4,1,0.7,1.5
		c0.9,2,2,3.9,3.1,5.6c-1.5,0.3-2.9,0.4-4.3,0.4C38.2,40.4,35.8,39.4,35.1,37.8z M37.6,41.9c1.1,0.3,2.5,0.5,4,0.5c0,0,0.1,0,0.1,0
		c1.7,0,3.6-0.2,5.5-0.7c2.3,3.1,4.8,5.3,7.2,6.5C48,49.2,41.6,46.8,37.6,41.9z M58.8,46.8c-2.2,1-6-1-9.6-5.6c2-0.6,4-1.3,6-2.2
		c2-0.9,3.9-2,5.6-3.1c0.3,1.5,0.4,2.9,0.4,4.3C61.4,43.6,60.5,46,58.8,46.8z M60,26.5c-0.2-0.5-0.5-1-0.7-1.5
		c2.6-2.1,4.6-4.3,5.7-6.4c1.1,1.3,2.1,2.8,2.8,4.4c0.1,0.2,0.2,0.5,0.3,0.7c0.4,2.3-1.7,5.7-5.9,8.9C61.7,30.6,60.9,28.6,60,26.5z
		 M62.9,44.3c0.3-1.2,0.5-2.6,0.5-4.1c0-1.7-0.2-3.6-0.7-5.5c3-2.3,5.3-4.7,6.5-7.1C70.2,33.9,67.8,40.2,62.9,44.3z"/>
</g>
</svg>
