<svg width="278" height="71" viewBox="0 0 278 71" fill="none" xmlns="http://www.w3.org/2000/svg">
<path d="M163 17.0791H158V54.0791H178V49.0791H163V17.0791Z" fill="#8C929D"/>
<path d="M196 47.0791C195.22 47.8881 194.036 48.6423 193 49.0791C191.964 49.5159 191.124 49.0851 190 49.0791C186.295 49.0791 185 47.4642 185 45.0791C185 41.4903 187.689 40.0791 193 40.0791C194.151 40.0836 194.863 39.9055 196 40.0791V47.0791ZM191 25.0791C187.218 25.0674 183.907 26.6627 181 29.0791L183 32.0791C184.986 30.92 186.496 29.0791 190 29.0791C193.995 29.0791 196 31.6463 196 35.0791V37.0791C194.885 36.9044 194.128 36.0825 193 36.0791C184.475 36.0791 180 39.8377 180 46.0791C180 51.674 183.8 54.0791 189 54.0791C192.504 54.0791 195.84 52.6871 197 50.0791L198 53.0791H201V35.0791C200.978 29.2167 198.253 25.0791 191 25.0791Z" fill="#8C929D"/>
<path d="M218 50.0791C216.144 50.0791 214.222 49.6383 213 49.0791V32.0791C214.675 30.6921 216.351 30.0791 219 30.0791C223.777 30.0791 226 32.6879 226 38.0791C226 45.7296 223.343 50.0791 218 50.0791ZM220 25.0791C218.719 25.0713 217.171 25.5661 216 26.0791C214.829 26.592 213.854 27.136 213 28.0791V23.0791V17.0791H208V52.0791C210.422 53.0857 213.401 54.0791 217 54.0791C226.214 54.0791 231 48.1232 231 38.0791C230.977 30.1377 227.244 25.0791 220 25.0791Z" fill="#8C929D"/>
<path d="M110 21.0791C114.4 21.0791 117.153 22.6132 119 24.0791L121 20.0791C118.105 17.5533 114.195 16.0791 110 16.0791C99.4214 16.0791 92 22.2019 92 35.0791C92 48.5651 99.8577 54.0791 109 54.0791C112.782 54.0877 116.496 53.4875 120 52.0791V37.0791V33.0791H106V37.0791H115V48.0791C113.86 48.6429 112.667 49.0791 110 49.0791C102.659 49.0791 97 44.7087 97 35.0791C96.9772 25.269 102.545 21.0791 110 21.0791Z" fill="#8C929D"/>
<path d="M144 17.0791H139V23.0791V44.0791C139 49.9332 141.601 54.0791 149 54.0791C150.001 54.0816 151.017 54.2593 152 54.0791V49.0791C151.254 49.1895 150.754 50.0858 150 50.0791C145.925 50.0791 144 47.507 144 44.0791V30.0791H152V26.0791H144V17.0791Z" fill="#8C929D"/>
<path d="M127 53.0791H132V25.0791H127V53.0791Z" fill="#8C929D"/>
<path d="M127 22.0791H132V17.0791H127V22.0791Z" fill="#8C929D"/>
<path d="M77 40.0791L73 27.0791L64 1.07907C63.9038 0.790256 64.2461 0.25699 64 0.0790739C63.754 -0.0988424 63.3032 0.0790739 63 0.0790739C62.6969 0.0790739 62.2461 -0.0988424 62 0.0790739C61.754 0.25699 61.0963 0.790256 61 1.07907L53 27.0791H25L17 1.07907C16.9038 0.790256 16.2461 0.25699 16 0.0790739C15.754 -0.0988424 15.3032 0.0790739 15 0.0790739C14.6969 0.0790739 14.2461 -0.0988424 14 0.0790739C13.754 0.25699 14.0963 0.790256 14 1.07907L5.00003 27.0791L1.00003 40.0791C0.812628 40.6593 0.813003 41.4987 1.00003 42.0791C1.18706 42.6594 1.50972 42.7194 2.00003 43.0791L39 70.0791L76 43.0791C76.4924 42.721 76.8106 42.6594 77 42.0791C77.1895 41.4987 77.1857 40.6607 77 40.0791Z" fill="#FC6D26"/>
<path d="M39 70.0791L53 27.0791H25L39 70.0791Z" fill="#E24329"/>
<path d="M39 70.0791L25 27.0791H5L39 70.0791Z" fill="#FC6D26"/>
<path d="M5.00005 27.0791L1.00005 40.0791C0.812621 40.6598 0.812996 41.4983 1.00005 42.0791C1.18711 42.6599 1.50967 42.7191 2.00005 43.0791L39 70.0791L5.00005 27.0791Z" fill="#FCA326"/>
<path d="M5 27.0791H25L16 1.07907C15.9011 0.790489 16.2528 0.256842 16 0.0790704C15.7472 -0.0987007 15.3114 0.0790704 15 0.0790704C14.6886 0.0790704 14.2528 -0.0987007 14 0.0790704C13.7472 0.256842 14.0989 0.790489 14 1.07907L5 27.0791Z" fill="#E24329"/>
<path d="M39 70.0791L53 27.0791H73L39 70.0791Z" fill="#FC6D26"/>
<path d="M73 27.0791L77 40.0791C77.1874 40.6601 77.187 41.4979 77 42.0791C76.813 42.6602 76.4904 42.7189 76 43.0791L39 70.0791L73 27.0791Z" fill="#FCA326"/>
<path d="M73 27.0791H53L62 1.07907C62.0989 0.790489 61.7473 0.256842 62 0.0790704C62.2527 -0.0987007 62.6886 0.0790704 63 0.0790704C63.3114 0.0790704 63.7473 -0.0987007 64 0.0790704C64.2527 0.256842 63.9011 0.790489 64 1.07907L73 27.0791Z" fill="#E24329"/>
<path d="M274 0H278L255 70H251L274 0Z" fill="#8C929D"/>
</svg>
