<?xml version="1.0" encoding="utf-8"?>
<!-- Generator: Adobe Illustrator 24.1.2, SVG Export Plug-In . SVG Version: 6.00 Build 0)  -->
<svg version="1.1" id="Layer_1" xmlns="http://www.w3.org/2000/svg" xmlns:xlink="http://www.w3.org/1999/xlink" x="0px" y="0px"
	 viewBox="0 0 954 598.8" style="enable-background:new 0 0 954 598.8;" xml:space="preserve">
<style type="text/css">
	.st0{fill:none;stroke:#0000FF;}
	.st1{fill:none;stroke:#808080;stroke-width:5;stroke-linecap:round;stroke-linejoin:round;}
	.st2{fill:none;stroke:#000000;stroke-width:5;stroke-linecap:round;stroke-linejoin:round;}
</style>
<rect class="st0" width="954" height="598.8"/>
<g transform="translate(199, 290)">
	<path class="st1" d="M10,0l0,0.2l0,0.2l0,0.2l0,0.2l0,0.2l0,0.2l0,0.2l0,0.2l0,0.2l0,0.2l0,0.2l0,0.2l0,0.2l0,0.2l0,0.2l0,0.2
		l0,0.2L9.5,3.1L9.5,3.3L9.4,3.4L9.3,3.6L9.3,3.7L9.2,3.9L9.1,4.1L9.1,4.2L9,4.4L8.9,4.5L8.8,4.7L8.7,4.8L8.7,5L8.6,5.2L8.5,5.3
		L8.4,5.4L8.3,5.6L8.2,5.7L8.1,5.9L8,6L7.9,6.2L7.8,6.3L7.7,6.4L7.5,6.6L7.4,6.7L7.3,6.8L7.2,6.9L7.1,7.1L6.9,7.2L6.8,7.3L6.7,7.4
		L6.6,7.5L6.4,7.7L6.3,7.8L6.2,7.9L6,8L5.9,8.1L5.7,8.2L5.6,8.3L5.4,8.4L5.3,8.5L5.2,8.6L5,8.7L4.8,8.7L4.7,8.8L4.5,8.9L4.4,9
		L4.2,9.1L4.1,9.1L3.9,9.2L3.7,9.3L3.6,9.3L3.4,9.4L3.3,9.5L3.1,9.5L2.9,9.6l-0.2,0l-0.2,0l-0.2,0l-0.2,0l-0.2,0l-0.2,0l-0.2,0
		l-0.2,0l-0.2,0l-0.2,0L1,9.9l-0.2,0l-0.2,0l-0.2,0l-0.2,0l-0.2,0L0,10l-0.2,0l-0.2,0l-0.2,0l-0.2,0l-0.2,0l-0.2,0l-0.2,0l-0.2,0
		l-0.2,0l-0.2,0l-0.2,0l-0.2,0l-0.2,0l-0.2,0l-0.2,0l-0.2,0l-0.2,0l-0.2-0.1l-0.2-0.1l-0.2-0.1l-0.2-0.1l-0.2-0.1l-0.2-0.1l-0.2-0.1
		l-0.2-0.1L-4.4,9l-0.2-0.1l-0.2-0.1l-0.2-0.1L-5,8.7l-0.2-0.1l-0.1-0.1l-0.1-0.1l-0.1-0.1l-0.1-0.1l-0.1-0.1L-6,8l-0.1-0.1
		l-0.1-0.1l-0.1-0.1l-0.1-0.1l-0.1-0.1l-0.1-0.1l-0.1-0.1l-0.1-0.1l-0.1-0.1l-0.1-0.1l-0.1-0.1l-0.1-0.1l-0.1-0.1l-0.1-0.1l-0.1-0.1
		L-8,6l-0.1-0.1l-0.1-0.1l-0.1-0.1l-0.1-0.1l-0.1-0.1l-0.1-0.1L-8.7,5l-0.1-0.2l-0.1-0.2l-0.1-0.2L-9,4.4l-0.1-0.2l-0.1-0.2
		l-0.1-0.2l-0.1-0.2l-0.1-0.2l-0.1-0.2l-0.1-0.2l-0.1-0.2l-0.1-0.2l0-0.2l0-0.2l0-0.2l0-0.2l0-0.2l0-0.2l0-0.2l0-0.2l0-0.2l0-0.2
		l0-0.2l0-0.2l0-0.2l0-0.2l0-0.2l0-0.2l0-0.2l0-0.2l0-0.2l0-0.2l0-0.2l0-0.2l0-0.2l0-0.2l0-0.2l0-0.2l0-0.2l0-0.2l0-0.2l0-0.2l0-0.2
		l0-0.2l0-0.2l0-0.2l0.1-0.2l0.1-0.2l0.1-0.2l0.1-0.2l0.1-0.2l0.1-0.2l0.1-0.2l0.1-0.2L-9-4.4l0.1-0.2l0.1-0.2l0.1-0.2L-8.7-5
		l0.1-0.2l0.1-0.1l0.1-0.1l0.1-0.1l0.1-0.1l0.1-0.1L-8-6l0.1-0.1l0.1-0.1l0.1-0.1l0.1-0.1l0.1-0.1l0.1-0.1l0.1-0.1l0.1-0.1l0.1-0.1
		l0.1-0.1l0.1-0.1l0.1-0.1l0.1-0.1l0.1-0.1l0.1-0.1L-6-8l0.1-0.1l0.1-0.1l0.1-0.1l0.1-0.1l0.1-0.1l0.1-0.1L-5-8.7l0.2-0.1l0.2-0.1
		l0.2-0.1L-4.4-9l0.2-0.1l0.2-0.1l0.2-0.1l0.2-0.1l0.2-0.1l0.2-0.1l0.2-0.1l0.2-0.1l0.2-0.1l0.2,0l0.2,0l0.2,0l0.2,0l0.2,0l0.2,0
		l0.2,0l0.2,0l0.2,0l0.2,0l0.2,0l0.2,0l0.2,0l0.2,0l0.2,0l0.2,0L0-10l0.2,0l0.2,0l0.2,0l0.2,0l0.2,0l0.2,0l0.2,0l0.2,0l0.2,0l0.2,0
		l0.2,0l0.2,0l0.2,0l0.2,0l0.2,0l0.2,0l0.2,0l0.2,0.1l0.2,0.1l0.2,0.1l0.2,0.1l0.2,0.1l0.2,0.1l0.2,0.1l0.2,0.1L4.4-9l0.2,0.1
		l0.2,0.1l0.2,0.1L5-8.7l0.2,0.1l0.1,0.1l0.1,0.1l0.1,0.1l0.1,0.1l0.1,0.1L6-8l0.1,0.1l0.1,0.1l0.1,0.1l0.1,0.1l0.1,0.1l0.1,0.1
		l0.1,0.1l0.1,0.1l0.1,0.1l0.1,0.1l0.1,0.1l0.1,0.1l0.1,0.1l0.1,0.1l0.1,0.1L8-6l0.1,0.1l0.1,0.1l0.1,0.1l0.1,0.1l0.1,0.1l0.1,0.1
		L8.7-5l0.1,0.2l0.1,0.2l0.1,0.2L9-4.4l0.1,0.2l0.1,0.2l0.1,0.2l0.1,0.2l0.1,0.2l0.1,0.2l0.1,0.2l0.1,0.2l0.1,0.2l0,0.2l0,0.2l0,0.2
		l0,0.2l0,0.2l0,0.2l0,0.2l0,0.2l0,0.2l0,0.2l0,0.2l0,0.2l0,0.2l0,0.2l0,0.2l0,0.2L10,0z"/>
	<path class="st2" d="M18,0l0,0.3l0,0.3l0,0.3l0,0.3l0,0.3l0,0.3l0,0.3l0,0.3l0,0.3l-0.1,0.3l-0.1,0.3l-0.1,0.3L17.5,4l-0.1,0.3
		l-0.1,0.3L17.3,5l-0.1,0.3l-0.1,0.3L17,5.9l-0.1,0.3l-0.1,0.3l-0.1,0.3L16.6,7l-0.1,0.3l-0.1,0.3l-0.1,0.3L16,8.2l-0.1,0.3
		l-0.1,0.3L15.6,9l-0.2,0.3l-0.2,0.3l-0.2,0.3l-0.2,0.3l-0.2,0.3l-0.2,0.3l-0.2,0.3l-0.2,0.2L14,11.3l-0.2,0.2l-0.2,0.2L13.4,12
		l-0.2,0.2l-0.2,0.2l-0.2,0.2l-0.2,0.2l-0.2,0.2L12,13.4l-0.2,0.2l-0.2,0.2L11.3,14l-0.2,0.2l-0.2,0.2l-0.3,0.2l-0.3,0.2l-0.3,0.2
		l-0.3,0.2l-0.3,0.2l-0.3,0.2L9,15.6l-0.3,0.2l-0.3,0.1L8.2,16l-0.3,0.1l-0.3,0.1l-0.3,0.1L7,16.6l-0.3,0.1l-0.3,0.1l-0.3,0.1
		L5.9,17l-0.3,0.1l-0.3,0.1L5,17.3l-0.3,0.1l-0.3,0.1L4,17.5l-0.3,0.1l-0.3,0.1l-0.3,0.1l-0.3,0.1l-0.3,0l-0.3,0l-0.3,0l-0.3,0
		l-0.3,0l-0.3,0l-0.3,0l-0.3,0L0,18l-0.3,0l-0.3,0l-0.3,0l-0.3,0l-0.3,0l-0.3,0l-0.3,0l-0.3,0l-0.3,0l-0.3-0.1l-0.3-0.1l-0.3-0.1
		L-4,17.5l-0.3-0.1l-0.3-0.1L-5,17.3l-0.3-0.1l-0.3-0.1L-5.9,17l-0.3-0.1l-0.3-0.1l-0.3-0.1L-7,16.6l-0.3-0.1l-0.3-0.1l-0.3-0.1
		L-8.2,16l-0.3-0.1l-0.3-0.1L-9,15.6l-0.3-0.2l-0.3-0.2l-0.3-0.2l-0.3-0.2l-0.3-0.2l-0.3-0.2l-0.3-0.2l-0.2-0.2l-0.2-0.2l-0.2-0.2
		l-0.2-0.2l-0.2-0.2l-0.2-0.2l-0.2-0.2l-0.2-0.2l-0.2-0.2l-0.2-0.2l-0.2-0.2l-0.2-0.2l-0.2-0.2l-0.2-0.2l-0.2-0.2l-0.2-0.2l-0.2-0.3
		l-0.2-0.3l-0.2-0.3l-0.2-0.3l-0.2-0.3l-0.2-0.3L-15.6,9l-0.2-0.3l-0.1-0.3L-16,8.2l-0.1-0.3l-0.1-0.3l-0.1-0.3L-16.6,7l-0.1-0.3
		l-0.1-0.3l-0.1-0.3L-17,5.9l-0.1-0.3l-0.1-0.3L-17.3,5l-0.1-0.3l-0.1-0.3L-17.5,4l-0.1-0.3l-0.1-0.3l-0.1-0.3l-0.1-0.3l0-0.3l0-0.3
		l0-0.3l0-0.3l0-0.3l0-0.3l0-0.3l0-0.3l0-0.3l0-0.3l0-0.3l0-0.3l0-0.3l0-0.3l0-0.3l0-0.3l0-0.3l0-0.3l0.1-0.3l0.1-0.3l0.1-0.3
		l0.1-0.3l0.1-0.3l0.1-0.3l0.1-0.3l0.1-0.3l0.1-0.3l0.1-0.3l0.1-0.3l0.1-0.3l0.1-0.3l0.1-0.3l0.1-0.3l0.1-0.3l0.1-0.3l0.1-0.3
		l0.1-0.3l0.1-0.3l0.2-0.3l0.2-0.3l0.2-0.3l0.2-0.3l0.2-0.3l0.2-0.3l0.2-0.3l0.2-0.3l0.2-0.2l0.2-0.2l0.2-0.2l0.2-0.2l0.2-0.2
		l0.2-0.2l0.2-0.2l0.2-0.2l0.2-0.2l0.2-0.2l0.2-0.2l0.2-0.2l0.2-0.2l0.2-0.2l0.2-0.2l0.2-0.2l0.3-0.2l0.3-0.2l0.3-0.2l0.3-0.2
		l0.3-0.2l0.3-0.2l0.3-0.2l0.3-0.2l0.3-0.1l0.3-0.1l0.3-0.1l0.3-0.1l0.3-0.1l0.3-0.1l0.3-0.1l0.3-0.1l0.3-0.1l0.3-0.1l0.3-0.1
		l0.3-0.1l0.3-0.1l0.3-0.1l0.3-0.1l0.3-0.1l0.3-0.1l0.3-0.1l0.3-0.1l0.3-0.1l0.3,0l0.3,0l0.3,0l0.3,0l0.3,0l0.3,0l0.3,0l0.3,0L0-18
		l0.3,0l0.3,0l0.3,0l0.3,0l0.3,0l0.3,0l0.3,0l0.3,0l0.3,0l0.3,0.1l0.3,0.1l0.3,0.1L4-17.5l0.3,0.1l0.3,0.1L5-17.3l0.3,0.1l0.3,0.1
		L5.9-17l0.3,0.1l0.3,0.1l0.3,0.1L7-16.6l0.3,0.1l0.3,0.1l0.3,0.1L8.2-16l0.3,0.1l0.3,0.1L9-15.6l0.3,0.2l0.3,0.2l0.3,0.2l0.3,0.2
		l0.3,0.2l0.3,0.2l0.3,0.2l0.2,0.2l0.2,0.2l0.2,0.2l0.2,0.2l0.2,0.2l0.2,0.2l0.2,0.2l0.2,0.2l0.2,0.2l0.2,0.2l0.2,0.2l0.2,0.2
		l0.2,0.2l0.2,0.2l0.2,0.2l0.2,0.2l0.2,0.3l0.2,0.3l0.2,0.3l0.2,0.3l0.2,0.3l0.2,0.3L15.6-9l0.2,0.3l0.1,0.3L16-8.2l0.1,0.3l0.1,0.3
		l0.1,0.3L16.6-7l0.1,0.3l0.1,0.3l0.1,0.3L17-5.9l0.1,0.3l0.1,0.3L17.3-5l0.1,0.3l0.1,0.3L17.5-4l0.1,0.3l0.1,0.3l0.1,0.3l0.1,0.3
		l0,0.3l0,0.3l0,0.3l0,0.3l0,0.3l0,0.3l0,0.3l0,0.3L18,0z"/>
	<path class="st1" d="M26,0l0,0.5l0,0.5l0,0.5l0,0.5l0,0.5l0,0.5l-0.1,0.5l-0.1,0.4l-0.1,0.4l-0.1,0.4L25.5,5l-0.1,0.4l-0.1,0.4
		l-0.1,0.4l-0.1,0.4L25,7.2l-0.1,0.4L24.7,8l-0.1,0.4l-0.2,0.4l-0.2,0.4l-0.2,0.4l-0.2,0.4l-0.2,0.4L23.6,11l-0.2,0.4l-0.2,0.4
		L23,12.2l-0.2,0.4L22.5,13l-0.2,0.4l-0.2,0.4l-0.2,0.4l-0.3,0.4l-0.3,0.4L21,15.3l-0.3,0.4L20.5,16l-0.3,0.4l-0.3,0.4l-0.3,0.3
		l-0.3,0.3L19,17.7l-0.3,0.3l-0.3,0.3l-0.3,0.3L17.7,19l-0.3,0.3l-0.3,0.3l-0.3,0.3l-0.4,0.3L16,20.5l-0.4,0.3L15.3,21l-0.4,0.3
		l-0.4,0.3l-0.4,0.3l-0.4,0.2l-0.4,0.2L13,22.5l-0.4,0.2L12.2,23l-0.4,0.2l-0.4,0.2L11,23.6l-0.4,0.2l-0.4,0.2l-0.4,0.2l-0.4,0.2
		l-0.4,0.2l-0.4,0.2L8,24.7l-0.4,0.1L7.2,25l-0.4,0.1l-0.4,0.1l-0.4,0.1l-0.4,0.1L5,25.5l-0.4,0.1l-0.4,0.1l-0.4,0.1l-0.4,0.1
		l-0.5,0.1l-0.5,0l-0.5,0l-0.5,0l-0.5,0l-0.5,0L0,26l-0.5,0l-0.5,0l-0.5,0l-0.5,0l-0.5,0l-0.5,0l-0.5-0.1l-0.4-0.1l-0.4-0.1
		l-0.4-0.1L-5,25.5l-0.4-0.1l-0.4-0.1l-0.4-0.1l-0.4-0.1L-7.2,25l-0.4-0.1L-8,24.7l-0.4-0.1l-0.4-0.2l-0.4-0.2l-0.4-0.2l-0.4-0.2
		l-0.4-0.2l-0.4-0.2l-0.4-0.2l-0.4-0.2l-0.4-0.2l-0.4-0.2l-0.4-0.2l-0.4-0.2l-0.4-0.2l-0.4-0.2l-0.4-0.3l-0.4-0.3l-0.4-0.3l-0.4-0.3
		l-0.4-0.3l-0.4-0.3l-0.4-0.3l-0.3-0.3l-0.3-0.3l-0.3-0.3l-0.3-0.3l-0.3-0.3l-0.3-0.3l-0.3-0.3l-0.3-0.3l-0.3-0.3l-0.3-0.3l-0.3-0.4
		l-0.3-0.4l-0.3-0.4l-0.3-0.4l-0.3-0.4l-0.3-0.4l-0.3-0.4l-0.2-0.4l-0.2-0.4l-0.2-0.4l-0.2-0.4l-0.2-0.4l-0.2-0.4l-0.2-0.4l-0.2-0.4
		l-0.2-0.4l-0.2-0.4l-0.2-0.4l-0.2-0.4l-0.2-0.4l-0.2-0.4L-24.7,8l-0.1-0.4L-25,7.2l-0.1-0.4l-0.1-0.4l-0.1-0.4l-0.1-0.4L-25.5,5
		l-0.1-0.4l-0.1-0.4l-0.1-0.4l-0.1-0.4l-0.1-0.5l0-0.5l0-0.5l0-0.5l0-0.5l0-0.5l0-0.5l0-0.5l0-0.5l0-0.5l0-0.5l0-0.5l0-0.5l0.1-0.5
		l0.1-0.4l0.1-0.4l0.1-0.4l0.1-0.4l0.1-0.4l0.1-0.4l0.1-0.4l0.1-0.4l0.1-0.4l0.1-0.4l0.1-0.4l0.1-0.4l0.2-0.4l0.2-0.4l0.2-0.4
		l0.2-0.4l0.2-0.4l0.2-0.4l0.2-0.4l0.2-0.4l0.2-0.4l0.2-0.4l0.2-0.4l0.2-0.4l0.2-0.4l0.2-0.4l0.3-0.4l0.3-0.4l0.3-0.4l0.3-0.4
		l0.3-0.4l0.3-0.4l0.3-0.4l0.3-0.3l0.3-0.3l0.3-0.3l0.3-0.3l0.3-0.3l0.3-0.3l0.3-0.3l0.3-0.3l0.3-0.3l0.3-0.3l0.4-0.3l0.4-0.3
		l0.4-0.3l0.4-0.3l0.4-0.3l0.4-0.3l0.4-0.3l0.4-0.2l0.4-0.2l0.4-0.2l0.4-0.2l0.4-0.2l0.4-0.2l0.4-0.2l0.4-0.2l0.4-0.2l0.4-0.2
		l0.4-0.2l0.4-0.2l0.4-0.2l0.4-0.2l0.4-0.1l0.4-0.1l0.4-0.1l0.4-0.1l0.4-0.1l0.4-0.1l0.4-0.1l0.4-0.1l0.4-0.1l0.4-0.1l0.4-0.1
		l0.4-0.1l0.5-0.1l0.5,0l0.5,0l0.5,0l0.5,0l0.5,0L0-26l0.5,0l0.5,0l0.5,0l0.5,0l0.5,0l0.5,0l0.5,0.1l0.4,0.1l0.4,0.1l0.4,0.1L5-25.5
		l0.4,0.1l0.4,0.1l0.4,0.1l0.4,0.1L7.2-25l0.4,0.1L8-24.7l0.4,0.1l0.4,0.2l0.4,0.2l0.4,0.2l0.4,0.2l0.4,0.2l0.4,0.2l0.4,0.2l0.4,0.2
		l0.4,0.2l0.4,0.2l0.4,0.2l0.4,0.2l0.4,0.2l0.4,0.2l0.4,0.3l0.4,0.3l0.4,0.3l0.4,0.3l0.4,0.3l0.4,0.3l0.4,0.3l0.3,0.3l0.3,0.3
		l0.3,0.3l0.3,0.3l0.3,0.3l0.3,0.3l0.3,0.3l0.3,0.3l0.3,0.3l0.3,0.3l0.3,0.4l0.3,0.4l0.3,0.4l0.3,0.4l0.3,0.4l0.3,0.4l0.3,0.4
		l0.2,0.4l0.2,0.4l0.2,0.4l0.2,0.4l0.2,0.4l0.2,0.4l0.2,0.4l0.2,0.4l0.2,0.4l0.2,0.4l0.2,0.4l0.2,0.4l0.2,0.4l0.2,0.4L24.7-8
		l0.1,0.4L25-7.2l0.1,0.4l0.1,0.4l0.1,0.4l0.1,0.4L25.5-5l0.1,0.4l0.1,0.4l0.1,0.4l0.1,0.4l0.1,0.5l0,0.5l0,0.5l0,0.5l0,0.5l0,0.5
		L26,0z"/>
	<path class="st2" d="M34,0l0,0.6l0,0.6l0,0.6l0,0.6l0,0.6l-0.1,0.6l-0.1,0.6l-0.1,0.6l-0.1,0.6l-0.1,0.6l-0.1,0.6l-0.1,0.6
		l-0.1,0.6L33,8.2l-0.1,0.6l-0.2,0.6l-0.2,0.6l-0.2,0.6l-0.2,0.6L32,11.6l-0.2,0.6l-0.2,0.6l-0.2,0.5l-0.2,0.5l-0.2,0.5l-0.3,0.5
		l-0.3,0.5L30.1,16l-0.3,0.5L29.5,17l-0.3,0.5L28.9,18l-0.3,0.5L28.2,19l-0.3,0.5L27.5,20l-0.4,0.5L26.8,21l-0.4,0.5l-0.4,0.5
		l-0.4,0.5l-0.4,0.4l-0.4,0.4l-0.4,0.4l-0.4,0.4l-0.4,0.4l-0.4,0.4l-0.4,0.4l-0.4,0.4l-0.5,0.4l-0.5,0.4l-0.5,0.4l-0.5,0.4L20,27.5
		l-0.5,0.3L19,28.2l-0.5,0.3L18,28.9l-0.5,0.3L17,29.5l-0.5,0.3L16,30l-0.5,0.3l-0.5,0.3l-0.5,0.3l-0.5,0.2l-0.5,0.2l-0.5,0.2
		l-0.6,0.2L11.6,32l-0.6,0.2l-0.6,0.2L10,32.5l-0.6,0.2l-0.6,0.2L8.2,33l-0.6,0.1l-0.6,0.1l-0.6,0.1l-0.6,0.1l-0.6,0.1l-0.6,0.1
		l-0.6,0.1l-0.6,0.1L3,33.9l-0.6,0l-0.6,0l-0.6,0l-0.6,0L0,34l-0.6,0l-0.6,0l-0.6,0l-0.6,0l-0.6,0l-0.6-0.1l-0.6-0.1l-0.6-0.1
		l-0.6-0.1l-0.6-0.1l-0.6-0.1l-0.6-0.1l-0.6-0.1L-8.2,33l-0.6-0.1l-0.6-0.2l-0.6-0.2l-0.6-0.2l-0.6-0.2l-0.6-0.2l-0.6-0.2l-0.6-0.2
		l-0.5-0.2l-0.5-0.2l-0.5-0.2l-0.5-0.3l-0.5-0.3l-0.5-0.3l-0.5-0.3l-0.5-0.3l-0.5-0.3l-0.5-0.3l-0.5-0.3l-0.5-0.3l-0.5-0.3l-0.5-0.3
		l-0.5-0.4l-0.5-0.4l-0.5-0.4l-0.5-0.4l-0.5-0.4l-0.4-0.4l-0.4-0.4l-0.4-0.4l-0.4-0.4l-0.4-0.4l-0.4-0.4l-0.4-0.4l-0.4-0.4l-0.4-0.5
		l-0.4-0.5l-0.4-0.5l-0.4-0.5l-0.4-0.5l-0.3-0.5l-0.3-0.5l-0.3-0.5l-0.3-0.5l-0.3-0.5l-0.3-0.5l-0.3-0.5l-0.3-0.5l-0.3-0.5l-0.3-0.5
		l-0.3-0.5l-0.2-0.5l-0.2-0.5l-0.2-0.5l-0.2-0.6l-0.2-0.6l-0.2-0.6l-0.2-0.6l-0.2-0.6l-0.2-0.6l-0.2-0.6l-0.1-0.6l-0.1-0.6l-0.1-0.6
		l-0.1-0.6l-0.1-0.6l-0.1-0.6l-0.1-0.6l-0.1-0.6l-0.1-0.6L-33.9,3l0-0.6l0-0.6l0-0.6l0-0.6l0-0.6l0-0.6l0-0.6l0-0.6l0-0.6l0-0.6
		l0.1-0.6l0.1-0.6l0.1-0.6l0.1-0.6l0.1-0.6l0.1-0.6l0.1-0.6l0.1-0.6l0.1-0.6l0.1-0.6l0.2-0.6l0.2-0.6l0.2-0.6l0.2-0.6l0.2-0.6
		l0.2-0.6l0.2-0.6l0.2-0.5l0.2-0.5l0.2-0.5l0.3-0.5l0.3-0.5l0.3-0.5l0.3-0.5l0.3-0.5l0.3-0.5l0.3-0.5l0.3-0.5l0.3-0.5l0.3-0.5
		l0.3-0.5l0.4-0.5l0.4-0.5l0.4-0.5l0.4-0.5l0.4-0.5l0.4-0.4l0.4-0.4l0.4-0.4l0.4-0.4l0.4-0.4l0.4-0.4l0.4-0.4l0.4-0.4l0.5-0.4
		l0.5-0.4l0.5-0.4l0.5-0.4l0.5-0.4l0.5-0.3l0.5-0.3l0.5-0.3l0.5-0.3l0.5-0.3l0.5-0.3l0.5-0.3L-16-30l0.5-0.3l0.5-0.3l0.5-0.3
		l0.5-0.2l0.5-0.2l0.5-0.2l0.6-0.2l0.6-0.2l0.6-0.2l0.6-0.2l0.6-0.2l0.6-0.2l0.6-0.2l0.6-0.1l0.6-0.1l0.6-0.1l0.6-0.1l0.6-0.1
		l0.6-0.1l0.6-0.1l0.6-0.1l0.6-0.1l0.6-0.1l0.6,0l0.6,0l0.6,0l0.6,0L0-34l0.6,0l0.6,0l0.6,0l0.6,0l0.6,0l0.6,0.1l0.6,0.1l0.6,0.1
		l0.6,0.1l0.6,0.1l0.6,0.1l0.6,0.1l0.6,0.1L8.2-33l0.6,0.1l0.6,0.2l0.6,0.2l0.6,0.2l0.6,0.2l0.6,0.2l0.6,0.2l0.6,0.2l0.5,0.2
		l0.5,0.2l0.5,0.2l0.5,0.3l0.5,0.3l0.5,0.3l0.5,0.3l0.5,0.3l0.5,0.3l0.5,0.3l0.5,0.3l0.5,0.3l0.5,0.3l0.5,0.3l0.5,0.4l0.5,0.4
		l0.5,0.4l0.5,0.4l0.5,0.4l0.4,0.4l0.4,0.4l0.4,0.4l0.4,0.4l0.4,0.4l0.4,0.4l0.4,0.4l0.4,0.4l0.4,0.5l0.4,0.5l0.4,0.5l0.4,0.5
		l0.4,0.5l0.3,0.5l0.3,0.5l0.3,0.5l0.3,0.5l0.3,0.5l0.3,0.5l0.3,0.5l0.3,0.5l0.3,0.5l0.3,0.5l0.3,0.5l0.2,0.5l0.2,0.5l0.2,0.5
		l0.2,0.6l0.2,0.6l0.2,0.6l0.2,0.6l0.2,0.6l0.2,0.6l0.2,0.6L33-8.2l0.1,0.6l0.1,0.6l0.1,0.6l0.1,0.6l0.1,0.6l0.1,0.6l0.1,0.6
		l0.1,0.6L33.9-3l0,0.6l0,0.6l0,0.6l0,0.6L34,0z"/>
	<path class="st1" d="M42.1,0l0,0.7l0,0.7l0,0.7l0,0.7l-0.1,0.7l-0.1,0.7l-0.1,0.7l-0.1,0.7l-0.1,0.7l-0.1,0.7L41.3,8l-0.1,0.7
		l-0.1,0.7l-0.2,0.7l-0.2,0.7l-0.2,0.7l-0.2,0.7l-0.2,0.7L40,13.8l-0.2,0.7l-0.2,0.7l-0.3,0.7L39,16.5l-0.3,0.7l-0.3,0.7l-0.3,0.7
		l-0.3,0.7l-0.3,0.7l-0.4,0.6l-0.4,0.6l-0.4,0.6l-0.4,0.6l-0.4,0.6l-0.4,0.6l-0.4,0.6l-0.4,0.6l-0.4,0.6L33.3,26l-0.5,0.6l-0.5,0.6
		l-0.5,0.6l-0.5,0.5l-0.5,0.5l-0.5,0.5l-0.5,0.5l-0.5,0.5l-0.5,0.5l-0.5,0.5l-0.6,0.5l-0.6,0.5l-0.6,0.5L26,33.2l-0.6,0.4l-0.6,0.4
		l-0.6,0.4L23.6,35L23,35.4l-0.6,0.4l-0.6,0.4l-0.6,0.4l-0.6,0.4l-0.6,0.4l-0.6,0.4L18.5,38l-0.7,0.3l-0.7,0.3l-0.7,0.3l-0.7,0.3
		l-0.7,0.3l-0.7,0.3L13.8,40l-0.7,0.2l-0.7,0.2l-0.7,0.2L11,40.9l-0.7,0.2l-0.7,0.2l-0.7,0.1l-0.7,0.1l-0.7,0.1l-0.7,0.1l-0.7,0.1
		l-0.7,0.1L4.4,42L3.7,42l-0.7,0l-0.7,0l-0.7,0l-0.7,0l-0.7,0l-0.7,0l-0.7,0l-0.7,0l-0.7,0L-3.7,42l-0.7-0.1l-0.7-0.1l-0.7-0.1
		l-0.7-0.1l-0.7-0.1l-0.7-0.1l-0.7-0.1l-0.7-0.1l-0.7-0.2l-0.7-0.2l-0.7-0.2l-0.7-0.2l-0.7-0.2l-0.7-0.2l-0.7-0.2l-0.7-0.2l-0.7-0.3
		l-0.7-0.3l-0.7-0.3l-0.7-0.3l-0.7-0.3l-0.7-0.3l-0.7-0.3l-0.7-0.3l-0.7-0.4l-0.6-0.4l-0.6-0.4l-0.6-0.4l-0.6-0.4l-0.6-0.4l-0.6-0.4
		l-0.6-0.4l-0.6-0.5l-0.6-0.5l-0.6-0.5l-0.6-0.5l-0.5-0.5l-0.5-0.5l-0.5-0.5L-30,30l-0.5-0.5L-31,29l-0.5-0.5l-0.5-0.6l-0.5-0.6
		l-0.5-0.6l-0.5-0.6l-0.5-0.6l-0.4-0.6l-0.4-0.6l-0.4-0.6l-0.4-0.6l-0.4-0.6l-0.4-0.6l-0.4-0.6l-0.4-0.6l-0.4-0.6l-0.4-0.7l-0.3-0.7
		l-0.3-0.7l-0.3-0.7l-0.3-0.7l-0.3-0.7l-0.3-0.7l-0.3-0.7l-0.2-0.7l-0.2-0.7l-0.2-0.7l-0.2-0.7l-0.2-0.7l-0.2-0.7l-0.2-0.7l-0.1-0.7
		l-0.1-0.7L-42,7.4l-0.1-0.7l-0.1-0.7l-0.1-0.7l-0.1-0.7l-0.1-0.7l0-0.7l0-0.7l0-0.7l0-0.7l0-0.7l0-0.7l0-0.7l0-0.7l0.1-0.7l0.1-0.7
		l0.1-0.7l0.1-0.7l0.1-0.7l0.1-0.7l0.1-0.7l0.1-0.7l0.1-0.7l0.2-0.7l0.2-0.7L-41-11l0.2-0.7l0.2-0.7l0.2-0.7l0.2-0.7l0.2-0.7
		l0.3-0.7l0.3-0.7l0.3-0.7l0.3-0.7l0.3-0.7l0.3-0.7l0.3-0.7l0.3-0.7l0.4-0.6l0.4-0.6l0.4-0.6l0.4-0.6l0.4-0.6l0.4-0.6l0.4-0.6
		l0.4-0.6l0.5-0.6l0.5-0.6l0.5-0.6l0.5-0.6l0.5-0.6l0.5-0.5l0.5-0.5l0.5-0.5l0.5-0.5l0.5-0.5l0.5-0.5l0.5-0.5l0.6-0.5l0.6-0.5
		l0.6-0.5l0.6-0.5l0.6-0.4l0.6-0.4l0.6-0.4l0.6-0.4l0.6-0.4l0.6-0.4l0.6-0.4l0.6-0.4l0.6-0.4l0.6-0.4l0.7-0.3l0.7-0.3l0.7-0.3
		l0.7-0.3l0.7-0.3l0.7-0.3l0.7-0.3l0.7-0.3l0.7-0.2l0.7-0.2l0.7-0.2l0.7-0.2l0.7-0.2l0.7-0.2l0.7-0.2l0.7-0.1l0.7-0.1l0.7-0.1
		l0.7-0.1l0.7-0.1l0.7-0.1l0.7-0.1l0.7-0.1l0.7-0.1l0.7,0l0.7,0l0.7,0l0.7,0l0.7,0l0.7,0l0.7,0l0.7,0l0.7,0l0.7,0.1l0.7,0.1l0.7,0.1
		l0.7,0.1l0.7,0.1l0.7,0.1l0.7,0.1l0.7,0.1l0.7,0.2l0.7,0.2l0.7,0.2l0.7,0.2l0.7,0.2l0.7,0.2l0.7,0.2l0.7,0.2l0.7,0.3l0.7,0.3
		l0.7,0.3l0.7,0.3l0.7,0.3l0.7,0.3l0.7,0.3l0.6,0.4l0.6,0.4l0.6,0.4l0.6,0.4l0.6,0.4l0.6,0.4l0.6,0.4l0.6,0.4l0.6,0.5l0.6,0.5
		l0.6,0.5l0.6,0.5l0.6,0.5l0.5,0.5l0.5,0.5l0.5,0.5l0.5,0.5l0.5,0.5l0.5,0.5l0.5,0.5l0.5,0.5l0.5,0.5l0.5,0.6l0.5,0.6l0.5,0.6
		l0.5,0.6l0.4,0.6l0.4,0.6l0.4,0.6l0.4,0.6l0.4,0.6l0.4,0.6l0.4,0.6l0.4,0.6l0.3,0.7l0.3,0.7l0.3,0.7l0.3,0.7l0.3,0.7l0.3,0.7
		l0.3,0.7l0.2,0.7l0.2,0.7l0.2,0.7l0.2,0.7l0.2,0.7l0.2,0.7l0.2,0.7l0.1,0.7l0.1,0.7l0.1,0.7l0.1,0.7l0.1,0.7l0.1,0.7l0.1,0.7
		l0.1,0.7L42-3.7l0,0.7l0,0.7l0,0.7l0,0.7L42.1,0z"/>
	<path class="st2" d="M50.3,0l-0.1,0.9l-0.1,0.9l-0.1,0.9l-0.1,0.9l-0.1,0.9L50,5.3l-0.1,0.9L49.9,7l-0.1,0.9l-0.1,0.9l-0.1,0.9
		l-0.1,0.9l-0.1,0.9l-0.1,0.9l-0.1,0.9l-0.1,0.9L49.1,15l-0.2,0.9l-0.2,0.9l-0.2,0.9l-0.2,0.9L48,19.4l-0.3,0.9l-0.3,0.9L47.1,22
		l-0.4,0.8l-0.4,0.8L46,24.4l-0.4,0.8L45.1,26l-0.5,0.8l-0.5,0.8l-0.5,0.7L43,29l-0.6,0.7l-0.6,0.7l-0.6,0.7l-0.6,0.7l-0.6,0.7
		l-0.6,0.7l-0.6,0.6l-0.6,0.6l-0.6,0.6l-0.7,0.6l-0.7,0.6l-0.7,0.6l-0.7,0.6L34.2,38l-0.7,0.6l-0.7,0.6l-0.7,0.6l-0.7,0.5l-0.7,0.5
		L30,41.3l-0.7,0.5l-0.7,0.5l-0.7,0.5l-0.7,0.5l-0.7,0.5l-0.7,0.5l-0.7,0.5l-0.8,0.5l-0.8,0.5l-0.8,0.5l-0.8,0.4L21,47.2l-0.8,0.4
		L19.4,48l-0.8,0.4l-0.8,0.3L16.9,49L16,49.3l-0.9,0.3l-0.9,0.2l-0.9,0.2l-0.9,0.2l-0.9,0.2l-0.9,0.1l-0.9,0.1l-0.9,0.1L8,50.8
		l-0.9,0l-0.9,0l-0.9,0l-0.9,0l-0.9,0l-0.9,0l-0.9,0l-0.9,0l-0.9,0l-0.9,0l-0.9,0l-0.9,0l-0.9,0l-0.9,0l-0.9,0l-0.9,0l-0.9,0l-0.9,0
		l-0.9,0l-0.9-0.1l-0.9-0.1l-0.9-0.1l-0.9-0.1l-0.9-0.1l-0.9-0.1l-0.9-0.1l-0.9-0.2l-0.9-0.2l-0.9-0.2l-0.9-0.2l-0.9-0.2l-0.9-0.3
		l-0.9-0.3l-0.9-0.3l-0.9-0.3l-0.9-0.3L-25,47l-0.8-0.4l-0.8-0.4l-0.8-0.4l-0.8-0.5l-0.8-0.5l-0.8-0.5l-0.8-0.5l-0.7-0.6l-0.7-0.6
		l-0.7-0.6l-0.7-0.6l-0.7-0.6l-0.7-0.7l-0.6-0.7l-0.6-0.7l-0.6-0.7l-0.6-0.7l-0.6-0.7l-0.6-0.7l-0.6-0.7l-0.6-0.7l-0.6-0.7l-0.6-0.7
		l-0.6-0.7l-0.6-0.7l-0.6-0.7l-0.6-0.7l-0.6-0.7l-0.6-0.7l-0.6-0.7l-0.6-0.7l-0.6-0.7l-0.6-0.8l-0.5-0.8l-0.5-0.8l-0.5-0.8l-0.5-0.8
		l-0.5-0.8l-0.4-0.8l-0.4-0.9l-0.4-0.9l-0.3-0.9l-0.3-0.9l-0.3-0.9l-0.3-0.9l-0.2-0.9l-0.2-0.9l-0.2-0.9l-0.1-0.9l-0.1-0.9l-0.1-0.9
		l-0.1-0.9l-0.1-0.9l0-0.9l0-0.9l0-0.9l0-0.9l0-0.9l0-0.9l0-0.9l0-0.9l0.1-0.9l0.1-0.9l0.1-0.9l0.1-0.9l0.1-0.9l0.1-0.9l0.1-0.9
		l0.1-0.9l0.1-0.9l0.1-0.9l0.1-0.9l0.2-0.9l0.2-0.9l0.2-0.9l0.2-0.9l0.2-0.9l0.2-0.9l0.2-0.9l0.3-0.9l0.3-0.9l0.3-0.9l0.3-0.9
		l0.3-0.8l0.4-0.8l0.4-0.8l0.4-0.8l0.4-0.8l0.4-0.8l0.5-0.8l0.5-0.8l0.5-0.8l0.5-0.8l0.5-0.7l0.6-0.7L-43-29l0.6-0.7l0.6-0.7
		l0.6-0.7l0.6-0.7l0.6-0.7l0.6-0.6l0.6-0.6l0.6-0.6l0.7-0.6l0.7-0.6l0.7-0.6l0.7-0.6l0.7-0.6l0.7-0.6l0.7-0.6l0.7-0.6l0.7-0.6
		l0.7-0.6l0.7-0.5l0.7-0.5l0.7-0.5l0.7-0.5l0.7-0.5l0.7-0.5l0.7-0.5l0.7-0.5l0.8-0.5l0.8-0.5l0.8-0.4l0.8-0.4l0.8-0.4l0.8-0.4
		l0.8-0.4l0.8-0.3l0.8-0.3l0.8-0.3l0.9-0.3l0.9-0.2l0.9-0.2L-14-49l0.9-0.2l0.9-0.1l0.9-0.1l0.9-0.1l0.9-0.1l0.9-0.1l0.9-0.1
		l0.9-0.1l0.9-0.1l0.9-0.1l0.9-0.1l0.9-0.1l0.9-0.1l0.9-0.1l0.9-0.1L0-50.3l0.9,0l0.9,0l0.9,0l0.9,0l0.9,0l0.9,0l0.9,0l0.9,0l0.9,0
		l0.9,0l0.9,0l0.9,0.1l0.9,0.1l0.9,0.1l0.9,0.1l0.9,0.1l0.9,0.1l0.9,0.2l0.9,0.2l0.9,0.2l0.9,0.3l0.9,0.3l0.9,0.3l0.8,0.3l0.8,0.4
		l0.8,0.4l0.8,0.4l0.8,0.5l0.8,0.5l0.8,0.5l0.7,0.5l0.7,0.6l0.7,0.6l0.7,0.6l0.7,0.6l0.7,0.6l0.7,0.6l0.7,0.6l0.6,0.6l0.6,0.6
		l0.6,0.6l0.6,0.6l0.6,0.6l0.6,0.6l0.6,0.6l0.7,0.6l0.7,0.6l0.7,0.6l0.7,0.6l0.7,0.6l0.7,0.6l0.7,0.6l0.7,0.6l0.6,0.7l0.6,0.7
		l0.6,0.7l0.6,0.7l0.6,0.7l0.6,0.7l0.5,0.7l0.5,0.8l0.5,0.8l0.5,0.8l0.4,0.8l0.4,0.8l0.4,0.8l0.3,0.9l0.3,0.9l0.3,0.9l0.2,0.9
		l0.2,0.9l0.2,0.9l0.1,0.9l0.1,0.9l0.1,0.9l0.1,0.9l0.1,0.9l0.1,0.9l0,0.9l0,0.9l0,0.9l0,0.9l0,0.9l0,0.9l0,0.9l0,0.9l0,0.9l0,0.9
		l0,0.9L50.3,0z"/>
	<path class="st1" d="M59.3,0l-0.2,1l-0.1,1l-0.1,1l-0.1,1l0,1l0,1l0.1,1L59,8.3l0.1,1.1l0.2,1.1l0.2,1.1l0.2,1.1l0.2,1.1l0.2,1.2
		l0.2,1.2l0.2,1.2l0.2,1.2l0.1,1.2l0.1,1.2l0,1.2l0,1.2l-0.1,1.2l-0.2,1.2l-0.2,1.2L60.1,28l-0.4,1.1l-0.4,1.1l-0.5,1.1l-0.6,1
		l-0.6,1l-0.7,1l-0.7,0.9L55.5,36l-0.8,0.9l-0.8,0.8L53,38.5l-0.9,0.8l-0.9,0.8l-0.9,0.7l-0.9,0.7l-0.9,0.7l-0.9,0.7l-0.9,0.7
		l-0.9,0.6l-0.9,0.6l-0.9,0.6L43,46.1L42,46.7l-0.9,0.6l-0.9,0.6l-0.9,0.6l-0.9,0.6l-0.9,0.7l-0.9,0.7l-0.8,0.7L35,51.9l-0.8,0.7
		l-0.8,0.7l-0.8,0.8l-0.8,0.8l-0.8,0.8L30,56.5l-0.9,0.8L28.3,58l-0.9,0.7l-0.9,0.7l-1,0.7l-1,0.6l-1,0.6l-1,0.5l-1.1,0.5l-1.1,0.4
		l-1.1,0.3l-1.1,0.2L17,63.3l-1.2,0.1l-1.2,0l-1.2,0l-1.2-0.1l-1.2-0.1L10,63.1L8.8,63l-1.1-0.2l-1.1-0.2l-1.1-0.2l-1.1-0.2
		l-1.1-0.2l-1.1-0.2l-1.1-0.2L0,61.4l-1.1-0.1l-1.1,0l-1.1,0l-1.1,0l-1.1,0.1l-1.1,0.1l-1.1,0.2l-1.1,0.2l-1.1,0.2l-1.2,0.2
		l-1.2,0.2l-1.2,0.3l-1.2,0.2l-1.2,0.2l-1.2,0.2l-1.2,0.2l-1.3,0.1l-1.3,0.1l-1.3,0.1l-1.3,0l-1.3,0l-1.3,0l-1.3-0.1l-1.3-0.1
		l-1.3-0.2l-1.3-0.2l-1.2-0.3l-1.2-0.3l-1.2-0.4l-1.2-0.5l-1.1-0.5l-1.1-0.6l-1.1-0.7l-1-0.7l-1-0.8l-0.9-0.9l-0.9-0.9l-0.8-0.9
		l-0.8-1l-0.8-1l-0.7-1l-0.7-1l-0.7-1l-0.7-1l-0.7-1l-0.7-1l-0.7-1l-0.7-1l-0.8-0.9l-0.8-0.9l-0.8-0.9l-0.9-0.9l-0.9-0.8l-0.9-0.8
		l-1-0.8l-1-0.8l-1-0.8l-1-0.8l-1-0.8l-1-0.8l-1-0.9l-1-0.9l-1-0.9l-0.9-1l-0.9-1l-0.8-1l-0.8-1.1l-0.7-1.1l-0.6-1.2l-0.5-1.2
		l-0.4-1.2l-0.4-1.3l-0.3-1.3l-0.2-1.3l-0.1-1.3l-0.1-1.3l0-1.3l0.1-1.3l0.1-1.3l0.2-1.3l0.2-1.3l0.2-1.3l0.2-1.3l0.3-1.3l0.3-1.3
		l0.3-1.3l0.3-1.2l0.3-1.2l0.2-1.2l0.2-1.2l0.2-1.2l0.2-1.2l0.2-1.2l0.2-1.2l0.2-1.2l0.2-1.2l0.2-1.2l0.2-1.2l0.2-1.2l0.2-1.2
		l0.2-1.2l0.2-1.2l0.2-1.2l0.2-1.2l0.2-1.2l0.3-1.2l0.3-1.2l0.3-1.1l0.4-1.1l0.4-1.1l0.4-1.1l0.5-1.1l0.5-1.1l0.6-1.1l0.6-1l0.6-1
		l0.7-1l0.7-1l0.8-0.9l0.8-0.9l0.8-0.9l0.9-0.8l0.9-0.8l0.9-0.8l0.9-0.8l0.9-0.7l1-0.7l1-0.7l1-0.7l1-0.6l1-0.6l1-0.6l1-0.6l1-0.6
		l0.9-0.6l0.9-0.6l0.9-0.6l0.9-0.6l0.9-0.6l0.9-0.6l0.9-0.7l0.8-0.7l0.8-0.7l0.8-0.7l0.8-0.7l0.8-0.7l0.8-0.7l0.8-0.7l0.8-0.7
		l0.9-0.7l0.9-0.7l0.9-0.7l0.9-0.6l0.9-0.6l1-0.5l1-0.5l1-0.4l1-0.4l1.1-0.3l1.1-0.3l1.1-0.2l1.1-0.1l1.1-0.1l1.1,0l1.1,0l1.1,0.1
		l1.1,0.1l1.1,0.1l1.1,0.1l1.1,0.1l1.1,0.1l1.1,0.1l1.1,0.1l1,0l1,0l1,0l1-0.1l1-0.1l1-0.2l1-0.2l1-0.2l1-0.3l1.1-0.3l1.1-0.3
		l1.1-0.3L6.4-61l1.1-0.3l1.1-0.3L9.8-62l1.2-0.3l1.2-0.3l1.2-0.3l1.2-0.3l1.2-0.2l1.2-0.2l1.2-0.2l1.2-0.1l1.2-0.1l1.2,0l1.2,0.1
		l1.2,0.1l1.2,0.2l1.2,0.3l1.1,0.4l1.1,0.5l1.1,0.6l1,0.6l1,0.7l0.9,0.8l0.9,0.9l0.8,0.9l0.8,0.9l0.8,1l0.7,1l0.7,1l0.7,1l0.7,1
		l0.6,1l0.7,1l0.7,0.9l0.7,0.9l0.7,0.9l0.7,0.8l0.8,0.8l0.8,0.7l0.9,0.7l0.9,0.7l1,0.6l1,0.6l1,0.6l1.1,0.6l1.1,0.6l1.1,0.6l1.1,0.6
		l1.1,0.6l1.1,0.7l1.1,0.7l1.1,0.7l1,0.8l1,0.8l0.9,0.9l0.8,1l0.7,1l0.6,1.1l0.5,1.1l0.4,1.1l0.4,1.2l0.3,1.2l0.2,1.3l0.1,1.3l0,1.3
		l-0.1,1.3l-0.2,1.3l-0.2,1.3l-0.3,1.3L64.1-16l-0.3,1.3l-0.4,1.2l-0.4,1.2l-0.4,1.2l-0.4,1.2l-0.4,1.2l-0.4,1.1l-0.4,1.1l-0.4,1.1
		l-0.4,1.1l-0.3,1.1l-0.3,1.1l-0.3,1L59.3,0z"/>
</g>
</svg>
