<?xml version="1.0" encoding="UTF-8"?>
<svg width="28px" height="20px" viewBox="0 0 28 20" version="1.1" xmlns="http://www.w3.org/2000/svg" xmlns:xlink="http://www.w3.org/1999/xlink">
    <title>Youtube-color</title>
    <g id="Page-1" stroke="none" stroke-width="1" fill="none" fill-rule="evenodd" fill-opacity="0.4">
        <g id="DevSecOps-UI" transform="translate(-907.000000, -17845.000000)" fill="#444444">
            <path d="M918.109,17858.6882 L918.108125,17850.6987 L925.673375,17854.7072 L918.109,17858.6882 Z M934.72,17849.3142 C934.72,17849.3142 934.446125,17847.3548 933.607,17846.492 C932.542125,17845.359 931.348625,17845.3537 930.80175,17845.2879 C926.8835,17845 921.006125,17845 921.006125,17845 L920.993875,17845 C920.993875,17845 915.1165,17845 911.19825,17845.2879 C910.6505,17845.3537 909.457875,17845.359 908.392125,17846.492 C907.553,17847.3548 907.28,17849.3142 907.28,17849.3142 C907.28,17849.3142 907,17851.6157 907,17853.9163 L907,17856.0739 C907,17858.3754 907.28,17860.676 907.28,17860.676 C907.28,17860.676 907.553,17862.6354 908.392125,17863.4982 C909.457875,17864.6312 910.857,17864.5957 911.48,17864.7139 C913.72,17864.9325 921,17865 921,17865 C921,17865 926.8835,17864.9911 930.80175,17864.7032 C931.348625,17864.6366 932.542125,17864.6312 933.607,17863.4982 C934.446125,17862.6354 934.72,17860.676 934.72,17860.676 C934.72,17860.676 935,17858.3754 935,17856.0739 L935,17853.9163 C935,17851.6157 934.72,17849.3142 934.72,17849.3142 L934.72,17849.3142 Z" id="Youtube"></path>
        </g>
    </g>
</svg>