<?xml version="1.0" encoding="utf-8"?>
<!-- Generator: Adobe Illustrator 24.0.3, SVG Export Plug-In . SVG Version: 6.00 Build 0)  -->
<svg version="1.1" id="Layer_1" xmlns="http://www.w3.org/2000/svg" xmlns:xlink="http://www.w3.org/1999/xlink" x="0px" y="0px"
	 viewBox="0 0 1604.75 856.95" style="enable-background:new 0 0 1604.75 856.95;" xml:space="preserve">
<style type="text/css">
	.st0{fill:#FFD733;}
	.st1{fill:#F7DEB0;}
	.st2{fill:#67C0B3;}
	.st3{fill:#527BBD;}
	.st4{fill:#ED6E2F;}
	.st5{fill:#E34329;}
	.st6{fill:#F6A22D;}
	.st7{fill:#23397B;}
	.st8{fill:#7486A5;}
	.st9{fill:#FABA6B;}
	.st10{fill:#F194A9;}
	.st11{fill:#E0BF87;}
	.st12{fill:#FFFFFF;}
</style>
<g>
	<g>
		<g>
			<path class="st8" d="M604.24,846.45v-37.01H450.97v37.01c17.58,14.76,49.03-6.95,57.98-6.14c10.6,0.97,33.32,27.43,58.13,11.58
				C594.5,834.38,585.63,845.24,604.24,846.45z"/>
		</g>
		<g>
			<path class="st9" d="M1006.52,773.34c0,0,51.92-85.22,147.42-90.4l7.73-38.17H317.05v39c0,0,91.97-3.11,152.56,81.34l1.35,44.33
				c0,0,110.84,0,113.3,0c2.46,0,1.35-44.33,1.35-44.33s40.04-84.8,159.8-85.32c64.04-0.28,114.86,48.29,148.28,93.55l-3.15,36.11
				l115.99-2.13V773.34z"/>
		</g>
		<g>
			<polygon class="st8" points="554.56,683.77 500.65,683.77 461.03,713.18 593.12,713.18 			"/>
		</g>
		<g>
			<path class="st8" d="M870.24,846.45v-37.01h153.27v37.01c-17.58,14.76-49.03-6.95-57.98-6.14c-10.6,0.97-33.32,27.43-58.13,11.58
				C879.97,834.38,888.85,845.24,870.24,846.45z"/>
		</g>
		<g>
			<polygon class="st8" points="973.83,683.77 919.91,683.77 880.3,713.18 1012.39,713.18 			"/>
		</g>
		<g>
			<rect x="317.05" y="615.76" class="st6" width="833.14" height="29.01"/>
		</g>
		<g>
			<rect x="500.65" y="599.41" class="st9" width="51.22" height="84.37"/>
		</g>
		<g>
			<rect x="921.26" y="599.41" class="st9" width="51.22" height="84.37"/>
		</g>
		<g>
			<rect x="165.4" y="510.78" class="st10" width="151.65" height="341.38"/>
		</g>
		<g>
			<rect x="232.28" y="639.35" class="st3" width="45.67" height="67.8"/>
		</g>
		<g>
			<rect x="232.28" y="547.97" class="st3" width="45.67" height="67.8"/>
		</g>
		<g>
			<polyline class="st1" points="207.8,852.03 207.8,730.13 302.44,730.13 302.44,852.03 			"/>
		</g>
		<g>
			<path class="st8" d="M287.93,852.03H222.3v-81.76c0-15.46,11.98-30.13,32.74-40.11l0.07-0.03l0.07,0.03
				c20.76,9.98,32.74,24.65,32.74,40.11V852.03z"/>
		</g>
		<g>
			<rect x="165.4" y="510.78" class="st8" width="151.65" height="13.59"/>
		</g>
		<g>
			<polygon class="st2" points="198.04,265.61 7.76,263.15 28.88,174.38 42.03,235.71 73.94,100.17 130.32,100.17 163.28,241.07 
				177.15,174.38 			"/>
		</g>
		<g>
			<rect x="2.15" y="633.1" class="st8" width="60.41" height="21.71"/>
		</g>
		<g>
			<rect x="142.75" y="633.1" class="st8" width="60.41" height="21.71"/>
		</g>
		<g>
			<rect x="13.01" y="654.81" class="st1" width="179.29" height="197.36"/>
		</g>
		<g>
			<path class="st3" d="M124.58,153.4c0,0-8.57-11.21-22.1-13.55c-13.52,2.34-22.1,13.55-22.1,13.55v17.76h44.19V153.4z"/>
		</g>
		<g>
			<path class="st3" d="M119.53,782.7H85.78v-53.78c0-11.38,6.16-22.18,16.84-29.52l0.04-0.03l0.04,0.03
				c10.68,7.34,16.84,18.14,16.84,29.52V782.7z"/>
		</g>
		<g>
			<path class="st3" d="M64.13,722.05v54.85H30.38v-54.85c0-9.32,7.55-16.87,16.87-16.87h0C56.57,705.18,64.13,712.73,64.13,722.05z
				"/>
		</g>
		<g>
			<path class="st3" d="M174.93,722.05v54.85h-33.74v-54.85c0-9.32,7.55-16.87,16.87-16.87h0
				C167.37,705.18,174.93,712.73,174.93,722.05z"/>
		</g>
		<g>
			<polygon class="st1" points="12.67,266.48 12.67,306.69 13.3,306.69 28.22,327.08 42.03,327 42.03,552.93 163.28,552.93 
				163.28,326.22 177.15,326.14 192.24,305.83 192.24,265.61 			"/>
		</g>
		<g>
			<rect x="62.33" y="326.13" class="st11" width="80.64" height="110.35"/>
		</g>
		<g>
			<circle class="st12" cx="102.65" cy="366.45" r="28.32"/>
		</g>
		<g>
			<polygon class="st2" points="201,633.17 134.68,633.18 149.89,676.15 55.42,676.15 66.53,633.19 6.93,633.2 42.03,550.96 
				85.97,550.96 102.9,500.64 117.39,550.96 158.43,550.96 			"/>
		</g>
		<g>
			<polygon class="st1" points="749.05,308.71 697.55,308.71 687.63,263.15 758.97,263.15 			"/>
		</g>
		<g>
			<polygon class="st1" points="1252.02,140.45 1252.02,112.13 1226.98,13.75 1200.39,112.13 1200.39,140.45 1194.22,140.45 
				1178.8,217.6 1171.47,217.6 1159.84,248.47 1159.84,624.5 1150.19,624.5 1150.19,652.67 1159.44,652.67 1159.44,852.16 
				1591.2,852.16 1591.2,652.67 1600.45,652.67 1600.45,624.5 1591.2,624.5 1591.2,248.47 1578,213.24 1569.37,208.04 
				1556.81,140.45 1548.23,139.85 1549.86,112.13 1523.49,13.75 1498.75,109.99 1498.23,140.45 1492.06,140.45 1473.5,217.6 
				1457.68,248.47 1456.89,384.12 1375.32,227.1 1295.21,381.31 1293.36,248.47 1280.56,208.04 1273.3,217.6 1258.97,140.45 			"/>
		</g>
		<g>
			<rect x="1186.19" y="384.12" class="st11" width="81.57" height="50.77"/>
		</g>
		<g>
			<rect x="1483.13" y="384.12" class="st11" width="81.57" height="50.77"/>
		</g>
		<g>
			<rect x="1291.35" y="384.12" class="st11" width="165.53" height="50.77"/>
		</g>
		<g>
			<path class="st11" d="M1456.98,526.1c-10.61-66.26-81.57-91.21-81.57-91.21s-71.53,24.95-82.14,91.21v95.47h76.09l5.77-4.67
				l4,7.6h78.55L1456.98,526.1z"/>
		</g>
		<g>
			<path class="st11" d="M1373.13,709.33h-0.18c-23.07,13.08-37.04,35.71-37.04,60.02v82.81h75.05v-82.27
				C1410.96,745.29,1396.66,722.33,1373.13,709.33z"/>
		</g>
		<g>
			<path class="st11" d="M1226,721.06h-0.12c-15.22,12.57-24.42,34.32-24.42,57.68v73.42h49.49v-72.9
				C1250.95,755.62,1241.51,733.55,1226,721.06z"/>
		</g>
		<g>
			<path class="st11" d="M1523.29,721.06h-0.12c-15.22,12.57-24.42,34.32-24.42,57.68v73.42h49.49v-72.9
				C1548.23,755.62,1538.8,733.55,1523.29,721.06z"/>
		</g>
		<g>
			<circle class="st3" cx="1373.87" cy="679.79" r="13.68"/>
		</g>
		<g>
			<circle class="st3" cx="1524.04" cy="698.68" r="6.97"/>
		</g>
		<g>
			<circle class="st3" cx="1226.98" cy="698.68" r="6.97"/>
		</g>
		<g>
			<rect x="1208.79" y="319.34" class="st3" width="34.82" height="42.41"/>
		</g>
		<g>
			<path class="st3" d="M1243.61,295.7v-78.11c0-15.98-6-25.2-16.82-36.96l-0.2-0.22c-11.42,11.87-17.8,21.54-17.8,38.01v77.27
				H1243.61z"/>
		</g>
		<g>
			<path class="st3" d="M1243.61,582.39v-90.44c0-15.98-6-25.2-16.82-36.96l-0.2-0.22c-11.42,11.87-17.8,21.54-17.8,38.01v89.6
				H1243.61z"/>
		</g>
		<g>
			<rect x="1506.63" y="319.34" class="st3" width="34.82" height="42.41"/>
		</g>
		<g>
			<path class="st3" d="M1541.45,295.7v-78.11c0-15.98-6-25.2-16.82-36.96l-0.2-0.22c-11.42,11.87-17.8,21.54-17.8,38.01v77.27
				H1541.45z"/>
		</g>
		<g>
			<path class="st3" d="M1541.45,582.39v-90.44c0-15.98-6-25.2-16.82-36.96l-0.2-0.22c-11.42,11.87-17.8,21.54-17.8,38.01v89.6
				H1541.45z"/>
		</g>
		<g>
			<rect x="1354.23" y="772.67" class="st8" width="39.69" height="79.49"/>
		</g>
		<g>
			<rect x="1216.92" y="780.74" class="st8" width="19.4" height="71.42"/>
		</g>
		<g>
			<rect x="1514.21" y="780.74" class="st8" width="19.4" height="71.42"/>
		</g>
		<g>
			<circle class="st3" cx="1375.32" cy="289.28" r="14.64"/>
		</g>
		<g>
			<polygon class="st8" points="1226.98,13.75 1200.39,112.13 1252.02,112.13 			"/>
		</g>
		<g>
			<polygon class="st8" points="1524.82,13.75 1498.23,112.13 1549.86,112.13 			"/>
		</g>
		<g>
			<circle class="st8" cx="1373.44" cy="544.75" r="64.33"/>
		</g>
		<g>
			<path class="st3" d="M1417.7,563.28l18.33-18.33l-18.33-18.33v-25.93h-25.93l-18.33-18.33l-18.33,18.33h-25.93v25.93
				l-18.33,18.33l18.33,18.33v25.93h25.93l18.33,18.33l18.33-18.33h25.93V563.28z M1359.29,579.1v-20h-20l14.15-14.15l-14.15-14.14
				h20v-20l14.15,14.15l14.15-14.15v20h20l-14.15,14.14l14.15,14.15h-20v20l-14.15-14.14L1359.29,579.1z"/>
		</g>
		<g>
			<polygon class="st8" points="1351.36,652.67 1150.19,652.67 1150.19,624.5 1366.66,624.5 			"/>
		</g>
		<g>
			<polygon class="st8" points="1397.67,652.67 1598.84,652.67 1598.84,624.5 1382.37,624.5 			"/>
		</g>
		<g>
			<g id="g48_66_" transform="translate(155.197863, 1.160267)">
				<g id="path50_66_">
					<path class="st5" d="M568.12,212.04L568.12,212.04l35.15-108.17h-70.31L568.12,212.04L568.12,212.04z"/>
				</g>
			</g>
			<g id="g56_66_" transform="translate(28.531199, 1.160800)">
				<g id="path58_66_">
					<path class="st4" d="M694.76,212.04l-35.15-108.17h-49.22L694.76,212.04L694.76,212.04z"/>
				</g>
			</g>
			<g id="g64_66_" transform="translate(0.088533, 0.255867)">
				<g id="path66_66_">
					<path class="st6" d="M638.81,104.81L638.81,104.81l-10.7,32.87c-0.97,2.98,0.08,6.28,2.64,8.14l92.44,67.17L638.81,104.81
						L638.81,104.81z"/>
				</g>
			</g>
			<g id="g72_66_" transform="translate(29.421866, 280.255593)">
				<g id="path74_66_">
					<path class="st5" d="M609.49-175.19h49.26l-21.2-65.15c-1.09-3.33-5.81-3.33-6.94,0L609.49-175.19L609.49-175.19z"/>
				</g>
			</g>
			<g id="g76_66_" transform="translate(247.197860, 1.160800)">
				<g id="path78_66_">
					<path class="st4" d="M476.12,212.04l35.15-108.17h49.26L476.12,212.04L476.12,212.04z"/>
				</g>
			</g>
			<g id="g80_66_" transform="translate(246.307061, 0.255867)">
				<g id="path82_66_">
					<path class="st6" d="M561.39,104.81L561.39,104.81l10.7,32.87c0.97,2.98-0.08,6.28-2.64,8.14l-92.44,67.13L561.39,104.81
						L561.39,104.81z"/>
				</g>
			</g>
			<g id="g84_66_" transform="translate(336.973725, 280.255593)">
				<g id="path86_66_">
					<path class="st5" d="M470.75-175.19h-49.26l21.16-65.15c1.09-3.33,5.81-3.33,6.94,0L470.75-175.19L470.75-175.19z"/>
				</g>
			</g>
		</g>
	</g>
	<g>
		<g>
			<g>
				<g>
					<path class="st7" d="M163.28,555.27h-41.61c-2.38,0-4.31-1.93-4.31-4.31s1.93-4.31,4.31-4.31h37.3V269.92H46.33v276.73h39.64
						c2.38,0,4.31,1.93,4.31,4.31s-1.93,4.31-4.31,4.31H42.02c-2.38,0-4.31-1.93-4.31-4.31V265.62c0-2.38,1.93-4.31,4.31-4.31
						h121.26c2.38,0,4.31,1.93,4.31,4.31v285.35C167.59,553.34,165.66,555.27,163.28,555.27z"/>
				</g>
				<g>
					<path class="st7" d="M62.34,637.48H4.31c-1.47,0-2.83-0.75-3.63-1.98c-0.79-1.23-0.9-2.79-0.29-4.12l37.72-82.21
						c0.99-2.16,3.55-3.11,5.71-2.12c2.16,0.99,3.11,3.55,2.12,5.71l-34.92,76.11h51.32c2.38,0,4.31,1.93,4.31,4.31
						S64.71,637.48,62.34,637.48z"/>
				</g>
				<g>
					<path class="st7" d="M201,637.48h-59.82c-2.38,0-4.31-1.93-4.31-4.31s1.93-4.31,4.31-4.31h53.11l-34.92-76.11
						c-0.99-2.16-0.04-4.72,2.12-5.71c2.17-0.99,4.72-0.04,5.71,2.12l37.72,82.21c0.61,1.33,0.5,2.89-0.29,4.12
						C203.84,636.73,202.47,637.48,201,637.48z"/>
				</g>
				<g>
					<path class="st7" d="M142.97,440.79H62.34c-2.38,0-4.31-1.93-4.31-4.31V326.13c0-2.38,1.93-4.31,4.31-4.31h80.64
						c2.38,0,4.31,1.93,4.31,4.31v110.35C147.28,438.86,145.35,440.79,142.97,440.79z M66.64,432.18h72.03V330.44H66.64V432.18z"/>
				</g>
				<g>
					<path class="st7" d="M102.66,399.08c-17.99,0-32.63-14.63-32.63-32.63s14.64-32.63,32.63-32.63s32.63,14.63,32.63,32.63
						S120.64,399.08,102.66,399.08z M102.66,342.44c-13.24,0-24.01,10.77-24.01,24.01s10.77,24.01,24.01,24.01
						s24.01-10.77,24.01-24.01S115.9,342.44,102.66,342.44z"/>
				</g>
				<g>
					<path class="st7" d="M122.66,417.58H82.64c-2.38,0-4.31-1.93-4.31-4.31c0-2.38,1.93-4.31,4.31-4.31h40.02
						c2.38,0,4.31,1.93,4.31,4.31C126.97,415.65,125.04,417.58,122.66,417.58z"/>
				</g>
				<g>
					<path class="st7" d="M102.66,370.76c-2.38,0-4.31-1.93-4.31-4.31v-14.34c0-2.38,1.93-4.31,4.31-4.31
						c2.38,0,4.31,1.93,4.31,4.31v14.34C106.96,368.83,105.03,370.76,102.66,370.76z"/>
				</g>
				<g>
					<path class="st7" d="M110.53,378.63c-1.1,0-2.2-0.42-3.04-1.26l-7.87-7.87c-1.68-1.68-1.68-4.41,0-6.09
						c1.68-1.68,4.41-1.68,6.09,0l7.87,7.87c1.68,1.68,1.68,4.41,0,6.09C112.73,378.21,111.63,378.63,110.53,378.63z"/>
				</g>
				<g>
					<path class="st7" d="M42.02,331.39H25.96c-1.49,0-2.87-0.77-3.66-2.03L9.08,308.1c-0.42-0.68-0.65-1.47-0.65-2.27v-40.21
						c0-2.38,1.93-4.31,4.31-4.31h29.29c2.38,0,4.31,1.93,4.31,4.31v61.47C46.33,329.46,44.4,331.39,42.02,331.39z M28.35,322.78
						h9.37v-52.86H17.04v34.67L28.35,322.78z"/>
				</g>
				<g>
					<path class="st7" d="M179.35,331.39h-16.07c-2.38,0-4.31-1.93-4.31-4.31v-61.47c0-2.38,1.93-4.31,4.31-4.31h28.95
						c2.38,0,4.31,1.93,4.31,4.31v40.21c0,0.79-0.22,1.56-0.62,2.23l-12.89,21.26C182.25,330.6,180.86,331.39,179.35,331.39z
						 M167.59,322.78h9.33l11-18.16v-34.7h-20.34V322.78z"/>
				</g>
				<g>
					<path class="st7" d="M192.24,310.13H12.73c-2.38,0-4.31-1.93-4.31-4.31c0-2.38,1.93-4.31,4.31-4.31h179.5
						c2.38,0,4.31,1.93,4.31,4.31C196.54,308.2,194.61,310.13,192.24,310.13z"/>
				</g>
				<g>
					<path class="st7" d="M42.02,269.92H6.93c-1.31,0-2.54-0.59-3.36-1.61c-0.82-1.02-1.13-2.35-0.85-3.63l21.26-96.02
						c0.45-2.03,2.21-3.49,4.37-3.37c2.08,0.08,3.8,1.63,4.1,3.69L46.29,265c0.18,1.24-0.19,2.49-1.01,3.43
						C44.46,269.38,43.27,269.92,42.02,269.92z M12.29,261.31h24.76l-9.76-67.75L12.29,261.31z"/>
				</g>
				<g>
					<path class="st7" d="M198.04,269.92h-34.75c-1.25,0-2.44-0.54-3.25-1.49c-0.82-0.94-1.19-2.2-1.01-3.43l13.84-96.02
						c0.3-2.06,2.03-3.62,4.11-3.69c2.09-0.12,3.92,1.35,4.36,3.39l20.92,96.02c0.28,1.27-0.04,2.6-0.86,3.62
						C200.57,269.33,199.34,269.92,198.04,269.92z M168.26,261.31h24.44l-14.71-67.52L168.26,261.31z"/>
				</g>
				<g>
					<path class="st7" d="M39.58,252.89c-0.32,0-0.65-0.04-0.98-0.11c-2.32-0.54-3.76-2.85-3.22-5.17L69.75,99.19
						c0.45-1.95,2.19-3.33,4.2-3.33h57.43c2,0,3.74,1.38,4.2,3.33l34.03,146.68c0.54,2.32-0.91,4.63-3.22,5.17
						c-2.32,0.53-4.63-0.9-5.17-3.22l-33.25-143.35H77.36l-33.6,145.08C43.31,251.54,41.53,252.89,39.58,252.89z"/>
				</g>
				<g>
					<g>
						<path class="st7" d="M72.34,310.13c-2.38,0-4.31-1.93-4.31-4.31v-40.21c0-2.38,1.93-4.31,4.31-4.31s4.31,1.93,4.31,4.31v40.21
							C76.65,308.2,74.72,310.13,72.34,310.13z"/>
					</g>
					<g>
						<path class="st7" d="M102.66,310.13c-2.38,0-4.31-1.93-4.31-4.31v-40.21c0-2.38,1.93-4.31,4.31-4.31
							c2.38,0,4.31,1.93,4.31,4.31v40.21C106.96,308.2,105.03,310.13,102.66,310.13z"/>
					</g>
					<g>
						<path class="st7" d="M132.97,310.13c-2.38,0-4.31-1.93-4.31-4.31v-40.21c0-2.38,1.93-4.31,4.31-4.31
							c2.38,0,4.31,1.93,4.31,4.31v40.21C137.28,308.2,135.35,310.13,132.97,310.13z"/>
					</g>
				</g>
				<g>
					<path class="st7" d="M73.94,104.47c-2.38,0-4.31-1.93-4.31-4.31V62.32c0-2.38,1.93-4.31,4.31-4.31s4.31,1.93,4.31,4.31v37.85
						C78.25,102.54,76.32,104.47,73.94,104.47z"/>
				</g>
				<g>
					<path class="st7" d="M28.22,174.39c-2.38,0-4.31-1.93-4.31-4.31v-29.15c0-2.38,1.93-4.31,4.31-4.31s4.31,1.93,4.31,4.31v29.15
						C32.53,172.46,30.6,174.39,28.22,174.39z"/>
				</g>
				<g>
					<path class="st7" d="M177.15,173.9c-2.38,0-4.31-1.93-4.31-4.31v-29.15c0-2.38,1.93-4.31,4.31-4.31c2.38,0,4.31,1.93,4.31,4.31
						v29.15C181.45,171.97,179.53,173.9,177.15,173.9z"/>
				</g>
				<g>
					<path class="st7" d="M131.35,104.47c-2.38,0-4.31-1.93-4.31-4.31V62.32c0-2.38,1.93-4.31,4.31-4.31c2.38,0,4.31,1.93,4.31,4.31
						v37.85C135.66,102.54,133.73,104.47,131.35,104.47z"/>
				</g>
				<g>
					<path class="st7" d="M73.94,65.42c-4.21,0-7.63-3.42-7.63-7.63c0-4.21,3.42-7.63,7.63-7.63s7.63,3.42,7.63,7.63
						C81.57,62,78.15,65.42,73.94,65.42z M73.94,56.81c-0.54,0-0.98,0.44-0.98,0.98c0,0.54,0.44,0.98,0.98,0.98s0.98-0.44,0.98-0.98
						C74.92,57.25,74.48,56.81,73.94,56.81z"/>
				</g>
				<g>
					<path class="st7" d="M102.66,498.81c-2.38,0-4.31-1.93-4.31-4.31v-37.85c0-2.38,1.93-4.31,4.31-4.31
						c2.38,0,4.31,1.93,4.31,4.31v37.85C106.96,496.88,105.03,498.81,102.66,498.81z"/>
				</g>
				<g>
					<path class="st7" d="M102.66,459.76c-4.21,0-7.63-3.42-7.63-7.63c0-4.21,3.42-7.63,7.63-7.63c4.21,0,7.63,3.42,7.63,7.63
						C110.29,456.34,106.86,459.76,102.66,459.76z M102.66,451.15c-0.54,0-0.98,0.44-0.98,0.98c0,0.54,0.44,0.98,0.98,0.98
						s0.98-0.44,0.98-0.98C103.64,451.59,103.2,451.15,102.66,451.15z"/>
				</g>
				<g>
					<path class="st7" d="M28.22,142.52c-4.21,0-7.63-3.42-7.63-7.63c0-4.21,3.42-7.63,7.63-7.63s7.63,3.42,7.63,7.63
						C35.85,139.1,32.43,142.52,28.22,142.52z M28.22,133.91c-0.54,0-0.98,0.44-0.98,0.98c0,0.54,0.44,0.98,0.98,0.98
						s0.98-0.44,0.98-0.98C29.2,134.35,28.76,133.91,28.22,133.91z"/>
				</g>
				<g>
					<path class="st7" d="M177.15,142.52c-4.21,0-7.63-3.42-7.63-7.63c0-4.21,3.42-7.63,7.63-7.63c4.21,0,7.63,3.42,7.63,7.63
						C184.78,139.1,181.35,142.52,177.15,142.52z M177.15,133.91c-0.54,0-0.98,0.44-0.98,0.98c0,0.54,0.44,0.98,0.98,0.98
						s0.98-0.44,0.98-0.98C178.13,134.35,177.69,133.91,177.15,133.91z"/>
				</g>
				<g>
					<path class="st7" d="M131.35,65.42c-4.21,0-7.63-3.42-7.63-7.63c0-4.21,3.42-7.63,7.63-7.63c4.21,0,7.63,3.42,7.63,7.63
						C138.98,62,135.56,65.42,131.35,65.42z M131.35,56.81c-0.54,0-0.98,0.44-0.98,0.98c0,0.54,0.44,0.98,0.98,0.98
						s0.98-0.44,0.98-0.98C132.34,57.25,131.9,56.81,131.35,56.81z"/>
				</g>
				<g>
					<path class="st7" d="M124.58,175.47H80.39c-2.38,0-4.31-1.93-4.31-4.31V153.4c0-0.94,0.31-1.86,0.88-2.62
						c0.39-0.51,9.77-12.59,24.79-15.18c0.49-0.08,0.98-0.08,1.47,0c15.01,2.59,24.39,14.67,24.79,15.18
						c0.57,0.75,0.88,1.67,0.88,2.62v17.76C128.89,173.54,126.96,175.47,124.58,175.47z M84.69,166.85h35.58v-11.86
						c-2.29-2.53-8.82-8.93-17.79-10.75c-9.05,1.83-15.52,8.21-17.79,10.74V166.85z"/>
				</g>
				<g>
					<path class="st7" d="M163.28,440.79H42.02c-2.38,0-4.31-1.93-4.31-4.31c0-2.38,1.93-4.31,4.31-4.31h121.26
						c2.38,0,4.31,1.93,4.31,4.31C167.59,438.86,165.66,440.79,163.28,440.79z"/>
				</g>
				<g>
					<path class="st7" d="M192.3,856.34H13.01c-2.38,0-4.31-1.93-4.31-4.31V654.81c0-2.38,1.93-4.31,4.31-4.31s4.31,1.93,4.31,4.31
						v192.92h170.67V654.81c0-2.38,1.93-4.31,4.31-4.31c2.38,0,4.31,1.93,4.31,4.31v197.23C196.6,854.41,194.68,856.34,192.3,856.34
						z"/>
				</g>
				<g>
					<path class="st7" d="M141.18,856.34H64.13c-2.38,0-4.31-1.93-4.31-4.31V676.15c0-2.38,1.93-4.31,4.31-4.31h77.05
						c2.38,0,4.31,1.93,4.31,4.31v175.88C145.49,854.41,143.56,856.34,141.18,856.34z M68.43,847.73h68.44V680.46H68.43V847.73z"/>
				</g>
				<g>
					<path class="st7" d="M119.53,787.01H85.78c-2.38,0-4.31-1.93-4.31-4.31v-53.78c0-12.84,6.82-24.9,18.7-33.07
						c1.47-1.01,3.46-1.04,4.93-0.02c11.91,8.19,18.73,20.25,18.73,33.09v53.78C123.83,785.08,121.91,787.01,119.53,787.01z
						 M90.09,778.4h25.13v-49.47c0-9.09-4.54-17.77-12.56-24.19c-8.04,6.44-12.57,15.11-12.57,24.19V778.4z"/>
				</g>
				<g>
					<path class="st7" d="M287.93,856.34h-65.63c-2.38,0-4.31-1.93-4.31-4.31v-81.76c0-17.21,12.82-33.25,35.18-43.99
						c1.22-0.59,2.72-0.6,3.92,0.03c22.31,10.72,35.13,26.75,35.13,43.96v81.76C292.24,854.41,290.31,856.34,287.93,856.34z
						 M226.61,847.73h57.01v-77.45c0-13.34-10.36-26.14-28.51-35.34c-18.2,9.27-28.51,22.04-28.51,35.34V847.73z"/>
				</g>
				<g>
					<path class="st7" d="M149.89,680.46H55.42c-1.33,0-2.59-0.62-3.41-1.67s-1.1-2.43-0.76-3.72l47.23-181.93
						c0.49-1.9,2.21-3.22,4.17-3.22c1.96,0,3.68,1.33,4.17,3.22l47.23,181.93c0.34,1.29,0.05,2.66-0.76,3.72
						C152.48,679.84,151.22,680.46,149.89,680.46z M60.99,671.85h83.33l-41.66-160.49L60.99,671.85z"/>
				</g>
				<g>
					<path class="st7" d="M102.66,787.01c-2.38,0-4.31-1.93-4.31-4.31v-80.42c0-2.38,1.93-4.31,4.31-4.31
						c2.38,0,4.31,1.93,4.31,4.31v80.42C106.96,785.08,105.03,787.01,102.66,787.01z"/>
				</g>
				<g>
					<path class="st7" d="M64.13,781.21H30.38c-2.38,0-4.31-1.93-4.31-4.31v-54.85c0-11.68,9.5-21.18,21.18-21.18
						s21.18,9.5,21.18,21.18v54.85C68.43,779.28,66.51,781.21,64.13,781.21z M34.69,772.59h25.13v-50.54
						c0-6.93-5.64-12.57-12.57-12.57s-12.57,5.64-12.57,12.57V772.59z"/>
				</g>
				<g>
					<path class="st7" d="M47.26,781.21c-2.38,0-4.31-1.93-4.31-4.31v-71.72c0-2.38,1.93-4.31,4.31-4.31c2.38,0,4.31,1.93,4.31,4.31
						v71.72C51.56,779.28,49.63,781.21,47.26,781.21z"/>
				</g>
				<g>
					<path class="st7" d="M174.93,781.21h-33.74c-2.38,0-4.31-1.93-4.31-4.31v-54.85c0-11.68,9.5-21.18,21.18-21.18
						c11.68,0,21.18,9.5,21.18,21.18v54.85C179.23,779.28,177.31,781.21,174.93,781.21z M145.49,772.59h25.13v-50.54
						c0-6.93-5.64-12.57-12.57-12.57c-6.93,0-12.57,5.64-12.57,12.57V772.59z"/>
				</g>
				<g>
					<path class="st7" d="M158.05,781.21c-2.38,0-4.31-1.93-4.31-4.31v-71.72c0-2.38,1.93-4.31,4.31-4.31
						c2.38,0,4.31,1.93,4.31,4.31v71.72C162.36,779.28,160.43,781.21,158.05,781.21z"/>
				</g>
				<g>
					<path class="st7" d="M60.4,659.11H4.31c-2.38,0-4.31-1.93-4.31-4.31V633.1c0-2.38,1.93-4.31,4.31-4.31s4.31,1.93,4.31,4.31
						v17.4H60.4c2.38,0,4.31,1.93,4.31,4.31C64.7,657.18,62.77,659.11,60.4,659.11z"/>
				</g>
				<g>
					<path class="st7" d="M25.59,659.04c-2.38,0-4.31-1.93-4.31-4.31V633.1c0-2.38,1.93-4.31,4.31-4.31s4.31,1.93,4.31,4.31v21.63
						C29.9,657.11,27.97,659.04,25.59,659.04z"/>
				</g>
				<g>
					<path class="st7" d="M46.88,659.04c-2.38,0-4.31-1.93-4.31-4.31V633.1c0-2.38,1.93-4.31,4.31-4.31c2.38,0,4.31,1.93,4.31,4.31
						v21.63C51.19,657.11,49.26,659.04,46.88,659.04z"/>
				</g>
				<g>
					<path class="st7" d="M201,659.11h-56.09c-2.38,0-4.31-1.93-4.31-4.31c0-2.38,1.93-4.31,4.31-4.31h51.78v-17.4
						c0-2.38,1.93-4.31,4.31-4.31c2.38,0,4.31,1.93,4.31,4.31v21.63C205.31,657.11,203.38,659.11,201,659.11z"/>
				</g>
				<g>
					<path class="st7" d="M179.71,659.04c-2.38,0-4.31-1.93-4.31-4.31v-21.35c0-2.38,1.93-4.31,4.31-4.31
						c2.38,0,4.31,1.93,4.31,4.31v21.35C184.02,657.11,182.09,659.04,179.71,659.04z"/>
				</g>
				<g>
					<path class="st7" d="M158.43,659.04c-2.38,0-4.31-1.93-4.31-4.31v-21.35c0-2.38,1.93-4.31,4.31-4.31
						c2.38,0,4.31,1.93,4.31,4.31v21.35C162.73,657.11,160.81,659.04,158.43,659.04z"/>
				</g>
				<g>
					<path class="st7" d="M317.05,856.34H171.09c-2.38,0-4.31-1.93-4.31-4.31s1.93-4.31,4.31-4.31h141.65V513.71H165.4
						c-2.38,0-4.31-1.93-4.31-4.31c0-2.38,1.93-4.31,4.31-4.31h151.65c2.38,0,4.31,1.93,4.31,4.31v342.63
						C321.36,854.41,319.43,856.34,317.05,856.34z"/>
				</g>
				<g>
					<path class="st7" d="M317.05,528.69H165.4c-2.38,0-4.31-1.93-4.31-4.31s1.93-4.31,4.31-4.31h151.65c2.38,0,4.31,1.93,4.31,4.31
						S319.43,528.69,317.05,528.69z"/>
				</g>
				<g>
					<path class="st7" d="M302.44,856.34c-2.38,0-4.31-1.93-4.31-4.31V734.44H212.1v117.59c0,2.38-1.93,4.31-4.31,4.31
						c-2.38,0-4.31-1.93-4.31-4.31v-121.9c0-2.38,1.93-4.31,4.31-4.31h94.64c2.38,0,4.31,1.93,4.31,4.31v121.9
						C306.75,854.41,304.82,856.34,302.44,856.34z"/>
				</g>
				<g>
					<path class="st7" d="M277.95,711.45h-45.67c-2.38,0-4.31-1.93-4.31-4.31v-67.8c0-2.38,1.93-4.31,4.31-4.31h45.67
						c2.38,0,4.31,1.93,4.31,4.31v67.8C282.26,709.53,280.33,711.45,277.95,711.45z M236.59,702.84h37.06v-59.18h-37.06V702.84z"/>
				</g>
				<g>
					<path class="st7" d="M277.95,620.07h-45.67c-2.38,0-4.31-1.93-4.31-4.31v-67.79c0-2.38,1.93-4.31,4.31-4.31h45.67
						c2.38,0,4.31,1.93,4.31,4.31v67.79C282.26,618.14,280.33,620.07,277.95,620.07z M236.59,611.46h37.06v-59.18h-37.06V611.46z"/>
				</g>
				<g>
					<path class="st7" d="M255.12,620.07c-2.38,0-4.31-1.93-4.31-4.31v-67.79c0-2.38,1.93-4.31,4.31-4.31s4.31,1.93,4.31,4.31v67.79
						C259.43,618.14,257.5,620.07,255.12,620.07z"/>
				</g>
				<g>
					<path class="st7" d="M277.95,573.7h-45.67c-2.38,0-4.31-1.93-4.31-4.31s1.93-4.31,4.31-4.31h45.67c2.38,0,4.31,1.93,4.31,4.31
						S280.33,573.7,277.95,573.7z"/>
				</g>
				<g>
					<path class="st7" d="M255.12,711.45c-2.38,0-4.31-1.93-4.31-4.31v-67.8c0-2.38,1.93-4.31,4.31-4.31s4.31,1.93,4.31,4.31v67.8
						C259.43,709.53,257.5,711.45,255.12,711.45z"/>
				</g>
				<g>
					<path class="st7" d="M277.95,665.08h-45.67c-2.38,0-4.31-1.93-4.31-4.31s1.93-4.31,4.31-4.31h45.67c2.38,0,4.31,1.93,4.31,4.31
						S280.33,665.08,277.95,665.08z"/>
				</g>
			</g>
			<g>
				<g>
					<g>
						<path class="st7" d="M1159.84,543.11c-0.43,0-0.87-0.06-1.3-0.2c-2.27-0.72-3.52-3.14-2.8-5.41l12.8-40.43
							c0.57-1.79,2.23-3.01,4.1-3.01s3.54,1.22,4.1,3.01l12.8,40.43c0.72,2.27-0.54,4.69-2.8,5.41c-2.29,0.72-4.69-0.54-5.41-2.8
							l-8.7-27.46l-8.69,27.46C1163.36,541.94,1161.67,543.11,1159.84,543.11z"/>
					</g>
					<g>
						<path class="st7" d="M1159.84,470.52c-0.43,0-0.87-0.06-1.3-0.2c-2.27-0.72-3.52-3.14-2.8-5.41l12.8-40.42
							c0.57-1.79,2.23-3.01,4.1-3.01s3.54,1.22,4.1,3.01l12.8,40.42c0.72,2.27-0.54,4.69-2.8,5.41c-2.29,0.72-4.69-0.54-5.41-2.8
							l-8.7-27.46l-8.69,27.46C1163.36,469.35,1161.67,470.52,1159.84,470.52z"/>
					</g>
					<g>
						<path class="st7" d="M1159.84,397.94c-0.43,0-0.87-0.06-1.3-0.2c-2.27-0.72-3.52-3.14-2.8-5.41l12.8-40.43
							c0.57-1.79,2.23-3.01,4.1-3.01s3.54,1.22,4.1,3.01l12.8,40.43c0.72,2.27-0.54,4.69-2.8,5.41c-2.29,0.72-4.69-0.54-5.41-2.8
							l-8.7-27.46l-8.69,27.46C1163.36,396.77,1161.67,397.94,1159.84,397.94z"/>
					</g>
					<g>
						<path class="st7" d="M1159.84,325.35c-0.43,0-0.87-0.06-1.3-0.2c-2.27-0.72-3.52-3.14-2.8-5.41l12.8-40.42
							c0.57-1.79,2.23-3.01,4.1-3.01s3.54,1.22,4.1,3.01l12.8,40.42c0.72,2.27-0.54,4.69-2.8,5.41c-2.29,0.72-4.69-0.54-5.41-2.8
							l-8.7-27.46l-8.69,27.46C1163.36,324.18,1161.67,325.35,1159.84,325.35z"/>
					</g>
					<g>
						<path class="st7" d="M1185.44,628.81h-25.6c-2.38,0-4.31-1.93-4.31-4.31V248.47c0-0.44,0.07-0.88,0.2-1.3l12.8-40.43
							c0.57-1.79,2.23-3.01,4.1-3.01s3.54,1.22,4.1,3.01l12.8,40.43c0.13,0.42,0.2,0.86,0.2,1.3V624.5
							C1189.74,626.88,1187.81,628.81,1185.44,628.81z M1164.14,620.2h16.99V249.13l-8.49-26.82l-8.49,26.82V620.2z"/>
					</g>
				</g>
				<g>
					<path class="st7" d="M1600.45,656.98h-204.2c-2.38,0-4.31-1.93-4.31-4.31s1.93-4.31,4.31-4.31h199.89v-19.55h-215.38
						c-2.38,0-4.31-1.93-4.31-4.31s1.93-4.31,4.31-4.31h219.69c2.38,0,4.31,1.93,4.31,4.31v28.16
						C1604.75,655.05,1602.83,656.98,1600.45,656.98z"/>
				</g>
				<g>
					<path class="st7" d="M1350.38,656.98h-200.19c-2.38,0-4.31-1.93-4.31-4.31V624.5c0-2.38,1.93-4.31,4.31-4.31h216.47
						c2.38,0,4.31,1.93,4.31,4.31s-1.93,4.31-4.31,4.31H1154.5v19.55h195.88c2.38,0,4.31,1.93,4.31,4.31
						S1352.76,656.98,1350.38,656.98z"/>
				</g>
				<g>
					<path class="st7" d="M1185.83,856.47h-26.39c-2.38,0-4.31-1.93-4.31-4.31V652.67c0-2.38,1.93-4.31,4.31-4.31h26.39
						c2.38,0,4.31,1.93,4.31,4.31v199.49C1190.14,854.54,1188.21,856.47,1185.83,856.47z M1163.75,847.86h17.77V656.98h-17.77
						V847.86z"/>
				</g>
				<g>
					<g>
						<path class="st7" d="M1267.76,543.11c-0.43,0-0.87-0.06-1.3-0.2c-2.27-0.72-3.52-3.14-2.8-5.41l12.8-40.43
							c0.57-1.79,2.23-3.01,4.1-3.01s3.54,1.22,4.1,3.01l12.8,40.43c0.72,2.27-0.54,4.69-2.8,5.41c-2.29,0.72-4.69-0.54-5.41-2.8
							l-8.7-27.46l-8.69,27.46C1271.28,541.94,1269.59,543.11,1267.76,543.11z"/>
					</g>
					<g>
						<path class="st7" d="M1267.76,470.52c-0.43,0-0.87-0.06-1.3-0.2c-2.27-0.72-3.52-3.14-2.8-5.41l12.8-40.42
							c0.57-1.79,2.23-3.01,4.1-3.01s3.54,1.22,4.1,3.01l12.8,40.42c0.72,2.27-0.54,4.69-2.8,5.41c-2.29,0.72-4.69-0.54-5.41-2.8
							l-8.7-27.46l-8.69,27.46C1271.28,469.35,1269.59,470.52,1267.76,470.52z"/>
					</g>
					<g>
						<path class="st7" d="M1267.76,397.94c-0.43,0-0.87-0.06-1.3-0.2c-2.27-0.72-3.52-3.14-2.8-5.41l12.8-40.43
							c0.57-1.79,2.23-3.01,4.1-3.01s3.54,1.22,4.1,3.01l12.8,40.43c0.72,2.27-0.54,4.69-2.8,5.41c-2.29,0.72-4.69-0.54-5.41-2.8
							l-8.7-27.46l-8.69,27.46C1271.28,396.77,1269.59,397.94,1267.76,397.94z"/>
					</g>
					<g>
						<path class="st7" d="M1267.76,325.35c-0.43,0-0.87-0.06-1.3-0.2c-2.27-0.72-3.52-3.14-2.8-5.41l12.8-40.42
							c0.57-1.79,2.23-3.01,4.1-3.01s3.54,1.22,4.1,3.01l12.8,40.42c0.72,2.27-0.54,4.69-2.8,5.41c-2.29,0.72-4.69-0.54-5.41-2.8
							l-8.7-27.46l-8.69,27.46C1271.28,324.18,1269.59,325.35,1267.76,325.35z"/>
					</g>
					<g>
						<path class="st7" d="M1293.36,628.81h-25.6c-2.38,0-4.31-1.93-4.31-4.31V248.47c0-0.44,0.07-0.88,0.2-1.3l12.8-40.43
							c0.57-1.79,2.23-3.01,4.1-3.01s3.54,1.22,4.1,3.01l12.8,40.43c0.13,0.42,0.2,0.86,0.2,1.3V624.5
							C1297.67,626.88,1295.74,628.81,1293.36,628.81z M1272.07,620.2h16.99V249.13l-8.49-26.82l-8.49,26.82V620.2z"/>
					</g>
				</g>
				<g>
					<path class="st7" d="M1293.75,856.47h-26.39c-2.38,0-4.31-1.93-4.31-4.31V652.67c0-2.38,1.93-4.31,4.31-4.31h26.39
						c2.38,0,4.31,1.93,4.31,4.31v199.49C1298.06,854.54,1296.13,856.47,1293.75,856.47z M1271.67,847.86h17.77V656.98h-17.77
						V847.86z"/>
				</g>
				<g>
					<path class="st7" d="M1591.2,856.47h-26.39c-2.38,0-4.31-1.93-4.31-4.31V652.67c0-2.38,1.93-4.31,4.31-4.31h26.39
						c2.38,0,4.31,1.93,4.31,4.31v199.49C1595.51,854.54,1593.58,856.47,1591.2,856.47z M1569.12,847.86h17.78V656.98h-17.78V847.86
						z"/>
				</g>
				<g>
					<path class="st7" d="M1483.28,856.47h-26.39c-2.38,0-4.31-1.93-4.31-4.31V652.67c0-2.38,1.93-4.31,4.31-4.31h26.39
						c2.38,0,4.31,1.93,4.31,4.31v199.49C1487.58,854.54,1485.65,856.47,1483.28,856.47z M1461.19,847.86h17.78V656.98h-17.78
						V847.86z"/>
				</g>
				<g>
					<path class="st7" d="M1178.81,227.77c-0.26,0-0.53-0.02-0.79-0.07c-2.34-0.43-3.88-2.68-3.45-5.02l15.42-83.01
						c0.38-2.04,2.16-3.52,4.23-3.52h64.75c2.07,0,3.85,1.48,4.23,3.52l15.42,83.01c0.43,2.34-1.11,4.59-3.45,5.02
						c-2.34,0.45-4.59-1.11-5.02-3.45l-14.77-79.49h-57.59l-14.76,79.48C1182.65,226.32,1180.84,227.77,1178.81,227.77z"/>
				</g>
				<g>
					<path class="st7" d="M1252.02,144.76h-51.63c-2.38,0-4.31-1.93-4.31-4.31v-28.32c0-2.38,1.93-4.31,4.31-4.31h51.63
						c2.38,0,4.31,1.93,4.31,4.31v28.32C1256.32,142.83,1254.39,144.76,1252.02,144.76z M1204.7,136.15h43.02v-19.71h-43.02V136.15z
						"/>
				</g>
				<g>
					<path class="st7" d="M1252.02,116.44h-51.63c-1.32,0-2.57-0.61-3.39-1.65c-0.82-1.04-1.11-2.39-0.8-3.68l26.21-107.82
						c0.47-1.94,2.35-3.3,4.2-3.29c1.99,0.01,3.72,1.38,4.18,3.32l25.42,107.82c0.3,1.28,0,2.63-0.82,3.66
						C1254.58,115.83,1253.33,116.44,1252.02,116.44z M1205.87,107.82h40.71l-20.05-85.02L1205.87,107.82z"/>
				</g>
				<g>
					<path class="st7" d="M1236.6,12.75h-20.79c-2.38,0-4.31-1.93-4.31-4.31s1.93-4.31,4.31-4.31h20.79c2.38,0,4.31,1.93,4.31,4.31
						S1238.98,12.75,1236.6,12.75z"/>
				</g>
				<g>
					<path class="st7" d="M1385.72,208.04h-20.79c-2.38,0-4.31-1.93-4.31-4.31c0-2.38,1.93-4.31,4.31-4.31h20.79
						c2.38,0,4.31,1.93,4.31,4.31C1390.02,206.11,1388.1,208.04,1385.72,208.04z"/>
				</g>
				<g>
					<path class="st7" d="M1456.89,388.43h-163.14c-1.51,0-2.9-0.79-3.68-2.07c-0.78-1.28-0.83-2.88-0.14-4.22l81.57-157.02
						c0.74-1.43,2.21-2.32,3.82-2.32s3.08,0.89,3.82,2.32l81.57,157.02c0.69,1.33,0.64,2.94-0.14,4.22
						C1459.79,387.64,1458.39,388.43,1456.89,388.43z M1300.84,379.81h148.96l-74.48-143.38L1300.84,379.81z"/>
				</g>
				<g>
					<path class="st7" d="M1456.89,439.19h-163.14c-2.38,0-4.31-1.93-4.31-4.31c0-2.38,1.93-4.31,4.31-4.31h163.14
						c2.38,0,4.31,1.93,4.31,4.31C1461.19,437.27,1459.26,439.19,1456.89,439.19z"/>
				</g>
				<g>
					<path class="st7" d="M1267.76,388.43h-81.57c-2.38,0-4.31-1.93-4.31-4.31c0-2.38,1.93-4.31,4.31-4.31h81.57
						c2.38,0,4.31,1.93,4.31,4.31C1272.07,386.5,1270.14,388.43,1267.76,388.43z"/>
				</g>
				<g>
					<path class="st7" d="M1267.76,439.19h-81.57c-2.38,0-4.31-1.93-4.31-4.31c0-2.38,1.93-4.31,4.31-4.31h81.57
						c2.38,0,4.31,1.93,4.31,4.31C1272.07,437.27,1270.14,439.19,1267.76,439.19z"/>
				</g>
				<g>
					<path class="st7" d="M1243.61,366.05h-34.82c-2.38,0-4.31-1.93-4.31-4.31v-42.41c0-2.38,1.93-4.31,4.31-4.31h34.82
						c2.38,0,4.31,1.93,4.31,4.31v42.41C1247.92,364.13,1245.99,366.05,1243.61,366.05z M1213.1,357.44h26.21v-33.8h-26.21V357.44z"
						/>
				</g>
				<g>
					<path class="st7" d="M1243.61,300h-34.82c-2.38,0-4.31-1.93-4.31-4.31v-77.27c0-17.77,6.97-28.49,19.01-41
						c0.82-0.86,1.99-1.38,3.15-1.32c1.19,0.01,2.32,0.52,3.12,1.39l0.2,0.22c11.65,12.67,17.96,22.77,17.96,39.88v78.11
						C1247.92,298.07,1245.99,300,1243.61,300z M1213.1,291.39h26.21v-73.8c0-12.96-4.3-21.04-12.78-30.8
						c-8.91,9.85-13.43,18.13-13.43,31.64V291.39z"/>
				</g>
				<g>
					<path class="st7" d="M1243.61,586.7h-34.82c-2.38,0-4.31-1.93-4.31-4.31v-89.61c0-17.77,6.97-28.49,19.01-41
						c0.82-0.86,1.99-1.38,3.15-1.32c1.19,0.01,2.32,0.52,3.12,1.39l0.2,0.22c11.65,12.67,17.96,22.77,17.96,39.88v90.44
						C1247.92,584.77,1245.99,586.7,1243.61,586.7z M1213.1,578.09h26.21v-86.13c0-12.96-4.3-21.04-12.78-30.8
						c-8.91,9.85-13.43,18.13-13.43,31.64V578.09z"/>
				</g>
				<g>
					<path class="st7" d="M1172.64,212.35c-2.38,0-4.31-1.93-4.31-4.31v-42.49c0-2.38,1.93-4.31,4.31-4.31s4.31,1.93,4.31,4.31
						v42.49C1176.94,210.42,1175.01,212.35,1172.64,212.35z"/>
				</g>
				<g>
					<path class="st7" d="M1280.56,212.35c-2.38,0-4.31-1.93-4.31-4.31v-42.49c0-2.38,1.93-4.31,4.31-4.31s4.31,1.93,4.31,4.31
						v42.49C1284.86,210.42,1282.94,212.35,1280.56,212.35z"/>
				</g>
				<g>
					<g>
						<path class="st7" d="M1457.68,543.11c-0.43,0-0.87-0.06-1.3-0.2c-2.27-0.72-3.52-3.14-2.8-5.41l12.8-40.43
							c0.57-1.79,2.23-3.01,4.1-3.01s3.54,1.22,4.1,3.01l12.8,40.43c0.72,2.27-0.54,4.69-2.8,5.41c-2.28,0.72-4.69-0.54-5.41-2.8
							l-8.7-27.46l-8.69,27.46C1461.2,541.94,1459.51,543.11,1457.68,543.11z"/>
					</g>
					<g>
						<path class="st7" d="M1457.68,470.52c-0.43,0-0.87-0.06-1.3-0.2c-2.27-0.72-3.52-3.14-2.8-5.41l12.8-40.42
							c0.57-1.79,2.23-3.01,4.1-3.01s3.54,1.22,4.1,3.01l12.8,40.42c0.72,2.27-0.54,4.69-2.8,5.41c-2.29,0.72-4.69-0.54-5.41-2.8
							l-8.7-27.46l-8.69,27.46C1461.2,469.35,1459.51,470.52,1457.68,470.52z"/>
					</g>
					<g>
						<path class="st7" d="M1457.68,397.94c-0.43,0-0.87-0.06-1.3-0.2c-2.27-0.72-3.52-3.14-2.8-5.41l12.8-40.43
							c0.57-1.79,2.23-3.01,4.1-3.01s3.54,1.22,4.1,3.01l12.8,40.43c0.72,2.27-0.54,4.69-2.8,5.41c-2.29,0.72-4.69-0.54-5.41-2.8
							l-8.7-27.46l-8.69,27.46C1461.2,396.77,1459.51,397.94,1457.68,397.94z"/>
					</g>
					<g>
						<path class="st7" d="M1457.68,325.35c-0.43,0-0.87-0.06-1.3-0.2c-2.27-0.72-3.52-3.14-2.8-5.41l12.8-40.42
							c0.57-1.79,2.23-3.01,4.1-3.01s3.54,1.22,4.1,3.01l12.8,40.42c0.72,2.27-0.54,4.69-2.8,5.41c-2.29,0.72-4.69-0.54-5.41-2.8
							l-8.7-27.46l-8.69,27.46C1461.2,324.18,1459.51,325.35,1457.68,325.35z"/>
					</g>
					<g>
						<path class="st7" d="M1483.28,628.81h-25.6c-2.38,0-4.31-1.93-4.31-4.31V248.47c0-0.44,0.07-0.88,0.2-1.3l12.8-40.43
							c0.57-1.79,2.23-3.01,4.1-3.01s3.54,1.22,4.1,3.01l12.8,40.43c0.13,0.42,0.2,0.86,0.2,1.3V624.5
							C1487.58,626.88,1485.65,628.81,1483.28,628.81z M1461.98,620.2h16.99V249.13l-8.49-26.82l-8.49,26.82V620.2z"/>
					</g>
				</g>
				<g>
					<g>
						<path class="st7" d="M1565.6,543.11c-0.43,0-0.87-0.06-1.3-0.2c-2.27-0.72-3.52-3.14-2.8-5.41l12.8-40.43
							c0.57-1.79,2.23-3.01,4.1-3.01s3.54,1.22,4.1,3.01l12.8,40.43c0.72,2.27-0.54,4.69-2.8,5.41c-2.27,0.72-4.69-0.54-5.41-2.8
							l-8.7-27.46l-8.69,27.46C1569.12,541.94,1567.43,543.11,1565.6,543.11z"/>
					</g>
					<g>
						<path class="st7" d="M1565.6,470.52c-0.43,0-0.87-0.06-1.3-0.2c-2.27-0.72-3.52-3.14-2.8-5.41l12.8-40.42
							c0.57-1.79,2.23-3.01,4.1-3.01s3.54,1.22,4.1,3.01l12.8,40.42c0.72,2.27-0.54,4.69-2.8,5.41c-2.29,0.72-4.69-0.54-5.41-2.8
							l-8.7-27.46l-8.69,27.46C1569.12,469.35,1567.43,470.52,1565.6,470.52z"/>
					</g>
					<g>
						<path class="st7" d="M1565.6,397.94c-0.43,0-0.87-0.06-1.3-0.2c-2.27-0.72-3.52-3.14-2.8-5.41l12.8-40.43
							c0.57-1.79,2.23-3.01,4.1-3.01s3.54,1.22,4.1,3.01l12.8,40.43c0.72,2.27-0.54,4.69-2.8,5.41c-2.29,0.72-4.69-0.54-5.41-2.8
							l-8.7-27.46l-8.69,27.46C1569.12,396.77,1567.43,397.94,1565.6,397.94z"/>
					</g>
					<g>
						<path class="st7" d="M1565.6,325.35c-0.43,0-0.87-0.06-1.3-0.2c-2.27-0.72-3.52-3.14-2.8-5.41l12.8-40.42
							c0.57-1.79,2.23-3.01,4.1-3.01s3.54,1.22,4.1,3.01l12.8,40.42c0.72,2.27-0.54,4.69-2.8,5.41c-2.29,0.72-4.69-0.54-5.41-2.8
							l-8.7-27.46l-8.69,27.46C1569.12,324.18,1567.43,325.35,1565.6,325.35z"/>
					</g>
					<g>
						<path class="st7" d="M1591.2,628.81h-25.6c-2.38,0-4.31-1.93-4.31-4.31V248.47c0-0.44,0.07-0.88,0.2-1.3l12.8-40.43
							c0.57-1.79,2.23-3.01,4.1-3.01s3.54,1.22,4.1,3.01l12.8,40.43c0.13,0.42,0.2,0.86,0.2,1.3V624.5
							C1595.51,626.88,1593.58,628.81,1591.2,628.81z M1569.91,620.2h16.99V249.13l-8.49-26.82l-8.49,26.82V620.2z"/>
					</g>
				</g>
				<g>
					<path class="st7" d="M1572.23,227.77c-2.03,0-3.84-1.45-4.23-3.52l-14.76-79.48h-57.59l-14.76,79.48
						c-0.43,2.34-2.7,3.9-5.02,3.45c-2.34-0.43-3.88-2.68-3.45-5.02l15.42-83.01c0.38-2.04,2.16-3.52,4.23-3.52h64.75
						c2.07,0,3.85,1.48,4.23,3.52l15.42,83.01c0.43,2.34-1.11,4.58-3.45,5.02C1572.75,227.74,1572.49,227.77,1572.23,227.77z"/>
				</g>
				<g>
					<path class="st7" d="M1549.86,144.76h-51.63c-2.38,0-4.31-1.93-4.31-4.31v-28.32c0-2.38,1.93-4.31,4.31-4.31h51.63
						c2.38,0,4.31,1.93,4.31,4.31v28.32C1554.16,142.83,1552.23,144.76,1549.86,144.76z M1502.54,136.15h43.02v-19.71h-43.02V136.15
						z"/>
				</g>
				<g>
					<path class="st7" d="M1549.86,116.44h-51.63c-1.32,0-2.57-0.61-3.39-1.65c-0.82-1.04-1.11-2.39-0.8-3.68l26.21-107.82
						c0.47-1.94,2.1-3.3,4.2-3.29c1.99,0.01,3.72,1.38,4.18,3.32l25.42,107.82c0.3,1.28,0,2.63-0.82,3.66
						C1552.42,115.83,1551.17,116.44,1549.86,116.44z M1503.71,107.82h40.71l-20.05-85.02L1503.71,107.82z"/>
				</g>
				<g>
					<path class="st7" d="M1534.44,12.75h-20.79c-2.38,0-4.31-1.93-4.31-4.31s1.93-4.31,4.31-4.31h20.79c2.38,0,4.31,1.93,4.31,4.31
						S1536.82,12.75,1534.44,12.75z"/>
				</g>
				<g>
					<path class="st7" d="M1565.6,388.43h-81.57c-2.38,0-4.31-1.93-4.31-4.31c0-2.38,1.93-4.31,4.31-4.31h81.57
						c2.38,0,4.31,1.93,4.31,4.31C1569.91,386.5,1567.98,388.43,1565.6,388.43z"/>
				</g>
				<g>
					<path class="st7" d="M1565.6,439.19h-81.57c-2.38,0-4.31-1.93-4.31-4.31c0-2.38,1.93-4.31,4.31-4.31h81.57
						c2.38,0,4.31,1.93,4.31,4.31C1569.91,437.27,1567.98,439.19,1565.6,439.19z"/>
				</g>
				<g>
					<path class="st7" d="M1541.45,366.05h-34.82c-2.38,0-4.31-1.93-4.31-4.31v-42.41c0-2.38,1.93-4.31,4.31-4.31h34.82
						c2.38,0,4.31,1.93,4.31,4.31v42.41C1545.76,364.13,1543.83,366.05,1541.45,366.05z M1510.94,357.44h26.21v-33.8h-26.21V357.44z
						"/>
				</g>
				<g>
					<path class="st7" d="M1541.45,300h-34.82c-2.38,0-4.31-1.93-4.31-4.31v-77.27c0-17.77,6.97-28.49,19.01-41
						c0.82-0.86,2.06-1.38,3.15-1.32c1.19,0.01,2.32,0.52,3.12,1.39l0.2,0.22c11.65,12.67,17.96,22.77,17.96,39.88v78.11
						C1545.76,298.07,1543.83,300,1541.45,300z M1510.94,291.39h26.21v-73.8c0-12.96-4.3-21.04-12.78-30.8
						c-8.91,9.85-13.43,18.13-13.43,31.64V291.39z"/>
				</g>
				<g>
					<path class="st7" d="M1541.45,586.7h-34.82c-2.38,0-4.31-1.93-4.31-4.31v-89.61c0-17.77,6.97-28.49,19.01-41
						c0.82-0.86,2.06-1.38,3.15-1.32c1.19,0.01,2.32,0.52,3.12,1.39l0.2,0.22c11.65,12.67,17.96,22.77,17.96,39.88v90.44
						C1545.76,584.77,1543.83,586.7,1541.45,586.7z M1510.94,578.09h26.21v-86.13c0-12.96-4.3-21.04-12.78-30.8
						c-8.91,9.85-13.43,18.13-13.43,31.64V578.09z"/>
				</g>
				<g>
					<path class="st7" d="M1470.48,212.35c-2.38,0-4.31-1.93-4.31-4.31v-42.49c0-2.38,1.93-4.31,4.31-4.31s4.31,1.93,4.31,4.31
						v42.49C1474.78,210.42,1472.85,212.35,1470.48,212.35z"/>
				</g>
				<g>
					<path class="st7" d="M1578.4,212.35c-2.38,0-4.31-1.93-4.31-4.31v-42.49c0-2.38,1.93-4.31,4.31-4.31s4.31,1.93,4.31,4.31v42.49
						C1582.7,210.42,1580.78,212.35,1578.4,212.35z"/>
				</g>
				<g>
					<path class="st7" d="M1373.44,613.39c-37.85,0-68.64-30.79-68.64-68.64c0-37.85,30.79-68.64,68.64-68.64
						c37.85,0,68.64,30.79,68.64,68.64C1442.08,582.6,1411.28,613.39,1373.44,613.39z M1373.44,484.73
						c-33.1,0-60.03,26.93-60.03,60.03s26.93,60.02,60.03,60.02s60.03-26.93,60.03-60.02S1406.54,484.73,1373.44,484.73z"/>
				</g>
				<g>
					<path class="st7" d="M1373.44,568.87c-13.3,0-24.12-10.82-24.12-24.12c0-13.3,10.82-24.12,24.12-24.12
						c13.3,0,24.12,10.82,24.12,24.12C1397.56,558.06,1386.74,568.87,1373.44,568.87z M1373.44,529.25
						c-8.55,0-15.51,6.96-15.51,15.51s6.96,15.51,15.51,15.51c8.55,0,15.51-6.96,15.51-15.51S1381.99,529.25,1373.44,529.25z"/>
				</g>
				<g>
					<path class="st7" d="M1293.76,530.41c-0.23,0-0.46-0.02-0.69-0.05c-2.35-0.38-3.95-2.58-3.57-4.93
						c10.89-68.01,81.4-93.54,84.39-94.6c2.25-0.78,4.7,0.39,5.49,2.63c0.79,2.24-0.39,4.7-2.63,5.5
						c-0.69,0.24-68.67,24.95-78.75,87.83C1297.67,528.9,1295.83,530.41,1293.76,530.41z"/>
				</g>
				<g>
					<path class="st7" d="M1457.46,530.41c-2.08,0-3.91-1.51-4.25-3.63c-10.09-63-78.05-87.59-78.74-87.83
						c-2.24-0.79-3.42-3.25-2.63-5.49c0.79-2.24,3.24-3.42,5.49-2.63c2.99,1.05,73.49,26.59,84.39,94.6
						c0.38,2.35-1.22,4.56-3.57,4.93C1457.91,530.39,1457.68,530.41,1457.46,530.41z"/>
				</g>
				<g>
					<path class="st7" d="M1373.44,529.25c-1.1,0-2.2-0.42-3.04-1.26l-21.3-21.3c-1.68-1.68-1.68-4.41,0-6.09l21.3-21.3
						c1.68-1.68,4.41-1.68,6.09,0l21.3,21.3c1.68,1.68,1.68,4.41,0,6.09l-21.3,21.3C1375.64,528.83,1374.54,529.25,1373.44,529.25z
						 M1358.23,503.65l15.21,15.21l15.21-15.21l-15.21-15.21L1358.23,503.65z"/>
				</g>
				<g>
					<path class="st7" d="M1373.44,611.85c-1.1,0-2.2-0.42-3.04-1.26l-21.3-21.3c-1.68-1.68-1.68-4.41,0-6.09l21.3-21.3
						c1.68-1.68,4.41-1.68,6.09,0l21.3,21.3c1.68,1.68,1.68,4.41,0,6.09l-21.3,21.3C1375.64,611.43,1374.54,611.85,1373.44,611.85z
						 M1358.23,586.25l15.21,15.21l15.21-15.21l-15.21-15.21L1358.23,586.25z"/>
				</g>
				<g>
					<path class="st7" d="M1414.74,570.55c-1.1,0-2.2-0.42-3.04-1.26l-21.3-21.3c-1.68-1.68-1.68-4.41,0-6.09l21.3-21.3
						c1.68-1.68,4.41-1.68,6.09,0l21.3,21.3c1.68,1.68,1.68,4.41,0,6.09l-21.3,21.3C1416.94,570.13,1415.84,570.55,1414.74,570.55z
						 M1399.53,544.95l15.21,15.21l15.21-15.21l-15.21-15.21L1399.53,544.95z"/>
				</g>
				<g>
					<path class="st7" d="M1332.14,570.55c-1.1,0-2.2-0.42-3.04-1.26l-21.3-21.3c-1.68-1.68-1.68-4.41,0-6.09l21.3-21.3
						c1.68-1.68,4.41-1.68,6.09,0l21.3,21.3c1.68,1.68,1.68,4.41,0,6.09l-21.3,21.3C1334.34,570.13,1333.24,570.55,1332.14,570.55z
						 M1316.93,544.95l15.21,15.21l15.21-15.21l-15.21-15.21L1316.93,544.95z"/>
				</g>
				<g>
					<g>
						<path class="st7" d="M1417.72,528.51L1417.72,528.51c-2.38,0-4.31-1.93-4.31-4.31l0.02-19.17l-18.87-0.02
							c-2.38,0-4.31-1.93-4.3-4.31c0-2.38,1.93-4.3,4.31-4.3h0l23.17,0.02c2.38,0,4.31,1.93,4.3,4.31l-0.02,23.48
							C1422.02,526.59,1420.1,528.51,1417.72,528.51z"/>
					</g>
					<g>
						<path class="st7" d="M1404.12,535.14C1404.12,535.14,1404.12,535.14,1404.12,535.14l-16.53-0.02c-2.38,0-4.3-1.93-4.3-4.31
							l0.02-20.03c0-2.37,1.93-4.3,4.31-4.3c0,0,0,0,0.01,0c2.38,0,4.3,1.93,4.3,4.31l-0.01,15.72l12.22,0.01
							c2.38,0,4.3,1.93,4.3,4.31C1408.43,533.21,1406.5,535.14,1404.12,535.14z"/>
					</g>
					<g>
						<path class="st7" d="M1359.26,583.37C1359.26,583.37,1359.26,583.37,1359.26,583.37c-2.38,0-4.31-1.93-4.31-4.31l0.01-15.68
							l-14.51-0.01c-2.38,0-4.3-1.93-4.3-4.31c0-2.37,1.93-4.3,4.31-4.3c0,0,0,0,0.01,0l18.82,0.02c2.38,0,4.3,1.93,4.3,4.31
							l-0.02,19.99C1363.56,581.45,1361.64,583.37,1359.26,583.37z"/>
					</g>
					<g>
						<path class="st7" d="M1353.8,593.5L1353.8,593.5l-24.67-0.02c-1.14,0-2.24-0.46-3.04-1.26c-0.81-0.81-1.26-1.9-1.26-3.04
							l0.02-24.03c0-2.38,1.93-4.3,4.31-4.3h0c2.38,0,4.31,1.93,4.3,4.31l-0.02,19.73l20.36,0.02c2.38,0,4.31,1.93,4.3,4.31
							C1358.1,591.57,1356.18,593.5,1353.8,593.5z"/>
					</g>
					<g>
						<path class="st7" d="M1387.55,583.41L1387.55,583.41c-2.38,0-4.31-1.93-4.31-4.31l0.02-20c0-1.14,0.46-2.24,1.26-3.04
							c0.81-0.81,1.9-1.26,3.04-1.26c0,0,0,0,0.01,0l20.03,0.02c2.38,0,4.3,1.93,4.3,4.31c0,2.37-1.93,4.3-4.31,4.3c0,0,0,0-0.01,0
							l-15.72-0.01l-0.01,15.69C1391.85,581.49,1389.93,583.41,1387.55,583.41z"/>
					</g>
					<g>
						<path class="st7" d="M1417.66,593.56L1417.66,593.56l-24.05-0.02c-2.38,0-4.31-1.93-4.3-4.31s1.93-4.3,4.31-4.3h0l19.74,0.02
							l0.02-19.81c0-2.38,1.93-4.3,4.31-4.3h0c2.38,0,4.31,1.93,4.3,4.31l-0.02,24.12c0,1.14-0.46,2.24-1.26,3.04
							C1419.89,593.11,1418.8,593.56,1417.66,593.56z"/>
					</g>
					<g>
						<path class="st7" d="M1329.19,528.51L1329.19,528.51c-2.38,0-4.31-1.93-4.31-4.31l0.02-23.56c0-1.14,0.46-2.24,1.26-3.04
							c0.81-0.81,1.9-1.26,3.04-1.26c0,0,0,0,0.01,0l22.51,0.02c2.38,0,4.3,1.93,4.3,4.31c0,2.37-1.93,4.3-4.31,4.3c0,0,0,0-0.01,0
							l-18.2-0.02l-0.02,19.26C1333.5,526.59,1331.57,528.51,1329.19,528.51z"/>
					</g>
					<g>
						<path class="st7" d="M1359.31,535.09L1359.31,535.09l-18.09-0.02c-2.38,0-4.31-1.93-4.3-4.31c0-2.38,1.93-4.3,4.31-4.3h0
							l13.78,0.01l0.01-14.06c0-2.38,1.93-4.3,4.31-4.3h0c2.38,0,4.31,1.93,4.3,4.31l-0.02,18.37c0,1.14-0.46,2.24-1.26,3.04
							C1361.54,534.64,1360.45,535.09,1359.31,535.09z"/>
					</g>
				</g>
				<g>
					<path class="st7" d="M1591.2,856.47h-431.76c-2.38,0-4.31-1.93-4.31-4.31s1.93-4.31,4.31-4.31h431.76
						c2.38,0,4.31,1.93,4.31,4.31S1593.58,856.47,1591.2,856.47z"/>
				</g>
				<g>
					<path class="st7" d="M1432.93,856.47h-118.12c-2.38,0-4.31-1.93-4.31-4.31v-75.01c0-33.77,8.23-67.46,23.79-97.42l35.33-68.01
						c0.74-1.42,2.21-2.32,3.81-2.32c0.01,0,0.01,0,0.01,0c1.6,0,3.06,0.89,3.81,2.3l35.61,67.57
						c15.95,30.26,24.38,64.34,24.38,98.54v74.35C1437.24,854.54,1435.31,856.47,1432.93,856.47z M1319.11,847.86h109.51v-70.04
						c0-32.81-8.09-65.5-23.39-94.53L1373.47,623l-31.53,60.7c-14.93,28.75-22.82,61.06-22.82,93.45V847.86z"/>
				</g>
				<g>
					<path class="st7" d="M1267.66,856.47h-81.81c-2.38,0-4.31-1.93-4.31-4.31V765.7c0-23.6,5.75-47.14,16.63-68.08l24.46-47.1
						c0.74-1.42,2.21-2.32,3.81-2.32c0.01,0,0.01,0,0.01,0c1.6,0,3.06,0.89,3.81,2.3l24.66,46.79
						c11.14,21.15,17.03,44.96,17.03,68.86v86.01C1271.96,854.54,1270.04,856.47,1267.66,856.47z M1190.16,847.86h73.2v-81.7
						c0-22.51-5.55-44.93-16.04-64.85l-20.83-39.51l-20.67,39.8c-10.24,19.72-15.66,41.89-15.66,64.11V847.86z"/>
				</g>
				<g>
					<path class="st7" d="M1410.96,856.47h-75.05c-2.38,0-4.31-1.93-4.31-4.31v-82.81c0-26,14.66-49.84,39.22-63.77
						c1.28-0.73,3.1-0.74,4.39-0.02c24.71,13.65,40.05,38.3,40.05,64.33v82.27C1415.27,854.54,1413.34,856.47,1410.96,856.47z
						 M1340.22,847.86h66.43v-77.97c0-22.18-12.81-43.31-33.59-55.64c-20.61,12.51-32.85,32.95-32.85,55.1V847.86z"/>
				</g>
				<g>
					<path class="st7" d="M1373.87,697.83c-9.94,0-18.03-8.09-18.03-18.03c0-9.94,8.09-18.04,18.03-18.04s18.04,8.09,18.04,18.04
						C1391.9,689.74,1383.81,697.83,1373.87,697.83z M1373.87,670.37c-5.2,0-9.42,4.23-9.42,9.42s4.22,9.42,9.42,9.42
						s9.42-4.23,9.42-9.42S1379.06,670.37,1373.87,670.37z"/>
				</g>
				<g>
					<path class="st7" d="M1226.62,710.09c-6.29,0-11.41-5.12-11.41-11.41c0-6.29,5.12-11.41,11.41-11.41s11.41,5.12,11.41,11.41
						C1238.03,704.98,1232.91,710.09,1226.62,710.09z M1226.62,695.88c-1.54,0-2.8,1.26-2.8,2.8c0,1.54,1.26,2.8,2.8,2.8
						s2.8-1.26,2.8-2.8C1229.42,697.14,1228.16,695.88,1226.62,695.88z"/>
				</g>
				<g>
					<path class="st7" d="M1393.92,856.47h-39.69c-2.38,0-4.31-1.93-4.31-4.31v-79.49c0-2.38,1.93-4.31,4.31-4.31h39.69
						c2.38,0,4.31,1.93,4.31,4.31v79.49C1398.23,854.54,1396.3,856.47,1393.92,856.47z M1358.54,847.86h31.08v-70.88h-31.08V847.86z
						"/>
				</g>
				<g>
					<path class="st7" d="M1374.07,853.88c-2.38,0-4.31-1.93-4.31-4.31v-76.91c0-2.38,1.93-4.31,4.31-4.31s4.31,1.93,4.31,4.31
						v76.91C1378.38,851.95,1376.45,853.88,1374.07,853.88z"/>
				</g>
				<g>
					<path class="st7" d="M1250.95,856.47h-49.49c-2.38,0-4.31-1.93-4.31-4.31v-73.42c0-24.75,9.71-47.56,25.99-61
						c1.53-1.26,4.01-1.28,5.56-0.03c16.63,13.39,26.55,36.4,26.55,61.56v72.9C1255.25,854.54,1253.32,856.47,1250.95,856.47z
						 M1205.77,847.86h40.87v-68.59c0-20.83-7.84-40.58-20.67-52.53c-12.71,12.06-20.21,31.21-20.21,52.01V847.86z"/>
				</g>
				<g>
					<path class="st7" d="M1236.33,856.47h-19.4c-2.38,0-4.31-1.93-4.31-4.31v-71.42c0-2.38,1.93-4.31,4.31-4.31h19.4
						c2.38,0,4.31,1.93,4.31,4.31v71.42C1240.63,854.54,1238.7,856.47,1236.33,856.47z M1221.23,847.86h10.79v-62.8h-10.79V847.86z"
						/>
				</g>
				<g>
					<path class="st7" d="M1564.95,856.47h-81.81c-2.38,0-4.31-1.93-4.31-4.31V765.7c0-23.6,5.75-47.14,16.63-68.08l24.46-47.1
						c0.74-1.42,2.21-2.32,3.81-2.32c0.01,0,0.01,0,0.01,0c1.6,0,3.06,0.89,3.81,2.3l24.66,46.79
						c11.14,21.14,17.03,44.96,17.03,68.86v86.01C1569.25,854.54,1567.32,856.47,1564.95,856.47z M1487.44,847.86h73.2v-81.7
						c0-22.51-5.55-44.94-16.04-64.85l-20.83-39.51l-20.67,39.8c-10.24,19.72-15.66,41.89-15.66,64.11V847.86z"/>
				</g>
				<g>
					<path class="st7" d="M1523.91,710.09c-6.29,0-11.41-5.12-11.41-11.41c0-6.29,5.12-11.41,11.41-11.41
						c6.29,0,11.41,5.12,11.41,11.41C1535.32,704.98,1530.2,710.09,1523.91,710.09z M1523.91,695.88c-1.54,0-2.8,1.26-2.8,2.8
						c0,1.54,1.26,2.8,2.8,2.8c1.54,0,2.8-1.26,2.8-2.8C1526.71,697.14,1525.45,695.88,1523.91,695.88z"/>
				</g>
				<g>
					<path class="st7" d="M1548.23,856.47h-49.49c-2.38,0-4.31-1.93-4.31-4.31v-73.42c0-24.75,9.71-47.56,25.99-61
						c1.53-1.26,4.02-1.28,5.56-0.03c16.63,13.39,26.55,36.4,26.55,61.56v72.9C1552.54,854.54,1550.61,856.47,1548.23,856.47z
						 M1503.05,847.86h40.87v-68.59c0-20.83-7.84-40.58-20.67-52.53c-12.71,12.06-20.21,31.21-20.21,52.01V847.86z"/>
				</g>
				<g>
					<path class="st7" d="M1533.61,856.47h-19.4c-2.38,0-4.31-1.93-4.31-4.31v-71.42c0-2.38,1.93-4.31,4.31-4.31h19.4
						c2.38,0,4.31,1.93,4.31,4.31v71.42C1537.92,854.54,1535.99,856.47,1533.61,856.47z M1518.52,847.86h10.79v-62.8h-10.79V847.86z
						"/>
				</g>
				<g>
					<path class="st7" d="M1375.32,231.4c-2.38,0-4.31-1.93-4.31-4.31v-28.99c0-2.38,1.93-4.31,4.31-4.31s4.31,1.93,4.31,4.31v28.99
						C1379.63,229.47,1377.7,231.4,1375.32,231.4z"/>
				</g>
				<g>
					<path class="st7" d="M1375.32,308.23c-10.45,0-18.94-8.5-18.94-18.94s8.5-18.94,18.94-18.94s18.94,8.5,18.94,18.94
						S1385.77,308.23,1375.32,308.23z M1375.32,278.95c-5.7,0-10.33,4.63-10.33,10.33s4.63,10.33,10.33,10.33
						s10.33-4.63,10.33-10.33S1381.02,278.95,1375.32,278.95z"/>
				</g>
			</g>
			<g>
				<path class="st7" d="M916.74,620.07H556.53c-2.38,0-4.31-1.93-4.31-4.31s1.93-4.31,4.31-4.31h360.21c2.38,0,4.31,1.93,4.31,4.31
					S919.11,620.07,916.74,620.07z"/>
			</g>
			<g>
				<path class="st7" d="M497.19,620.07H317.05c-2.38,0-4.31-1.93-4.31-4.31s1.93-4.31,4.31-4.31h180.14c2.38,0,4.31,1.93,4.31,4.31
					S499.57,620.07,497.19,620.07z"/>
			</g>
			<g>
				<path class="st7" d="M1158.9,620.07H978.76c-2.38,0-4.31-1.93-4.31-4.31s1.93-4.31,4.31-4.31h180.14c2.38,0,4.31,1.93,4.31,4.31
					S1161.27,620.07,1158.9,620.07z"/>
			</g>
			<g>
				<path class="st7" d="M916.74,649.08H556.53c-2.38,0-4.31-1.93-4.31-4.31s1.93-4.31,4.31-4.31h360.21c2.38,0,4.31,1.93,4.31,4.31
					S919.11,649.08,916.74,649.08z"/>
			</g>
			<g>
				<path class="st7" d="M497.19,649.08H317.05c-2.38,0-4.31-1.93-4.31-4.31s1.93-4.31,4.31-4.31h180.14c2.38,0,4.31,1.93,4.31,4.31
					S499.57,649.08,497.19,649.08z"/>
			</g>
			<g>
				<path class="st7" d="M1147.29,649.08H978.76c-2.38,0-4.31-1.93-4.31-4.31s1.93-4.31,4.31-4.31h168.53
					c2.38,0,4.31,1.93,4.31,4.31S1149.67,649.08,1147.29,649.08z"/>
			</g>
			<g>
				<path class="st7" d="M585.59,777.65c-0.68,0-1.36-0.16-2-0.5c-2.1-1.11-2.91-3.71-1.8-5.82c29.67-56.31,91.05-92.7,156.37-92.7
					c2.38,0,4.31,1.93,4.31,4.31c0,2.38-1.93,4.31-4.31,4.31c-62.16,0-120.55,34.58-148.75,88.1
					C588.64,776.81,587.14,777.65,585.59,777.65z"/>
			</g>
			<g>
				<path class="st7" d="M469.61,777.65c-1.55,0-3.04-0.84-3.81-2.3c-28.2-53.52-86.59-88.1-148.75-88.1
					c-2.38,0-4.31-1.93-4.31-4.31c0-2.38,1.93-4.31,4.31-4.31c65.32,0,126.7,36.39,156.37,92.7c1.11,2.11,0.3,4.71-1.8,5.82
					C470.98,777.49,470.29,777.65,469.61,777.65z"/>
			</g>
			<g>
				<path class="st7" d="M1158.9,856.47c-14.26,0-27.69-5.13-38.27-14.53c-10.57,9.4-24,14.53-38.27,14.53
					c-14.26,0-27.69-5.13-38.26-14.53c-10.57,9.4-24.01,14.53-38.27,14.53s-27.69-5.13-38.27-14.53
					c-10.57,9.4-24.01,14.53-38.27,14.53s-27.69-5.13-38.27-14.53c-10.57,9.4-24,14.53-38.26,14.53c-14.26,0-27.7-5.13-38.27-14.53
					c-10.57,9.4-24.01,14.53-38.27,14.53s-27.69-5.13-38.27-14.53c-10.57,9.4-24,14.53-38.26,14.53c-14.26,0-27.69-5.13-38.27-14.53
					c-10.57,9.4-24,14.53-38.26,14.53s-27.69-5.13-38.27-14.53c-10.57,9.4-24.01,14.53-38.27,14.53c-14.26,0-27.69-5.13-38.26-14.53
					c-10.57,9.4-24.01,14.53-38.27,14.53c-14.26,0-27.69-5.13-38.27-14.53c-10.57,9.4-24,14.53-38.26,14.53
					c-14.26,0-27.69-5.13-38.27-14.53c-10.57,9.4-24,14.53-38.26,14.53c-2.38,0-4.31-1.93-4.31-4.31s1.93-4.31,4.31-4.31
					c13.34,0,25.84-5.28,35.18-14.88c1.62-1.67,4.55-1.67,6.17,0c9.34,9.59,21.84,14.88,35.18,14.88s25.84-5.28,35.18-14.88
					c1.62-1.67,4.55-1.67,6.17,0c9.34,9.59,21.84,14.88,35.18,14.88c13.34,0,25.84-5.28,35.18-14.88c1.62-1.67,4.55-1.67,6.17,0
					c9.34,9.59,21.84,14.88,35.18,14.88c13.34,0,25.84-5.28,35.18-14.88c1.62-1.67,4.55-1.67,6.17,0
					c9.34,9.59,21.84,14.88,35.18,14.88s25.84-5.28,35.18-14.88c1.62-1.67,4.55-1.67,6.17,0c9.34,9.59,21.84,14.88,35.18,14.88
					c13.34,0,25.84-5.28,35.18-14.88c1.62-1.67,4.55-1.67,6.17,0c9.34,9.59,21.84,14.88,35.18,14.88s25.84-5.28,35.18-14.88
					c0.81-0.83,1.92-1.3,3.08-1.3l0,0c1.16,0,2.27,0.47,3.08,1.3c9.34,9.59,21.84,14.88,35.18,14.88c13.35,0,25.84-5.28,35.18-14.88
					c1.62-1.66,4.54-1.67,6.17,0c9.34,9.59,21.84,14.88,35.18,14.88s25.84-5.28,35.18-14.88c1.62-1.67,4.55-1.67,6.17,0
					c9.34,9.59,21.84,14.88,35.18,14.88c13.34,0,25.84-5.28,35.18-14.88c0.81-0.83,1.92-1.3,3.08-1.3l0,0c1.16,0,2.27,0.47,3.08,1.3
					c9.34,9.59,21.83,14.88,35.18,14.88c13.35,0,25.84-5.28,35.18-14.88c1.62-1.67,4.55-1.67,6.17,0
					c9.34,9.59,21.84,14.88,35.18,14.88c2.38,0,4.31,1.93,4.31,4.31S1161.27,856.47,1158.9,856.47z"/>
			</g>
			<g>
				<path class="st7" d="M584.25,813.75h-113.3c-2.38,0-4.31-1.93-4.31-4.31V715.7c0-2.38,1.93-4.31,4.31-4.31h113.3
					c2.38,0,4.31,1.93,4.31,4.31v93.74C588.56,811.82,586.63,813.75,584.25,813.75z M475.26,805.14h104.68v-85.13H475.26V805.14z"/>
			</g>
			<g>
				<path class="st7" d="M527.6,850.76c-2.38,0-4.31-1.93-4.31-4.31V683.77c0-2.38,1.93-4.31,4.31-4.31s4.31,1.93,4.31,4.31v162.68
					C531.91,848.83,529.98,850.76,527.6,850.76z"/>
			</g>
			<g>
				<path class="st7" d="M604.24,850.76c-2.38,0-4.31-1.93-4.31-4.31v-32.7H455.28v32.7c0,2.38-1.93,4.31-4.31,4.31
					s-4.31-1.93-4.31-4.31v-37.01c0-2.38,1.93-4.31,4.31-4.31h153.27c2.38,0,4.31,1.93,4.31,4.31v37.01
					C608.54,848.83,606.62,850.76,604.24,850.76z"/>
			</g>
			<g>
				<path class="st7" d="M597.58,720.01H457.63c-1.86,0-3.51-1.19-4.09-2.95c-0.58-1.76,0.03-3.7,1.52-4.81l43.01-31.93
					c1.91-1.42,4.6-1.02,6.02,0.89c1.42,1.91,1.02,4.61-0.89,6.02l-32.56,24.17h113.89L552,687.23c-1.91-1.42-2.31-4.11-0.89-6.02
					c1.42-1.91,4.11-2.31,6.02-0.89l43.01,31.93c1.49,1.11,2.11,3.04,1.52,4.81C601.08,718.82,599.43,720.01,597.58,720.01z"/>
			</g>
			<g>
				<path class="st7" d="M554.56,688.08h-53.92c-2.38,0-4.31-1.93-4.31-4.31v-85.87c0-2.38,1.93-4.31,4.31-4.31h53.92
					c2.38,0,4.31,1.93,4.31,4.31v85.87C558.87,686.15,556.94,688.08,554.56,688.08z M504.95,679.47h45.3v-77.25h-45.3V679.47z"/>
			</g>
			<g>
				<path class="st7" d="M890.54,777.65c-1.55,0-3.04-0.84-3.81-2.3c-28.2-53.52-86.59-88.1-148.75-88.1
					c-2.38,0-4.31-1.93-4.31-4.31c0-2.38,1.93-4.31,4.31-4.31c65.32,0,126.7,36.39,156.37,92.7c1.11,2.11,0.3,4.71-1.8,5.82
					C891.9,777.49,891.21,777.65,890.54,777.65z"/>
			</g>
			<g>
				<path class="st7" d="M1006.52,777.65c-0.68,0-1.37-0.16-2-0.5c-2.11-1.11-2.91-3.71-1.8-5.82
					c29.67-56.31,91.05-92.7,156.37-92.7c2.38,0,4.31,1.93,4.31,4.31c0,2.38-1.93,4.31-4.31,4.31c-62.16,0-120.55,34.58-148.75,88.1
					C1009.56,776.81,1008.07,777.65,1006.52,777.65z"/>
			</g>
			<g>
				<path class="st7" d="M1005.18,813.75h-113.3c-2.38,0-4.31-1.93-4.31-4.31V715.7c0-2.38,1.93-4.31,4.31-4.31h113.3
					c2.38,0,4.31,1.93,4.31,4.31v93.74C1009.48,811.82,1007.55,813.75,1005.18,813.75z M896.18,805.14h104.69v-85.13H896.18V805.14z
					"/>
			</g>
			<g>
				<path class="st7" d="M948.53,850.76c-2.38,0-4.31-1.93-4.31-4.31V683.77c0-2.38,1.93-4.31,4.31-4.31s4.31,1.93,4.31,4.31v162.68
					C952.83,848.83,950.91,850.76,948.53,850.76z"/>
			</g>
			<g>
				<path class="st7" d="M1025.16,850.76c-2.38,0-4.31-1.93-4.31-4.31v-32.7H876.2v32.7c0,2.38-1.93,4.31-4.31,4.31
					s-4.31-1.93-4.31-4.31v-37.01c0-2.38,1.93-4.31,4.31-4.31h153.27c2.38,0,4.31,1.93,4.31,4.31v37.01
					C1029.47,848.83,1027.54,850.76,1025.16,850.76z"/>
			</g>
			<g>
				<path class="st7" d="M1018.5,720.01H878.56c-1.86,0-3.5-1.19-4.09-2.95c-0.58-1.76,0.03-3.7,1.52-4.81L919,680.32
					c1.92-1.42,4.61-1.02,6.02,0.89c1.42,1.91,1.02,4.61-0.89,6.02l-32.56,24.17h113.89l-32.56-24.17
					c-1.91-1.42-2.31-4.11-0.89-6.02c1.42-1.91,4.11-2.31,6.02-0.89l43.02,31.93c1.49,1.11,2.1,3.04,1.52,4.81
					C1022,718.82,1020.36,720.01,1018.5,720.01z"/>
			</g>
			<g>
				<path class="st7" d="M975.48,688.08h-53.92c-2.38,0-4.31-1.93-4.31-4.31v-85.87c0-2.38,1.93-4.31,4.31-4.31h53.92
					c2.38,0,4.31,1.93,4.31,4.31v85.87C979.79,686.15,977.86,688.08,975.48,688.08z M925.87,679.47h45.3v-77.25h-45.3V679.47z"/>
			</g>
		</g>
		<g>
			<g>
				<g id="g48_59_" transform="translate(155.197863, 1.160267)">
					<g id="path50_59_">
						<path class="st7" d="M568.47,217.84c-1.87,0-3.52-1.2-4.1-2.97l-35.45-109.09c-0.43-1.31-0.2-2.75,0.61-3.86
							s2.11-1.77,3.48-1.77h70.9c1.38,0,2.67,0.66,3.48,1.77s1.04,2.55,0.61,3.86l-35.45,109.09
							C571.99,216.64,570.34,217.84,568.47,217.84z M538.95,108.75l29.52,90.85L598,108.75H538.95z"/>
					</g>
				</g>
				<g id="g56_59_" transform="translate(28.531199, 1.160800)">
					<g id="path58_59_">
						<path class="st7" d="M695.12,217.84c-1.29,0-2.56-0.58-3.4-1.66l-85.09-109.09c-1.01-1.3-1.2-3.06-0.48-4.54
							c0.72-1.48,2.22-2.42,3.87-2.42h49.64c1.87,0,3.52,1.2,4.1,2.97l35.45,109.09c0.65,1.99-0.23,4.15-2.08,5.13
							C696.49,217.67,695.8,217.84,695.12,217.84z M618.84,108.75l64.61,82.83l-26.92-82.83H618.84z"/>
					</g>
				</g>
				<g id="g64_59_" transform="translate(0.088533, 0.255867)">
					<g id="path66_59_">
						<path class="st7" d="M723.54,218.78c-0.88,0-1.77-0.27-2.53-0.82l-93.22-67.74c-4.09-2.98-5.79-8.21-4.22-13.02l10.79-33.15
							c0.49-1.51,1.78-2.64,3.35-2.91c1.58-0.26,3.16,0.34,4.14,1.59l85.09,109.09c1.32,1.69,1.19,4.1-0.3,5.64
							C725.8,218.33,724.67,218.78,723.54,218.78z M640.04,114.42l-8.28,25.44c-0.41,1.26,0.03,2.62,1.1,3.4l68.5,49.77
							L640.04,114.42z"/>
					</g>
				</g>
				<g id="g72_59_" transform="translate(29.421866, 280.255593)">
					<g id="path74_59_">
						<path class="st7" d="M658.81-170.31h-49.68c-1.38,0-2.67-0.66-3.48-1.77c-0.81-1.11-1.04-2.55-0.61-3.86l21.3-65.7
							c1.13-3.36,4.11-5.5,7.61-5.5c0.02,0,0.03,0,0.05,0c3.5,0.02,6.45,2.18,7.53,5.5l21.38,65.7c0.43,1.31,0.2,2.75-0.61,3.86
							C661.48-170.97,660.19-170.31,658.81-170.31z M615.05-178.93h37.83l-18.95-58.23L615.05-178.93z"/>
					</g>
				</g>
				<g id="g76_59_" transform="translate(247.197860, 1.160800)">
					<g id="path78_59_">
						<path class="st7" d="M476.47,217.84c-0.69,0-1.38-0.16-2.02-0.5c-1.84-0.98-2.72-3.15-2.07-5.13l35.45-109.09
							c0.58-1.77,2.23-2.97,4.1-2.97h49.68c1.65,0,3.15,0.94,3.87,2.42c0.72,1.48,0.54,3.24-0.47,4.54l-85.13,109.09
							C479.03,217.26,477.76,217.84,476.47,217.84z M515.05,108.75l-26.92,82.85l64.65-82.85H515.05z"/>
					</g>
				</g>
				<g id="g80_59_" transform="translate(246.307061, 0.255867)">
					<g id="path82_59_">
						<path class="st7" d="M477.37,218.74c-1.13,0-2.26-0.45-3.1-1.31c-1.49-1.54-1.62-3.95-0.3-5.64l85.09-109.05
							c0.98-1.26,2.56-1.86,4.14-1.59c1.57,0.28,2.86,1.4,3.35,2.91l10.79,33.15c1.56,4.81-0.13,10.05-4.22,13.02l-93.23,67.7
							C479.14,218.47,478.25,218.74,477.37,218.74z M560.87,114.42L499.55,193l68.5-49.75c1.06-0.77,1.5-2.14,1.09-3.39
							L560.87,114.42z"/>
					</g>
				</g>
				<g id="g84_59_" transform="translate(336.973725, 280.255593)">
					<g id="path86_59_">
						<path class="st7" d="M471.82-170.31h-49.68c-1.38,0-2.67-0.66-3.48-1.77s-1.04-2.55-0.61-3.86l21.34-65.7
							c1.08-3.32,4.04-5.48,7.53-5.5c3.54-0.09,6.52,2.12,7.64,5.45l21.36,65.75c0.43,1.31,0.2,2.75-0.61,3.86
							S473.2-170.31,471.82-170.31z M428.07-178.93h37.83l-18.91-58.23L428.07-178.93z"/>
					</g>
				</g>
			</g>
			<g>
				<path class="st7" d="M749.05,313.01h-51.5c-2.03,0-3.78-1.41-4.21-3.39l-9.92-45.55c-0.28-1.27,0.04-2.6,0.86-3.62
					c0.82-1.01,2.05-1.6,3.35-1.6h71.35c1.3,0,2.54,0.59,3.35,1.6c0.82,1.01,1.13,2.35,0.86,3.62l-9.92,45.55
					C752.83,311.6,751.08,313.01,749.05,313.01z M701.02,304.4h44.57l8.04-36.94h-60.66L701.02,304.4z"/>
			</g>
			<g>
				<path class="st7" d="M740.25,291.82c-6.61,0-12.72-2.99-16.78-8.21h-0.33c-4.06,5.22-10.18,8.21-16.78,8.21
					c-11.72,0-21.25-9.53-21.25-21.25c0-2.38,1.93-4.31,4.31-4.31c2.38,0,4.31,1.93,4.31,4.31c0,6.97,5.67,12.64,12.64,12.64
					c3.93,0,7.57-1.78,9.98-4.88c1.68-2.16,4.22-3.4,6.96-3.4c0,0,0,0,0,0c2.74,0,5.28,1.24,6.96,3.4c2.42,3.11,6.05,4.89,9.98,4.89
					c6.97,0,12.64-5.67,12.64-12.64c0-2.38,1.93-4.31,4.31-4.31s4.31,1.93,4.31,4.31C761.5,282.29,751.96,291.82,740.25,291.82z"/>
			</g>
			<g>
				<path class="st7" d="M687.63,267.46c-1.59,0-3.12-0.88-3.87-2.4L626.54,148.9c-1.05-2.13-0.17-4.72,1.96-5.77
					c2.14-1.05,4.72-0.17,5.77,1.96l57.22,116.16c1.05,2.13,0.17,4.72-1.96,5.77C688.92,267.32,688.27,267.46,687.63,267.46z"/>
			</g>
			<g>
				<path class="st7" d="M758.97,267.46c-0.65,0-1.3-0.15-1.92-0.45c-2.13-1.06-2.99-3.65-1.93-5.78l57.92-116.16
					c1.06-2.13,3.65-2.99,5.78-1.93c2.13,1.06,2.99,3.65,1.93,5.78l-57.92,116.16C762.07,266.59,760.55,267.46,758.97,267.46z"/>
			</g>
		</g>
		<g>
			<path class="st7" d="M351.1,554.04c-0.89,0-1.33-0.37-1.33-1.12v-0.21c0-0.46,0.36-1.18,1.09-2.16c0.73-0.98,1.09-1.94,1.09-2.9
				v-25.02c0-0.96-0.36-1.92-1.09-2.9c-0.73-0.97-1.09-1.69-1.09-2.15v-0.21c0-0.75,0.44-1.12,1.33-1.12h14.16
				c5.21,0,9.36,1.05,12.43,3.14s4.6,5.29,4.6,9.58c0,3.97-1.39,7.19-4.18,9.63c-2.79,2.45-6.45,3.67-10.99,3.67h-4.1v5.38
				c0,0.96,0.41,1.92,1.23,2.9c0.82,0.98,1.23,1.7,1.23,2.16v0.21c0,0.75-0.45,1.12-1.33,1.12H351.1z M365.64,538.18h1.49
				c1.28,0,2.23-0.65,2.85-1.94c0.62-1.3,0.93-2.87,0.93-4.71c0-3.19-0.59-5.86-1.78-7.98s-2.48-3.19-3.86-3.19h-0.16
				c-1.38,0-2.08,0.92-2.08,2.77v12.3C363.03,537.25,363.9,538.18,365.64,538.18z"/>
			<path class="st7" d="M458.57,548.13c0.03,0.71,0.43,1.52,1.17,2.42c0.75,0.91,1.12,1.62,1.12,2.16v0.21
				c0,0.75-0.44,1.12-1.33,1.12h-12.46c-0.89,0-1.33-0.37-1.33-1.12v-0.21c0-0.53,0.27-1.18,0.83-1.94
				c0.55-0.76,0.82-1.48,0.82-2.16c0-4.44-1.35-7.4-4.05-8.89l-4.9,0.05v7.88c0,0.96,0.41,1.92,1.23,2.9
				c0.82,0.98,1.23,1.7,1.23,2.16v0.21c0,0.75-0.45,1.12-1.33,1.12h-13.04c-0.89,0-1.33-0.37-1.33-1.12v-0.21
				c0-0.46,0.36-1.18,1.09-2.16c0.73-0.98,1.09-1.94,1.09-2.9v-25.02c0-0.96-0.36-1.92-1.09-2.9c-0.73-0.97-1.09-1.69-1.09-2.15
				v-0.21c0-0.75,0.44-1.12,1.33-1.12h15.22c5.04,0,8.99,1.04,11.85,3.11c2.86,2.07,4.28,5.08,4.28,9.02c0,1.53-0.48,3.1-1.44,4.71
				c-0.96,1.61-2.25,2.99-3.89,4.12C456.36,539.67,458.36,543.3,458.57,548.13z M442.13,535.73h0.96c0.96,0,1.77-0.52,2.42-1.57
				c0.66-1.05,0.98-2.62,0.98-4.71c0-2.55-0.59-4.7-1.78-6.44s-2.46-2.61-3.8-2.61h-0.27c-0.64,0-1.16,0.28-1.57,0.85
				c-0.41,0.57-0.61,1.28-0.61,2.13v7.67c0,1.67,0.3,2.87,0.91,3.59C439.96,535.36,440.88,535.73,442.13,535.73z"/>
			<path class="st7" d="M503.02,554.04c-0.89,0-1.33-0.37-1.33-1.12v-0.21c0-0.53,0.44-1.24,1.33-2.13
				c0.89-0.89,1.53-1.86,1.92-2.93l9.47-24.54c0.32-0.85,0.04-1.91-0.85-3.19c-0.89-1.28-1.33-2.06-1.33-2.34v-0.21
				c0-0.75,0.44-1.12,1.33-1.12h13.79c0.89,0,1.33,0.37,1.33,1.12v0.21c0,0.32-0.26,0.75-0.77,1.3c-0.51,0.55-0.94,1.17-1.28,1.86
				c-0.34,0.69-0.35,1.41-0.03,2.16l10.59,24.75c0.43,0.99,1.07,1.94,1.94,2.85c0.87,0.91,1.31,1.64,1.31,2.21v0.21
				c0,0.75-0.45,1.12-1.33,1.12h-15.49c-0.89,0-1.33-0.37-1.33-1.12v-0.21c0-0.35,0.17-0.73,0.51-1.12
				c0.34-0.39,0.69-0.74,1.06-1.04c0.37-0.3,0.67-0.71,0.88-1.22c0.21-0.52,0.21-1.07,0-1.68l-0.85-2.45h-12.46l-0.85,2.45
				c-0.21,0.6-0.21,1.16,0,1.68c0.21,0.51,0.51,0.92,0.88,1.22c0.37,0.3,0.73,0.65,1.06,1.04c0.34,0.39,0.51,0.76,0.51,1.12v0.21
				c0,0.75-0.45,1.12-1.33,1.12H503.02z M513.03,540.73h9.37l-4.58-13.47L513.03,540.73z"/>
			<path class="st7" d="M614.86,534.4c0.89,0,1.33,0.37,1.33,1.12v0.21c0,0.46-0.41,1.18-1.23,2.16s-1.22,1.94-1.22,2.9v12.19
				c0,0.43-0.14,0.8-0.43,1.12c-0.29,0.32-0.64,0.48-1.07,0.48c-0.68,0-1.24-0.21-1.7-0.64l-2.34-2.29
				c-1.17,0.89-2.62,1.6-4.34,2.13c-1.72,0.53-3.33,0.8-4.82,0.8c-5.85,0-10.49-1.89-13.89-5.67c-3.41-3.78-5.11-8.37-5.11-13.76
				c0-3.9,0.91-7.36,2.72-10.38c1.81-3.02,4.06-5.27,6.76-6.76c2.7-1.49,5.53-2.23,8.52-2.23c4.58,0,8.37,0.91,11.39,2.74
				c3.01,1.83,4.53,4.2,4.53,7.1c0,1.46-0.44,2.63-1.31,3.52c-0.87,0.89-2.03,1.33-3.48,1.33c-1.7,0-3.25-0.55-4.63-1.65
				c-1.38-1.1-2.46-2.3-3.22-3.59s-1.67-2.49-2.71-3.59c-1.05-1.1-2.12-1.65-3.22-1.65c-1.49,0-2.66,0.74-3.51,2.21
				c-0.85,1.47-1.28,3.38-1.28,5.72c0,5.18,1.11,9.61,3.33,13.28c2.22,3.67,4.91,5.51,8.07,5.51c0.64,0,1.17-0.05,1.6-0.16v-5.8
				c0-0.96-0.47-1.92-1.41-2.9c-0.94-0.98-1.41-1.7-1.41-2.16v-0.21c0-0.32,0.14-0.59,0.43-0.8c0.28-0.21,0.64-0.32,1.07-0.32
				L614.86,534.4z"/>
			<path class="st7" d="M694.43,547.81c0,0.99,0.11,1.75,0.34,2.26c0.23,0.51,0.49,0.8,0.77,0.85c0.28,0.05,0.54,0.2,0.77,0.43
				c0.23,0.23,0.34,0.59,0.34,1.09c0,1.28-2.02,1.92-6.07,1.92c-1.91,0-3.28-0.34-4.1-1.04c-0.82-0.69-1.3-2-1.44-3.91
				c-1.84,3.44-5.52,5.16-11.02,5.16c-4.05,0-7.26-1.24-9.66-3.73c-2.39-2.48-3.59-6.02-3.59-10.59V523.8
				c0-0.96-0.36-1.91-1.09-2.85c-0.73-0.94-1.09-1.6-1.09-2v-0.21c0-0.32,0.13-0.61,0.37-0.88c0.25-0.27,0.57-0.42,0.96-0.45
				l9.37-1.17c1.88-0.21,2.82,0.2,2.82,1.23l-0.21,24.43c-0.04,2.8,0.43,4.97,1.38,6.49c0.96,1.53,2.25,2.29,3.89,2.29
				c2.3,0,3.99-0.87,5.05-2.61c1.07-1.74,1.6-3.94,1.6-6.6V523.8c0-0.96-0.45-1.91-1.36-2.85c-0.91-0.94-1.36-1.6-1.36-2v-0.21
				c0-0.28,0.2-0.56,0.61-0.82c0.41-0.27,0.82-0.43,1.25-0.5l8.84-1.17c1.74-0.21,2.61,0.2,2.61,1.23V547.81z"/>
			<path class="st7" d="M741.97,554.04c-0.89,0-1.33-0.37-1.33-1.12v-0.21c0-0.46,0.36-1.18,1.09-2.16c0.73-0.98,1.09-1.94,1.09-2.9
				v-25.02c0-0.96-0.36-1.92-1.09-2.9c-0.73-0.97-1.09-1.69-1.09-2.15v-0.21c0-0.75,0.44-1.12,1.33-1.12h24.8
				c0.64,0,1.1,0.13,1.39,0.4c0.28,0.27,0.48,0.72,0.59,1.36l1.28,7.14c0.07,0.5-0.04,0.89-0.32,1.2c-0.29,0.3-0.68,0.45-1.17,0.45
				h-0.32c-0.75,0-1.49-0.34-2.23-1.01c-0.75-0.67-1.39-1.41-1.94-2.21c-0.55-0.8-1.25-1.53-2.1-2.21
				c-0.85-0.68-1.72-1.01-2.61-1.01h-2.98c-1.77,0-2.66,0.92-2.66,2.77v9.69h4.53c0.71,0,1.33-0.24,1.86-0.72
				c0.53-0.48,0.93-1,1.2-1.57c0.27-0.57,0.58-1.09,0.93-1.57c0.35-0.48,0.71-0.72,1.06-0.72h0.53c0.75,0,1.12,0.44,1.12,1.33v10.38
				c0,0.89-0.37,1.33-1.12,1.33h-0.53c-0.35,0-0.71-0.22-1.06-0.66c-0.36-0.44-0.67-0.94-0.93-1.49c-0.27-0.55-0.66-1.05-1.2-1.49
				c-0.53-0.44-1.15-0.67-1.86-0.67h-4.53v8.73c0,1.14,0.27,2.13,0.82,2.98c0.55,0.85,1.45,1.28,2.69,1.28h3.83
				c0.89,0,1.72-0.35,2.5-1.07c0.78-0.71,1.41-1.5,1.89-2.37c0.48-0.87,1.07-1.66,1.78-2.37c0.71-0.71,1.46-1.07,2.24-1.07h0.53
				c0.46,0,0.8,0.19,1.04,0.56c0.23,0.37,0.31,0.77,0.24,1.2l-1.17,7.35c-0.11,0.68-0.3,1.16-0.59,1.44
				c-0.29,0.29-0.75,0.43-1.39,0.43H741.97z"/>
			<path class="st7" d="M894.52,542.43c0.39,0,0.69,0.13,0.9,0.37c0.21,0.25,0.28,0.57,0.21,0.96l-1.76,8.94
				c-0.18,0.89-0.62,1.33-1.33,1.33h-26.51c-0.39,0-0.74-0.13-1.04-0.4c-0.3-0.27-0.45-0.58-0.45-0.93v-0.8
				c0-2.13,0.61-4.23,1.84-6.28c1.23-2.06,2.71-3.91,4.45-5.56c1.74-1.65,3.47-3.26,5.19-4.84c1.72-1.58,3.19-3.23,4.42-4.95
				c1.22-1.72,1.84-3.38,1.84-4.98c0-1.67-0.31-3-0.93-3.99c-0.62-1-1.39-1.49-2.31-1.49c-0.71,0-1.31,0.55-1.81,1.65
				c-0.5,1.1-0.91,2.3-1.25,3.59c-0.34,1.3-1.01,2.49-2.02,3.59c-1.01,1.1-2.33,1.65-3.96,1.65c-1.49,0-2.73-0.44-3.73-1.33
				c-1-0.89-1.49-2.11-1.49-3.67c0-2.77,1.43-5.06,4.29-6.87c2.85-1.81,6.29-2.71,10.3-2.71c4.61,0,8.24,0.85,10.89,2.55
				c2.64,1.7,3.97,4.4,3.97,8.09c0,1.99-0.56,3.81-1.68,5.46c-1.12,1.65-2.54,3.07-4.26,4.26c-1.72,1.19-3.47,2.3-5.24,3.33
				c-1.78,1.03-3.43,2.15-4.98,3.35c-1.54,1.21-2.6,2.43-3.17,3.67h12.61c1,0,1.86-0.2,2.58-0.61c0.73-0.41,1.24-0.87,1.54-1.39
				c0.3-0.51,0.64-0.98,1.01-1.38c0.37-0.41,0.73-0.61,1.09-0.61H894.52z"/>
			<path class="st7" d="M956.64,554.57c-4.97,0-9.16-1.76-12.59-5.27c-3.43-3.51-5.14-8.14-5.14-13.89c0-5.89,1.61-10.65,4.84-14.26
				s7.52-5.43,12.88-5.43c5.04,0,9.27,1.83,12.69,5.48c3.42,3.65,5.14,8.39,5.14,14.21c0,5.71-1.75,10.33-5.24,13.87
				C965.73,552.8,961.53,554.57,956.64,554.57z M958.23,550.63c2.73,0,4.1-3.42,4.1-10.27c0-3.09-0.26-6.15-0.77-9.18
				c-0.52-3.03-1.34-5.67-2.48-7.93s-2.45-3.38-3.94-3.38c-2.77,0-4.15,3.83-4.15,11.5c0,4.9,0.67,9.33,2,13.31
				C954.32,548.64,956.07,550.63,958.23,550.63z"/>
			<path class="st7" d="M1047.87,542.43c0.39,0,0.69,0.13,0.91,0.37c0.21,0.25,0.28,0.57,0.21,0.96l-1.76,8.94
				c-0.18,0.89-0.62,1.33-1.33,1.33h-26.51c-0.39,0-0.73-0.13-1.04-0.4c-0.3-0.27-0.45-0.58-0.45-0.93v-0.8
				c0-2.13,0.61-4.23,1.84-6.28c1.23-2.06,2.71-3.91,4.44-5.56c1.74-1.65,3.47-3.26,5.19-4.84c1.72-1.58,3.2-3.23,4.42-4.95
				c1.23-1.72,1.84-3.38,1.84-4.98c0-1.67-0.31-3-0.93-3.99c-0.62-1-1.39-1.49-2.32-1.49c-0.71,0-1.31,0.55-1.81,1.65
				c-0.5,1.1-0.91,2.3-1.25,3.59c-0.34,1.3-1.01,2.49-2.02,3.59c-1.01,1.1-2.34,1.65-3.97,1.65c-1.49,0-2.73-0.44-3.73-1.33
				c-0.99-0.89-1.49-2.11-1.49-3.67c0-2.77,1.43-5.06,4.28-6.87c2.86-1.81,6.29-2.71,10.3-2.71c4.61,0,8.24,0.85,10.89,2.55
				c2.64,1.7,3.96,4.4,3.96,8.09c0,1.99-0.56,3.81-1.68,5.46c-1.12,1.65-2.54,3.07-4.26,4.26s-3.47,2.3-5.24,3.33
				c-1.77,1.03-3.43,2.15-4.98,3.35c-1.54,1.21-2.6,2.43-3.17,3.67h12.62c0.99,0,1.85-0.2,2.58-0.61c0.73-0.41,1.24-0.87,1.54-1.39
				c0.3-0.51,0.64-0.98,1.01-1.38c0.37-0.41,0.74-0.61,1.09-0.61H1047.87z"/>
			<path class="st7" d="M1109.99,554.57c-4.97,0-9.16-1.76-12.59-5.27c-3.43-3.51-5.14-8.14-5.14-13.89
				c0-5.89,1.61-10.65,4.84-14.26c3.23-3.62,7.52-5.43,12.88-5.43c5.04,0,9.27,1.83,12.69,5.48c3.43,3.65,5.14,8.39,5.14,14.21
				c0,5.71-1.75,10.33-5.25,13.87C1119.08,552.8,1114.89,554.57,1109.99,554.57z M1111.59,550.63c2.73,0,4.1-3.42,4.1-10.27
				c0-3.09-0.26-6.15-0.77-9.18c-0.51-3.03-1.34-5.67-2.47-7.93c-1.14-2.25-2.45-3.38-3.94-3.38c-2.77,0-4.15,3.83-4.15,11.5
				c0,4.9,0.66,9.33,2,13.31C1107.67,548.64,1109.42,550.63,1111.59,550.63z"/>
		</g>
		<g>
			<circle class="st7" cx="815.69" cy="533.61" r="5.93"/>
		</g>
		<g>
			<g>
				<g>
					<path class="st7" d="M215.57,404.79c0-36.78,28.91-65.87,65.5-65.87c19.95,0,37.14,8.6,48.3,21.22
						c2.02,2.01,2.93,4.94,2.93,7.32c0,5.86-4.76,10.61-10.8,10.61c-2.75,0-5.67-1.65-8.6-4.21c-7.69-8.6-18.66-14.27-31.84-14.27
						c-24.15,0-43.36,19.94-43.36,45.19c0,25.07,19.21,45.01,43.36,45.01c13.17,0,24.15-5.67,31.84-14.27
						c2.93-2.56,5.85-4.21,8.6-4.21c6.04,0,10.8,4.76,10.8,10.61c0,2.38-0.91,5.31-2.93,7.32c-11.16,12.81-28.36,21.41-48.3,21.41
						C244.48,470.66,215.57,441.57,215.57,404.79z"/>
				</g>
				<g>
					<path class="st7" d="M345.42,422.17c0-27.08,20.67-48.49,48.49-48.49c27.99,0,48.49,21.41,48.49,48.49
						s-20.49,48.49-48.49,48.49C366.1,470.66,345.42,449.25,345.42,422.17z M422.09,422.17c0-16.47-12.08-29.82-28.18-29.82
						c-16.1,0-28.18,13.36-28.18,29.82c0,16.28,12.08,29.82,28.18,29.82C410.01,452,422.09,438.46,422.09,422.17z"/>
				</g>
				<g>
					<path class="st7" d="M460.38,416.32c0-26.16,18.12-42.63,41.17-42.63c23.05,0,41.17,16.47,41.17,42.63v43.91
						c0,5.67-4.57,10.24-10.06,10.24c-5.67,0-10.06-4.57-10.06-10.24v-44.65c0-15.19-9.33-23.24-21.04-23.24
						c-11.71,0-21.04,8.05-21.04,23.24v44.65c0,5.67-4.39,10.24-10.06,10.24c-5.67,0-10.06-4.57-10.06-10.24V416.32z"/>
				</g>
				<g>
					<path class="st7" d="M552.52,384.85c0-5.31,4.21-9.33,9.33-9.33h6.59v-13.72c0-5.67,4.39-10.06,10.06-10.06
						c5.67,0,10.06,4.39,10.06,10.06v13.72h21.41c5.13,0,9.33,4.03,9.33,9.33c0,5.12-4.21,9.33-9.33,9.33h-21.41v33.12
						c0,16.1,8.97,24.33,21.41,24.33c5.13,0,9.33,4.21,9.33,9.33c0,5.31-4.21,9.51-9.33,9.51c-23.6,0-41.53-16.65-41.53-43.18
						v-33.12h-6.59C556.73,394.18,552.52,389.97,552.52,384.85z"/>
				</g>
				<g>
					<path class="st7" d="M633.91,416.5c0-25.98,17.38-42.81,41.17-42.81c5.12,0,9.33,4.02,9.33,9.33c0,5.12-4.21,9.33-9.33,9.33
						c-12.08,0-21.04,8.05-21.04,24.15v43.73c0,5.67-4.39,10.24-10.06,10.24c-5.67,0-10.06-4.57-10.06-10.24V416.5z"/>
				</g>
				<g>
					<path class="st7" d="M695.8,351.36c0-6.59,5.3-11.89,11.89-11.89c6.58,0,11.89,5.31,11.89,11.89c0,6.4-5.31,11.89-11.89,11.89
						C701.1,363.26,695.8,357.77,695.8,351.36z M697.63,383.93c0-5.67,4.39-10.06,10.06-10.06c5.67,0,10.06,4.39,10.06,10.06v76.3
						c0,5.67-4.39,10.24-10.06,10.24c-5.67,0-10.06-4.57-10.06-10.24V383.93z"/>
				</g>
				<g>
					<path class="st7" d="M761.29,459.31v0.92c0,5.67-4.39,10.24-10.06,10.24c-5.67,0-10.06-4.57-10.06-10.24V349.17
						c0-5.67,4.39-10.06,10.06-10.06c5.67,0,10.06,4.39,10.06,10.06v36.04c8.05-7.32,18.66-11.53,30.37-11.53
						c26.35,0,46.29,21.41,46.29,48.49s-19.94,48.49-46.29,48.49C779.95,470.66,769.34,466.45,761.29,459.31z M817.65,422.17
						c0-17.02-12.45-29.82-28.18-29.82c-15.37,0-27.63,12.26-28.18,28.54v1.28c0,17.02,12.44,29.82,28.18,29.82
						C805.2,452,817.65,439.19,817.65,422.17z"/>
				</g>
				<g>
					<path class="st7" d="M855.94,383.93c0-5.67,4.39-10.06,10.06-10.06c5.67,0,10.06,4.39,10.06,10.06v44.64
						c0,15.37,9.33,23.42,21.04,23.42s21.04-8.05,21.04-23.42v-44.64c0-5.67,4.39-10.06,10.06-10.06c5.49,0,10.06,4.39,10.06,10.06
						v43.91c0,26.16-18.12,42.81-41.17,42.81c-23.05,0-41.17-16.65-41.17-42.81V383.93z"/>
				</g>
				<g>
					<path class="st7" d="M951.32,384.85c0-5.31,4.21-9.33,9.33-9.33h6.59v-13.72c0-5.67,4.39-10.06,10.06-10.06
						c5.67,0,10.06,4.39,10.06,10.06v13.72h21.41c5.13,0,9.33,4.03,9.33,9.33c0,5.12-4.21,9.33-9.33,9.33h-21.41v33.12
						c0,16.1,8.97,24.33,21.41,24.33c5.13,0,9.33,4.21,9.33,9.33c0,5.31-4.21,9.51-9.33,9.51c-23.6,0-41.53-16.65-41.53-43.18
						v-33.12h-6.59C955.53,394.18,951.32,389.97,951.32,384.85z"/>
				</g>
				<g>
					<path class="st7" d="M1025.41,422.17c0-27.08,20.67-48.49,48.49-48.49c14.27,0,25.43,5.67,31.66,11.34
						c2.19,2.01,3.66,4.76,3.66,7.68c0,2.56-0.73,4.76-2.93,7.32l-28.18,33.48c-2.01,2.38-4.21,3.29-6.95,3.29
						c-5.49,0-9.52-3.84-9.52-9.15c0-2.19,0.55-4.39,2.19-6.04l22.14-25.98c-3.11-2.2-8.05-3.29-12.08-3.29
						c-15.74,0-28.18,13.17-28.18,29.82c0,16.47,12.26,29.82,28.18,29.82c8.6,0,15-3.66,19.39-8.23c2.93-2.38,4.94-4.57,8.78-4.57
						c5.67,0,9.88,4.03,9.88,9.7c0,2.01-1.1,4.57-2.93,6.59c-6.95,8.42-19.58,15.19-35.13,15.19
						C1046.27,470.66,1025.41,449.25,1025.41,422.17z"/>
				</g>
			</g>
		</g>
	</g>
</g>
</svg>
