<?xml version="1.0" encoding="utf-8"?>
<!-- Generator: Adobe Illustrator 24.1.2, SVG Export Plug-In . SVG Version: 6.00 Build 0)  -->
<svg version="1.1" id="Layer_1" xmlns="http://www.w3.org/2000/svg" xmlns:xlink="http://www.w3.org/1999/xlink" x="0px" y="0px"
	 viewBox="0 0 176.19 189.42" style="enable-background:new 0 0 176.19 189.42;" xml:space="preserve">
<style type="text/css">
	.st0{fill:#CAB5FF;}
	.st1{fill:#EDE5D9;}
	.st2{fill:#FC6D26;}
	.st3{fill:#AC7FFF;}
	.st4{fill:#432A72;}
	.st5{fill:none;stroke:#432A72;stroke-width:5;stroke-linecap:round;stroke-linejoin:round;stroke-miterlimit:10;}
</style>
<g>
	<g>
		<path class="st0" d="M80.32,27V14.75c0-5.92,4.8-10.71,10.71-10.71h54.35c5.92,0,10.71,4.8,10.71,10.71V38.3
			c0,5.92-4.8,10.71-10.71,10.71h-16.63l-16.51,15.1v-15.1H96.29"/>
	</g>
	<g>
		<path class="st1" d="M97.23,81.07h42.52v84.21c0,11.1-9,20.1-20.1,20.1H69.98c-11.1,0-20.1-9-20.1-20.1v-60.75"/>
	</g>
	<g>
		<path class="st2" d="M94.82,159.55l25.31-18.38c0.7-0.51,0.99-1.41,0.72-2.23l-8.72-26.84c-0.31-0.91-1.6-0.91-1.9,0l-5.79,17.83
			h0v0l-19.25,0.01l-5.8-17.84c-0.3-0.91-1.59-0.91-1.9,0l-8.72,26.84c-0.27,0.82,0.02,1.72,0.72,2.23L94.82,159.55"/>
	</g>
	<g>
		<path class="st3" d="M85.01,27H14.75C8.83,27,4.03,31.8,4.03,37.71v46.53c0,5.92,4.8,10.71,10.71,10.71h27.24l20.05,16.87V94.96
			h22.97c5.92,0,10.71-4.8,10.71-10.71V37.71C95.72,31.8,90.92,27,85.01,27z"/>
	</g>
	<g>
		<path class="st4" d="M119.65,189.42H69.98c-13.31,0-24.13-10.83-24.13-24.13v-60.75c0-2.23,1.81-4.03,4.03-4.03
			s4.03,1.81,4.03,4.03v60.75c0,8.86,7.21,16.07,16.07,16.07h49.67c8.86,0,16.07-7.21,16.07-16.07V85.11H97.23
			c-2.23,0-4.03-1.81-4.03-4.03s1.81-4.03,4.03-4.03h42.52c2.23,0,4.03,1.81,4.03,4.03v84.21
			C143.78,178.59,132.95,189.42,119.65,189.42z"/>
	</g>
	<g>
		<path class="st4" d="M145.43,158.46h-3.33c-2.23,0-4.03-1.81-4.03-4.03s1.81-4.03,4.03-4.03h3.33c12.51,0,22.7-10.18,22.7-22.7
			s-10.18-22.7-22.7-22.7h-3.33c-2.23,0-4.03-1.81-4.03-4.03s1.81-4.03,4.03-4.03h3.33c16.96,0,30.77,13.8,30.77,30.77
			C176.19,144.66,162.39,158.46,145.43,158.46z"/>
	</g>
	<g>
		<path class="st4" d="M94.82,163.58c-0.83,0-1.66-0.26-2.37-0.77l-25.32-18.38c-2.12-1.55-3-4.25-2.19-6.74l8.71-26.84
			c0.71-2.1,2.62-3.47,4.79-3.47c0.01,0,0.02,0,0.03,0c2.17,0.01,4.08,1.41,4.75,3.47l4.9,15.05l13.39-0.01l4.89-15.04
			c0.67-2.06,2.58-3.46,4.75-3.47c0.01,0,0.02,0,0.03,0c2.17,0,4.08,1.38,4.78,3.43l8.73,26.88c0.81,2.49-0.07,5.2-2.19,6.74
			l-25.31,18.38C96.48,163.33,95.65,163.58,94.82,163.58z M73.07,138.78l21.75,15.79l21.74-15.79l-5.37-16.54l-2.9,8.94
			c-0.54,1.66-2.09,2.79-3.84,2.79l-19.25,0.01h0c-1.75,0-3.29-1.12-3.84-2.79l-2.92-8.96L73.07,138.78z M75.56,113.35
			C75.56,113.35,75.56,113.35,75.56,113.35L75.56,113.35z"/>
	</g>
	<g>
		<path class="st4" d="M62.04,115.86c-0.93,0-1.86-0.32-2.6-0.95L40.52,99H14.75C6.62,99,0,92.38,0,84.25V37.71
			c0-8.13,6.62-14.75,14.75-14.75h70.26c8.13,0,14.75,6.62,14.75,14.75v46.53c0,8.13-6.62,14.75-14.75,14.75H66.07v12.83
			c0,1.57-0.91,2.99-2.33,3.66C63.2,115.74,62.62,115.86,62.04,115.86z M14.75,31.03c-3.68,0-6.68,3-6.68,6.68v46.53
			c0,3.68,3,6.68,6.68,6.68h27.24c0.95,0,1.87,0.34,2.6,0.95l13.42,11.29v-8.2c0-2.23,1.81-4.03,4.03-4.03h22.97
			c3.68,0,6.68-3,6.68-6.68V37.71c0-3.68-3-6.68-6.68-6.68H14.75z"/>
	</g>
	<g>
		<path class="st4" d="M73.93,54.88H25.82c-2.23,0-4.03-1.81-4.03-4.03s1.81-4.03,4.03-4.03h48.11c2.23,0,4.03,1.81,4.03,4.03
			S76.16,54.88,73.93,54.88z"/>
	</g>
	<g>
		<path class="st4" d="M130.77,29.27h-25.12c-2.23,0-4.03-1.81-4.03-4.03s1.81-4.03,4.03-4.03h25.12c2.23,0,4.03,1.81,4.03,4.03
			S133,29.27,130.77,29.27z"/>
	</g>
	<g>
		<path class="st4" d="M56.3,73.45H25.82c-2.23,0-4.03-1.81-4.03-4.03c0-2.23,1.81-4.03,4.03-4.03H56.3c2.23,0,4.03,1.81,4.03,4.03
			C60.34,71.64,58.53,73.45,56.3,73.45z"/>
	</g>
	<g>
		<path class="st4" d="M112.24,68.14c-0.55,0-1.1-0.11-1.62-0.34c-1.46-0.64-2.41-2.09-2.41-3.69V53.05H96.29
			c-2.23,0-4.03-1.81-4.03-4.03c0-2.23,1.81-4.03,4.03-4.03h15.95c2.23,0,4.03,1.81,4.03,4.03v5.94l9.76-8.92
			c0.74-0.68,1.71-1.06,2.72-1.06h16.63c3.68,0,6.68-3,6.68-6.68V14.75c0-3.68-3-6.68-6.68-6.68H91.04c-3.68,0-6.68,3-6.68,6.68V27
			c0,2.23-1.81,4.03-4.03,4.03c-2.23,0-4.03-1.81-4.03-4.03V14.75C76.29,6.62,82.91,0,91.04,0h54.34c8.13,0,14.75,6.62,14.75,14.75
			V38.3c0,8.13-6.62,14.75-14.75,14.75h-15.07l-15.36,14.04C114.2,67.78,113.23,68.14,112.24,68.14z"/>
	</g>
</g>
</svg>
