<?xml version="1.0" encoding="utf-8"?>
<!-- Generator: Adobe Illustrator 24.1.2, SVG Export Plug-In . SVG Version: 6.00 Build 0)  -->
<svg version="1.1" id="Layer_1" xmlns="http://www.w3.org/2000/svg" xmlns:xlink="http://www.w3.org/1999/xlink" x="0px" y="0px"
	 viewBox="0 0 37.56 35.51" style="enable-background:new 0 0 37.56 35.51;" xml:space="preserve">
<style type="text/css">
	.st0{fill:#CAB5FF;}
	.st1{fill:#EDE5D9;}
	.st2{fill:#FC6D26;}
	.st3{fill:#AC7FFF;}
	.st4{fill:#432A72;}
	.st5{fill:none;stroke:#432A72;stroke-width:5;stroke-linecap:round;stroke-linejoin:round;stroke-miterlimit:10;}
</style>
<g>
	<g>
		<g>
			<path class="st1" d="M20.7,12.47h8.95v17.72c0,2.34-1.89,4.23-4.23,4.23H14.96c-2.34,0-4.23-1.89-4.23-4.23V17.4"/>
		</g>
	</g>
	<g>
		<g>
			<path class="st2" d="M20.19,28.98l5.33-3.87c0.15-0.11,0.21-0.3,0.15-0.47L23.84,19c-0.06-0.19-0.34-0.19-0.4,0l-1.22,3.75h0v0
				l-4.05,0L16.95,19c-0.06-0.19-0.34-0.19-0.4,0l-1.83,5.65c-0.06,0.17,0,0.36,0.15,0.47L20.19,28.98"/>
		</g>
	</g>
	<g>
		<g>
			<path class="st3" d="M18.13,1.08H3.34c-1.25,0-2.26,1.01-2.26,2.26v9.79c0,1.25,1.01,2.26,2.26,2.26h5.73l4.22,3.55v-3.55h4.83
				c1.25,0,2.26-1.01,2.26-2.26V3.34C20.38,2.09,19.37,1.08,18.13,1.08z"/>
		</g>
	</g>
	<g>
		<g>
			<path class="st4" d="M25.42,35.51H14.96c-2.93,0-5.32-2.38-5.32-5.32V17.4c0-0.6,0.49-1.08,1.08-1.08s1.08,0.49,1.08,1.08v12.79
				c0,1.73,1.41,3.15,3.15,3.15h10.45c1.73,0,3.15-1.41,3.15-3.15V13.55H20.7c-0.6,0-1.08-0.49-1.08-1.08s0.49-1.08,1.08-1.08h8.95
				c0.6,0,1.08,0.49,1.08,1.08v17.72C30.73,33.12,28.35,35.51,25.42,35.51z"/>
		</g>
	</g>
	<g>
		<g>
			<path class="st4" d="M30.85,28.99h-0.7c-0.6,0-1.08-0.49-1.08-1.08c0-0.6,0.49-1.08,1.08-1.08h0.7c2.5,0,4.54-2.04,4.54-4.54
				s-2.04-4.54-4.54-4.54h-0.7c-0.6,0-1.08-0.49-1.08-1.08s0.49-1.08,1.08-1.08h0.7c3.7,0,6.71,3.01,6.71,6.71
				S34.55,28.99,30.85,28.99z"/>
		</g>
	</g>
	<g>
		<g>
			<path class="st4" d="M20.19,30.07c-0.22,0-0.45-0.07-0.64-0.21l-5.33-3.87c-0.53-0.38-0.75-1.06-0.55-1.68l1.83-5.65
				c0.18-0.54,0.68-0.89,1.23-0.89c0,0,0,0,0.01,0c0.56,0,1.05,0.36,1.22,0.89l0.98,3.01l2.48,0l0.98-3
				c0.17-0.53,0.66-0.89,1.22-0.89c0.57-0.02,1.06,0.35,1.24,0.88l1.84,5.66c0.2,0.62-0.02,1.3-0.55,1.68l-5.33,3.87
				C20.64,30,20.42,30.07,20.19,30.07z M15.89,24.52l4.3,3.12l4.3-3.12l-0.85-2.63l-0.39,1.19c-0.15,0.45-0.56,0.75-1.03,0.75
				l-4.05,0c0,0,0,0,0,0c-0.47,0-0.89-0.3-1.03-0.75l-0.39-1.2L15.89,24.52z"/>
		</g>
	</g>
	<g>
		<g>
			<path class="st4" d="M13.29,20.02c-0.25,0-0.5-0.09-0.7-0.25l-3.92-3.3H3.34C1.5,16.47,0,14.98,0,13.13V3.34C0,1.5,1.5,0,3.34,0
				h14.79c1.84,0,3.34,1.5,3.34,3.34v9.79c0,1.84-1.5,3.34-3.34,3.34h-3.75v2.47c0,0.42-0.24,0.81-0.63,0.98
				C13.61,19.99,13.45,20.02,13.29,20.02z M3.34,2.17c-0.65,0-1.17,0.53-1.17,1.17v9.79c0,0.65,0.53,1.17,1.17,1.17h5.73
				c0.26,0,0.5,0.09,0.7,0.25l2.44,2.05v-1.22c0-0.6,0.49-1.08,1.08-1.08h4.83c0.65,0,1.17-0.53,1.17-1.17V3.34
				c0-0.65-0.53-1.17-1.17-1.17H3.34z"/>
		</g>
	</g>
	<g>
		<g>
			<path class="st4" d="M15.8,7.19H5.67c-0.6,0-1.08-0.49-1.08-1.08s0.49-1.08,1.08-1.08H15.8c0.6,0,1.08,0.49,1.08,1.08
				S16.4,7.19,15.8,7.19z"/>
		</g>
	</g>
	<g>
		<g>
			<path class="st4" d="M12.09,11.1H5.67c-0.6,0-1.08-0.49-1.08-1.08c0-0.6,0.49-1.08,1.08-1.08h6.42c0.6,0,1.08,0.49,1.08,1.08
				C13.17,10.61,12.69,11.1,12.09,11.1z"/>
		</g>
	</g>
</g>
</svg>
