<?xml version="1.0" encoding="utf-8"?>
<!-- Generator: Adobe Illustrator 23.0.1, SVG Export Plug-In . SVG Version: 6.00 Build 0)  -->
<svg version="1.1" id="Layer_1" xmlns="http://www.w3.org/2000/svg" xmlns:xlink="http://www.w3.org/1999/xlink" x="0px" y="0px"
	 viewBox="0 0 1164 265" style="enable-background:new 0 0 1164 265;" xml:space="preserve">
<style type="text/css">
	.st0{fill-rule:evenodd;clip-rule:evenodd;fill:#232C39;}
	.st1{fill-rule:evenodd;clip-rule:evenodd;fill:#345FAC;}
	.st2{opacity:0.3;}
</style>
<g id="XMLID_6_">
	<path id="XMLID_11_" class="st0" d="M280.07,79.413c4.521-0.629,8.87-0.945,13.05-0.945c4.407,0,8.758,0.316,13.052,0.945
		l27.965,58.043l28.812-58.043c3.504-0.629,7.399-0.945,11.694-0.945c4.294,0,8.417,0.316,12.372,0.945l5.762,106.583
		c-4.292,0.631-8.361,0.944-12.202,0.944c-3.844,0-7.627-0.314-11.355-0.944l-3.051-77.061l-24.745,53.262
		c-1.583,0.21-3.22,0.395-4.916,0.551c-1.695,0.158-3.388,0.235-5.083,0.235c-1.47,0-2.937-0.052-4.406-0.156
		c-1.468-0.105-2.994-0.316-4.577-0.63l-23.049-54.365l-2.372,78.165c-3.615,0.631-7.118,0.944-10.509,0.944
		c-3.616,0-7.346-0.314-11.185-0.944L280.07,79.413L280.07,79.413z M1017.571,121.075h-10.167l-0.784-3.129l29.256-37.391h3.598
		v23.624h18.93c0.313,1.565,0.521,2.973,0.627,4.224c0.103,1.253,0.156,2.555,0.156,3.912c0,1.46-0.053,2.867-0.156,4.224
		c-0.106,1.357-0.314,2.869-0.627,4.537h-18.93v31.76c0,3.232,0.263,5.839,0.783,7.822c0.522,1.98,1.278,3.545,2.268,4.694
		c0.992,1.147,2.217,1.929,3.677,2.346c1.459,0.418,3.183,0.627,5.162,0.627c1.566,0,3.102-0.132,4.617-0.392
		c1.511-0.261,2.841-0.495,3.988-0.704c0.731,1.98,1.252,4.041,1.564,6.179c0.315,2.139,0.47,4.043,0.47,5.711
		c0,1.147-0.026,2.111-0.078,2.894c-0.051,0.781-0.129,1.539-0.234,2.268c-4.797,1.148-9.75,1.72-14.862,1.72
		c-9.491,0-16.741-2.216-21.747-6.646c-5.006-4.434-7.51-11.657-7.51-21.67V121.075L1017.571,121.075z M963.459,149.862
		c-5.842-1.67-10.405-4.147-13.689-7.432c-3.286-3.284-4.929-8.214-4.929-14.786c0-7.927,2.842-14.13,8.527-18.615
		c5.684-4.486,13.429-6.728,23.232-6.728c4.068,0,8.083,0.365,12.046,1.096c3.964,0.73,7.979,1.824,12.046,3.285
		c-0.209,2.711-0.73,5.527-1.566,8.448c-0.833,2.919-1.823,5.475-2.97,7.667c-2.504-1.044-5.268-1.957-8.294-2.74
		c-3.023-0.781-6.205-1.172-9.542-1.172c-3.547,0-6.31,0.547-8.293,1.643c-1.981,1.096-2.971,2.843-2.971,5.24
		c0,2.295,0.704,3.912,2.112,4.851c1.408,0.938,3.417,1.827,6.023,2.659l8.917,2.661c2.922,0.833,5.555,1.849,7.901,3.05
		c2.346,1.2,4.355,2.686,6.024,4.458c1.668,1.772,2.971,3.964,3.91,6.571c0.94,2.608,1.41,5.788,1.41,9.542
		c0,3.861-0.808,7.459-2.426,10.796c-1.616,3.339-3.964,6.233-7.04,8.683c-3.077,2.453-6.805,4.382-11.187,5.789
		c-4.379,1.408-9.334,2.112-14.862,2.112c-2.504,0-4.797-0.078-6.882-0.234c-2.086-0.158-4.094-0.418-6.024-0.782
		c-1.929-0.366-3.833-0.808-5.711-1.33c-1.877-0.521-3.912-1.199-6.102-2.035c0.21-2.817,0.705-5.659,1.486-8.526
		c0.782-2.867,1.8-5.659,3.051-8.371c3.442,1.357,6.702,2.373,9.779,3.051c3.077,0.679,6.284,1.019,9.62,1.019
		c1.461,0,3.051-0.132,4.771-0.393c1.721-0.261,3.312-0.73,4.772-1.408c1.462-0.678,2.687-1.565,3.677-2.659
		c0.991-1.095,1.484-2.529,1.484-4.304c0-2.501-0.754-4.3-2.267-5.396c-1.513-1.094-3.625-2.061-6.335-2.894L963.459,149.862
		L963.459,149.862z M895.982,186.94c-6.571,0-12.282-1.07-17.131-3.208c-4.85-2.137-8.866-5.11-12.048-8.918
		c-3.181-3.806-5.579-8.265-7.195-13.376c-1.617-5.111-2.426-10.637-2.426-16.583c0-5.945,0.808-11.526,2.426-16.74
		c1.616-5.214,4.014-9.726,7.195-13.532c3.182-3.808,7.198-6.804,12.048-8.997c4.849-2.19,10.56-3.285,17.131-3.285
		c6.57,0,12.306,1.096,17.208,3.285c4.901,2.193,8.969,5.188,12.204,8.997c3.233,3.806,5.631,8.318,7.197,13.532
		c1.564,5.214,2.346,10.795,2.346,16.74c0,5.945-0.782,11.472-2.346,16.583c-1.565,5.111-3.964,9.569-7.197,13.376
		c-3.236,3.808-7.303,6.781-12.204,8.918C908.288,185.87,902.553,186.94,895.982,186.94L895.982,186.94z M895.982,170.043
		c5.841,0,10.039-2.163,12.593-6.493c2.556-4.328,3.834-10.56,3.834-18.695c0-8.136-1.278-14.367-3.834-18.695
		c-2.554-4.33-6.752-6.493-12.593-6.493c-5.737,0-9.882,2.164-12.437,6.493c-2.557,4.328-3.835,10.56-3.835,18.695
		c0,8.135,1.279,14.367,3.835,18.695C886.1,167.88,890.246,170.043,895.982,170.043L895.982,170.043z M733.402,104.178
		c1.459-0.311,2.919-0.547,4.379-0.703c1.461-0.158,3.077-0.236,4.851-0.236c1.772,0,3.337,0.078,4.692,0.236
		c1.356,0.156,2.764,0.392,4.224,0.703c0.313,0.521,0.601,1.279,0.861,2.27c0.26,0.99,0.496,2.034,0.704,3.128
		c0.209,1.096,0.39,2.164,0.546,3.207c0.159,1.043,0.288,1.93,0.392,2.659c0.833-1.562,1.93-3.128,3.287-4.693
		c1.354-1.563,2.971-2.97,4.848-4.223c1.877-1.252,3.989-2.27,6.337-3.051c2.346-0.783,4.981-1.174,7.901-1.174
		c12.62,0,20.702,4.799,24.249,14.394c2.085-3.86,5.032-7.222,8.838-10.092c3.807-2.868,8.631-4.302,14.473-4.302
		c9.178,0,15.93,2.531,20.258,7.59c4.33,5.057,6.494,12.958,6.494,23.702v51.471c-3.754,0.626-7.459,0.937-11.107,0.937
		c-3.651,0-7.354-0.311-11.108-0.937v-45.684c0-5.632-0.705-9.959-2.114-12.983c-1.407-3.025-4.248-4.538-8.525-4.538
		c-1.775,0-3.52,0.261-5.24,0.781c-1.723,0.521-3.287,1.485-4.694,2.894c-1.408,1.408-2.555,3.391-3.443,5.947
		c-0.887,2.553-1.331,5.866-1.331,9.933v43.65c-3.754,0.626-7.458,0.937-11.107,0.937c-3.65,0-7.354-0.311-11.109-0.937v-45.684
		c0-5.632-0.703-9.959-2.112-12.983c-1.408-3.025-4.249-4.538-8.526-4.538c-1.771,0-3.546,0.261-5.319,0.781
		c-1.772,0.521-3.363,1.538-4.772,3.051c-1.408,1.511-2.53,3.623-3.362,6.337c-0.836,2.711-1.253,6.258-1.253,10.637v42.399
		c-3.755,0.626-7.456,0.937-11.107,0.937c-3.651,0-7.352-0.311-11.107-0.937V104.178L733.402,104.178z M674.176,104.178
		c1.564-0.311,3.05-0.547,4.458-0.703c1.41-0.158,2.946-0.236,4.616-0.236c1.565,0,3.104,0.106,4.615,0.313
		c1.513,0.209,3,0.47,4.458,0.784c0.314,0.522,0.602,1.277,0.861,2.268c0.261,0.991,0.496,2.034,0.705,3.13
		c0.209,1.096,0.39,2.188,0.547,3.285c0.157,1.096,0.286,2.005,0.392,2.739c2.294-3.234,5.112-6.129,8.447-8.683
		c3.338-2.556,7.511-3.835,12.516-3.835c1.044,0,2.244,0.052,3.598,0.158c1.356,0.104,2.346,0.26,2.973,0.47
		c0.209,1.041,0.365,2.241,0.469,3.597c0.107,1.356,0.158,2.764,0.158,4.225c0,1.773-0.08,3.702-0.235,5.788
		c-0.158,2.086-0.445,4.067-0.862,5.945c-1.147-0.21-2.424-0.313-3.831-0.313c-1.408,0-2.27,0-2.581,0
		c-1.774,0-3.755,0.183-5.947,0.547c-2.189,0.366-4.275,1.33-6.257,2.896c-1.983,1.564-3.624,3.911-4.928,7.04
		c-1.303,3.127-1.957,7.508-1.957,13.142v38.486c-1.876,0.311-3.753,0.52-5.631,0.624c-1.876,0.105-3.701,0.156-5.474,0.156
		c-1.775,0-3.573-0.051-5.398-0.156c-1.825-0.104-3.728-0.313-5.709-0.624V104.178L674.176,104.178z M612.967,151.426
		c0.418,6.258,2.608,10.795,6.572,13.611c3.963,2.817,9.178,4.224,15.646,4.224c3.545,0,7.168-0.341,10.872-1.019
		c3.703-0.677,7.223-1.642,10.561-2.892c1.147,2.086,2.138,4.588,2.973,7.509c0.834,2.919,1.302,6.05,1.408,9.386
		c-8.136,3.129-17.315,4.694-27.537,4.694c-7.508,0-13.947-1.043-19.321-3.13c-5.37-2.085-9.751-4.981-13.14-8.682
		c-3.39-3.702-5.894-8.109-7.51-13.221c-1.617-5.11-2.423-10.689-2.423-16.737c0-5.946,0.833-11.526,2.502-16.741
		c1.667-5.217,4.145-9.752,7.432-13.61c3.285-3.861,7.352-6.911,12.203-9.153c4.849-2.242,10.508-3.364,16.974-3.364
		c5.632,0,10.639,0.99,15.018,2.973c4.381,1.981,8.109,4.694,11.186,8.137c3.077,3.439,5.399,7.535,6.964,12.28
		c1.564,4.745,2.346,9.832,2.346,15.253c0,1.982-0.078,3.939-0.235,5.868c-0.156,1.928-0.341,3.468-0.547,4.615H612.967
		L612.967,151.426z M644.727,135.939c-0.208-5.009-1.591-9.049-4.146-12.126c-2.555-3.077-6.127-4.617-10.716-4.617
		c-5.215,0-9.178,1.461-11.89,4.381c-2.711,2.921-4.327,7.041-4.848,12.362H644.727L644.727,135.939z M541.96,121.075h-10.168
		l-0.784-3.129l29.256-37.391h3.598v23.624h18.931c0.311,1.565,0.521,2.973,0.626,4.224c0.102,1.253,0.155,2.555,0.155,3.912
		c0,1.46-0.053,2.867-0.155,4.224c-0.105,1.357-0.315,2.869-0.626,4.537h-18.931v31.76c0,3.232,0.263,5.839,0.783,7.822
		c0.522,1.98,1.278,3.545,2.268,4.694c0.992,1.147,2.216,1.929,3.677,2.346c1.46,0.418,3.183,0.627,5.163,0.627
		c1.565,0,3.102-0.132,4.616-0.392c1.512-0.261,2.842-0.495,3.989-0.704c0.731,1.98,1.251,4.041,1.564,6.179
		c0.315,2.139,0.47,4.043,0.47,5.711c0,1.147-0.026,2.111-0.078,2.894c-0.051,0.781-0.13,1.539-0.234,2.268
		c-4.798,1.148-9.75,1.72-14.863,1.72c-9.49,0-16.74-2.216-21.746-6.646c-5.006-4.434-7.51-11.657-7.51-21.67V121.075
		L541.96,121.075z M483.264,121.075h-10.17l-0.784-3.129l29.257-37.391h3.598v23.624h18.93c0.311,1.565,0.521,2.973,0.627,4.224
		c0.102,1.253,0.155,2.555,0.155,3.912c0,1.46-0.052,2.867-0.155,4.224c-0.106,1.357-0.316,2.869-0.627,4.537h-18.93v31.76
		c0,3.232,0.262,5.839,0.784,7.822c0.519,1.98,1.277,3.545,2.267,4.694c0.992,1.147,2.217,1.929,3.677,2.346
		c1.46,0.418,3.183,0.627,5.162,0.627c1.565,0,3.102-0.132,4.616-0.392c1.512-0.261,2.842-0.495,3.989-0.704
		c0.732,1.98,1.251,4.041,1.565,6.179c0.313,2.139,0.469,4.043,0.469,5.711c0,1.147-0.026,2.111-0.078,2.894
		c-0.051,0.781-0.129,1.539-0.234,2.268c-4.798,1.148-9.75,1.72-14.862,1.72c-9.492,0-16.742-2.216-21.747-6.646
		c-5.007-4.434-7.509-11.657-7.509-21.67V121.075L483.264,121.075z M446.864,147.985c-1.253-0.209-2.607-0.393-4.07-0.548
		c-1.46-0.156-2.761-0.234-3.91-0.234c-5.111,0-9.153,0.911-12.126,2.738c-2.973,1.825-4.458,4.772-4.458,8.839
		c0,2.713,0.574,4.797,1.721,6.258c1.147,1.46,2.53,2.528,4.145,3.205c1.617,0.679,3.337,1.096,5.162,1.253
		c1.827,0.155,3.417,0.236,4.771,0.236c1.566,0,3.131-0.132,4.694-0.393c1.566-0.261,2.921-0.494,4.07-0.704V147.985
		L446.864,147.985z M446.864,131.87c0-2.501-0.417-4.536-1.253-6.102c-0.833-1.562-1.981-2.79-3.441-3.674
		c-1.46-0.888-3.26-1.489-5.397-1.8c-2.138-0.313-4.512-0.469-7.119-0.469c-5.632,0-11.629,1.095-17.991,3.285
		c-1.461-2.712-2.555-5.268-3.285-7.666c-0.73-2.398-1.096-5.266-1.096-8.605c4.59-1.564,9.178-2.711,13.767-3.441
		c4.588-0.73,8.867-1.096,12.828-1.096c10.848,0,19.322,2.607,25.424,7.823c6.101,5.215,9.152,13.557,9.152,25.031v46.934
		c-3.651,1.147-8.084,2.242-13.299,3.285c-5.214,1.044-11.107,1.565-17.678,1.565c-5.319,0-10.196-0.469-14.629-1.408
		c-4.432-0.938-8.24-2.504-11.418-4.694c-3.183-2.188-5.633-5.005-7.355-8.447c-1.72-3.443-2.58-7.666-2.58-12.673
		c0-5.005,1.069-9.203,3.207-12.593c2.137-3.389,4.903-6.102,8.29-8.135c3.391-2.035,7.171-3.494,11.345-4.381
		c4.172-0.887,8.342-1.33,12.514-1.33c3.026,0,6.362,0.157,10.014,0.469V131.87z"/>
	<g id="XMLID_2_">
		<g id="XMLID_3_">
			<path id="XMLID_4_" class="st1" d="M192.412,62.677l0.865,17.435c14.135,15.615,19.713,37.729,12.678,58.513
				c-10.503,31.025-45.135,47.335-77.354,36.428s-49.823-44.9-39.32-75.925C96.34,78.274,114.3,64.07,135.101,60.308l11.238-13.279
				c-35.063-0.949-68.143,20.815-79.979,55.778c-14.542,42.958,8.493,89.572,51.451,104.114s89.572-8.493,104.114-51.451
				C233.742,120.563,220.747,83.243,192.412,62.677z"/>
		</g>
		<path id="XMLID_5_" class="st1" d="M172.275,114.122l-0.595-24.373l-0.477-14.025l-0.323-12.15c0,0,0.067-5.859-0.137-7.236
			c-0.043-0.29-0.134-0.526-0.243-0.731c-0.013-0.029-0.026-0.058-0.041-0.086c-0.015-0.026-0.031-0.051-0.047-0.075
			c-0.225-0.387-0.578-0.701-1.035-0.856c-0.468-0.158-0.951-0.119-1.371,0.062c-0.009,0.003-0.017,0.006-0.026,0.01
			c-0.05,0.022-0.098,0.048-0.146,0.074c-0.199,0.097-0.402,0.222-0.6,0.415c-0.999,0.969-4.504,5.665-4.504,5.665l-7.637,9.455
			l-8.898,10.851l-15.278,19c0,0-7.011,8.75-5.462,19.52c1.549,10.77,9.556,16.017,15.768,18.12
			c6.212,2.103,15.76,2.799,23.533-4.816C172.53,125.331,172.275,114.122,172.275,114.122z"/>
	</g>
</g>
<g id="XMLID_63_" class="st2">
	<path id="XMLID_64_" d="M1087,185.852c-8.285,0-14.998-6.712-14.998-14.998c0-8.285,6.713-14.998,14.998-14.998
		s14.998,6.713,14.998,14.998C1101.998,179.14,1095.285,185.852,1087,185.852z M1074.68,170.854c0,6.796,5.524,12.32,12.32,12.32
		s12.32-5.524,12.32-12.32s-5.524-12.319-12.32-12.319S1074.68,164.058,1074.68,170.854z M1093.746,178.638
		c0.084,0.167,0.084,0.368-0.018,0.519c-0.083,0.167-0.268,0.268-0.451,0.268h-2.545c-0.201,0-0.385-0.101-0.469-0.284l-3.247-6.109
		h-2.595v5.858c0,0.301-0.234,0.535-0.535,0.535h-2.243c-0.302,0-0.536-0.234-0.536-0.535v-16.069c0-0.302,0.234-0.536,0.536-0.536
		h4.921c1.758,0,2.527,0.151,3.181,0.402c1.892,0.703,3.063,2.561,3.063,4.837c0,2.06-1.021,3.8-2.645,4.604
		c0.05,0.084,0.1,0.167,0.15,0.268L1093.746,178.638z M1088.439,165.598c-0.334-0.184-0.803-0.301-1.959-0.301h-2.059V170h2.712
		c1.474,0,2.31-0.87,2.31-2.377C1089.443,166.652,1089.109,165.966,1088.439,165.598z"/>
</g>
</svg>
