<?xml version="1.0" encoding="utf-8"?>
<!-- Generator: Adobe Illustrator 25.3.1, SVG Export Plug-In . SVG Version: 6.00 Build 0)  -->
<svg version="1.1" id="Layer_1" xmlns="http://www.w3.org/2000/svg" xmlns:xlink="http://www.w3.org/1999/xlink" x="0px" y="0px"
	 viewBox="0 0 1520 1107" style="enable-background:new 0 0 1520 1107;" xml:space="preserve">
<style type="text/css">
	.st0{fill:#18A3FF;}
	.st1{fill:#FFFFFF;}
	.st2{fill:#F968B3;}
	.st3{fill:#6E49CB;}
	.st4{fill:#FC6D26;}
	.st5{fill:#FFC46C;}
	.st6{fill:#5AC4FF;}
	.st7{fill:#FF9769;}
	.st8{fill:#AC7FFF;}
	.st9{fill:#FF675F;}
	.st10{fill:#FF99D1;}
	.st11{fill:#08C486;}
	.st12{fill:#CED3DD;}
</style>
<g>
	<path class="st0" d="M351.4,1099.7c76.6,0,138.7-62.1,138.7-138.7S428,822.4,351.4,822.4s-138.7,62.1-138.7,138.7
		S274.8,1099.7,351.4,1099.7z"/>
</g>
<g>
	<path class="st1" d="M418,1027.2H284.8c-1.6,0-3.2-0.3-4.7-0.9c-1.5-0.6-2.9-1.5-4-2.7c-1.2-1.2-2.1-2.5-2.7-4
		c-0.6-1.5-0.9-3.1-0.9-4.7v-29.6c0-1.6,0.3-3.2,0.9-4.7c0.6-1.5,1.5-2.9,2.7-4c1.1-1.2,2.5-2.1,4-2.7c1.5-0.6,3.1-0.9,4.7-0.9h41.5
		c2.4,0,4.3,1.9,4.3,4.3s-1.9,4.3-4.3,4.3h-41.5c-0.5,0-1,0.1-1.5,0.3c-0.5,0.2-0.9,0.5-1.2,0.8c-0.4,0.4-0.6,0.8-0.8,1.3
		c-0.2,0.5-0.3,1-0.3,1.5v29.6c0,0.5,0.1,1,0.3,1.5c0.2,0.5,0.5,0.9,0.8,1.2c0.4,0.4,0.8,0.6,1.3,0.8c0.5,0.2,1,0.3,1.5,0.3H418
		c0.5,0,1-0.1,1.5-0.3c0.5-0.2,0.9-0.5,1.2-0.8c0.4-0.4,0.6-0.8,0.8-1.3c0.2-0.5,0.3-1,0.3-1.5v-29.6c0-0.5-0.1-1-0.3-1.5
		c-0.2-0.5-0.5-0.9-0.8-1.3c-0.4-0.4-0.8-0.6-1.2-0.8c-0.5-0.2-1-0.3-1.5-0.3h-66.6c-2.4,0-4.3-1.9-4.3-4.3s1.9-4.3,4.3-4.3H418
		c1.6,0,3.2,0.3,4.7,0.9c1.5,0.6,2.9,1.5,4,2.7c1.2,1.2,2.1,2.5,2.7,4c0.6,1.5,0.9,3.1,0.9,4.7v29.6c0,1.6-0.3,3.2-0.9,4.7
		c-0.6,1.5-1.5,2.9-2.7,4c-1.2,1.2-2.5,2.1-4,2.7C421.2,1026.9,419.6,1027.2,418,1027.2z"/>
</g>
<g>
	<path class="st1" d="M401.7,1004.3h-38.3c-2.4,0-4.3-1.9-4.3-4.3c0-2.4,1.9-4.3,4.3-4.3h38.3c2.4,0,4.3,1.9,4.3,4.3
		C406,1002.4,404.1,1004.3,401.7,1004.3z"/>
</g>
<g>
	<path class="st1" d="M299.3,1005.6c-2.4,0-4.3-1.9-4.3-4.3v-2.6c0-2.4,1.9-4.3,4.3-4.3c2.4,0,4.3,1.9,4.3,4.3v2.6
		C303.6,1003.7,301.7,1005.6,299.3,1005.6z"/>
</g>
<g>
	<path class="st1" d="M318.8,1005.6c-2.4,0-4.3-1.9-4.3-4.3v-2.6c0-2.4,1.9-4.3,4.3-4.3s4.3,1.9,4.3,4.3v2.6
		C323.1,1003.7,321.2,1005.6,318.8,1005.6z"/>
</g>
<g>
	<path class="st1" d="M351.4,981.4c-2.4,0-4.3-1.9-4.3-4.3V942h-27.3c-6.5,0-12.5-2.5-17.1-7.1c-4.6-4.6-7.1-10.6-7.1-17.1
		c0-6.5,2.5-12.5,7.1-17.1c4.3-4.3,10-6.8,16-7.1c1.3-6.2,4.4-11.8,9.1-16.1c5.7-5.3,13.1-8.2,20.9-8.3c6.5,0,13,2.2,18.2,6
		c4.2,3.1,7.6,7.3,9.7,12.1c1-0.1,2.1-0.1,3.1-0.2c7.3,0,14.2,2.9,19.3,8c5.2,5.2,8,12,8,19.3c0,7.3-2.9,14.2-8,19.4
		c-5.2,5.2-12,8-19.3,8c0,0,0,0,0,0c-2.4,0-4.3-1.9-4.3-4.3c0-2.4,1.9-4.3,4.3-4.3c5,0,9.8-2,13.3-5.5c3.6-3.6,5.5-8.3,5.5-13.3
		c0-5-2-9.8-5.5-13.3c-3.6-3.6-8.3-5.5-13.3-5.5c0,0,0,0,0,0c-1.6,0-3.2,0.2-4.8,0.6c-2.2,0.6-4.5-0.7-5.2-2.9
		c-1.4-4.5-4.2-8.5-8-11.3c-3.8-2.8-8.4-4.4-13.2-4.4c-5.6,0-10.9,2.1-15,6c-4.1,3.8-6.6,9-6.9,14.6c-0.1,1.2-0.6,2.3-1.6,3
		c-0.9,0.7-2.1,1.1-3.3,0.9c-0.7-0.1-1.4-0.1-2.1-0.1c-4.2,0-8.1,1.6-11.1,4.6c-3,3-4.6,6.9-4.6,11.1c0,4.2,1.6,8.1,4.6,11
		c3,3,6.9,4.6,11.1,4.6h31.6c2.4,0,4.3,1.9,4.3,4.3v39.4C355.7,979.5,353.8,981.4,351.4,981.4z"/>
</g>
<g>
	<path class="st2" d="M758.9,1099.7c76.6,0,138.7-62.1,138.7-138.7s-62.1-138.7-138.7-138.7s-138.7,62.1-138.7,138.7
		S682.3,1099.7,758.9,1099.7z"/>
</g>
<g>
	<path class="st1" d="M833.6,933.3H684.3c-2.4,0-4.3-1.9-4.3-4.3c0-2.4,1.9-4.3,4.3-4.3h149.4c2.4,0,4.3,1.9,4.3,4.3
		C837.9,931.4,836,933.3,833.6,933.3z"/>
</g>
<g>
	<path class="st1" d="M820.6,1040H697.2c-9.5,0-17.3-7.7-17.3-17.3V899.4c0-9.5,7.7-17.3,17.3-17.3h123.4c9.5,0,17.3,7.7,17.3,17.3
		v123.4C837.9,1032.3,830.1,1040,820.6,1040z M697.2,890.6c-4.8,0-8.7,3.9-8.7,8.7v123.4c0,4.8,3.9,8.7,8.7,8.7h123.4
		c4.8,0,8.7-3.9,8.7-8.7V899.4c0-4.8-3.9-8.7-8.7-8.7H697.2z"/>
</g>
<g>
	<path class="st1" d="M777.5,1002.8c-2.1,0-3.9-1.6-4.2-3.7l-2.7-20.4c-0.2-1.3,0.3-2.6,1.2-3.6s2.3-1.4,3.6-1.2l20.4,2.7
		c2.3,0.3,4,2.5,3.7,4.8c-0.3,2.3-2.5,4-4.8,3.7l-14.8-2l2,14.8c0.3,2.3-1.3,4.5-3.7,4.8C777.9,1002.8,777.7,1002.8,777.5,1002.8z"
		/>
</g>
<g>
	<path class="st1" d="M797.3,1004.9c-1.1,0-2.2-0.4-3-1.3l-22.5-22.5c-1.7-1.7-1.7-4.4,0-6c1.7-1.7,4.4-1.7,6,0l22.5,22.5
		c1.7,1.7,1.7,4.4,0,6C799.5,1004.5,798.4,1004.9,797.3,1004.9z"/>
</g>
<g>
	<path class="st1" d="M809.3,912h-41.2c-2.4,0-4.3-1.9-4.3-4.3c0-2.4,1.9-4.3,4.3-4.3h41.2c2.4,0,4.3,1.9,4.3,4.3
		C813.6,910.1,811.6,912,809.3,912z"/>
</g>
<g>
	<path class="st3" d="M758.9,1099.7c76.6,0,138.7-62.1,138.7-138.7s-62.1-138.7-138.7-138.7s-138.7,62.1-138.7,138.7
		S682.3,1099.7,758.9,1099.7z"/>
</g>
<g>
	<path class="st1" d="M777.6,1030.8c-1.4,0-2.8-0.7-3.6-2c-1.2-2-0.6-4.6,1.4-5.9c16-9.8,29.5-22.5,34.3-32.6
		c7.2-15,6.9-27.3,6.5-47.9c-0.2-8.2-0.3-17.4-0.1-28.4c-10.4,0.6-20.9-0.9-30.7-4.6c-9.9-3.7-19-9.5-26.5-16.9
		c-11.5,11.4-26.5,18.7-42.6,20.9c-2.3,0.3-4.5-1.3-4.8-3.7c-0.3-2.3,1.3-4.5,3.7-4.8c15.6-2.1,30.1-9.7,40.6-21.5
		c0.8-0.9,2-1.4,3.2-1.4c0,0,0,0,0,0c1.2,0,2.4,0.5,3.2,1.4c7.2,8,16.2,14.2,26.3,17.9c10,3.7,21,5,31.6,3.7
		c1.2-0.2,2.5,0.2,3.4,1.1c0.9,0.8,1.4,2,1.4,3.3c-0.4,13-0.2,23.6,0,32.8c0.4,21,0.7,35-7.4,51.7c-6.6,13.9-23.7,27.8-37.5,36.2
		C779.2,1030.6,778.4,1030.8,777.6,1030.8z"/>
</g>
<g>
	<path class="st1" d="M758.9,1040c-0.5,0-1-0.1-1.4-0.3c-20.5-7.3-48.3-27.5-57-45.7c-8-16.8-7.8-30.7-7.4-51.8
		c0.2-9.3,0.4-19.8,0-32.8c-0.1-2.4,1.8-4.3,4.1-4.4c2.3-0.1,4.3,1.8,4.4,4.1c0.4,13.2,0.2,23.8,0,33.2c-0.4,20.6-0.6,33,6.5,47.9
		c6.9,14.3,31.7,34,52.2,41.4c2.2,0.8,3.4,3.2,2.6,5.5C762.3,1038.9,760.7,1040,758.9,1040z"/>
</g>
<g>
	<path class="st1" d="M750.3,981.2c-1.1,0-2.2-0.5-3-1.3l-14.2-14.3c-1.7-1.7-1.7-4.4,0-6c1.7-1.7,4.4-1.7,6,0l11.2,11.2l28.5-28.7
		c1.7-1.7,4.4-1.7,6,0c1.7,1.7,1.7,4.4,0,6l-31.6,31.7C752.6,980.7,751.5,981.2,750.3,981.2z"/>
</g>
<g>
	<path class="st4" d="M1166.5,1099.7c76.6,0,138.7-62.1,138.7-138.7s-62.1-138.7-138.7-138.7s-138.7,62.1-138.7,138.7
		S1089.9,1099.7,1166.5,1099.7z"/>
</g>
<g>
	<path class="st1" d="M1091.8,965.3c-2.4,0-4.3-1.9-4.3-4.3c0-10.4,2-20.6,6-30.2c4-9.6,9.8-18.2,17.1-25.6
		c14.9-14.9,34.7-23.1,55.8-23.1c21.1,0,40.9,8.2,55.8,23.1c2.8,2.8,5.3,5.8,7.7,8.9c1.4,1.9,1,4.6-0.9,6c-1.9,1.4-4.6,1-6-0.9
		c-2.1-2.8-4.4-5.5-6.8-7.9c-13.3-13.3-31-20.6-49.8-20.6s-36.5,7.3-49.8,20.6c-6.6,6.6-11.7,14.3-15.3,22.8
		c-3.6,8.6-5.4,17.7-5.3,26.9C1096.1,963.4,1094.2,965.3,1091.8,965.3C1091.8,965.3,1091.8,965.3,1091.8,965.3z"/>
</g>
<g>
	<path class="st1" d="M1166.5,1040c-21.1,0-40.9-8.2-55.8-23.1c-2.8-2.8-5.4-5.8-7.8-9c-1.4-1.9-1-4.6,0.9-6c1.9-1.4,4.6-1,6,0.9
		c2.1,2.9,4.4,5.6,7,8.1c13.3,13.3,31,20.6,49.8,20.6s36.5-7.3,49.8-20.6c6.6-6.6,11.7-14.3,15.3-22.8c3.6-8.6,5.4-17.7,5.3-26.9
		c0-2.4,1.9-4.3,4.3-4.3c0,0,0,0,0,0c2.4,0,4.3,1.9,4.3,4.3c0,10.4-2,20.6-6,30.2c-4,9.6-9.8,18.2-17.1,25.6
		C1207.4,1031.8,1187.6,1040,1166.5,1040z"/>
</g>
<g>
	<path class="st1" d="M1166.5,1005.4c-24.4,0-44.3-19.9-44.3-44.3c0-24.4,19.9-44.3,44.3-44.3c24.4,0,44.3,19.9,44.3,44.3
		C1210.8,985.5,1190.9,1005.4,1166.5,1005.4z M1166.5,925.3c-19.7,0-35.8,16.1-35.8,35.8c0,19.7,16.1,35.8,35.8,35.8
		s35.8-16.1,35.8-35.8C1202.3,941.3,1186.2,925.3,1166.5,925.3z"/>
</g>
<g>
	<path class="st1" d="M1160.2,976.1c-1.1,0-2.2-0.5-3-1.3l-9.1-9.1c-1.7-1.7-1.7-4.4,0-6c1.7-1.7,4.4-1.7,6,0l6,6l18.5-18.5
		c1.7-1.7,4.4-1.7,6,0c1.7,1.7,1.7,4.4,0,6l-21.5,21.5C1162.4,975.7,1161.4,976.1,1160.2,976.1z"/>
</g>
<g>
	<path class="st1" d="M1226.5,920.9h-19.9c-2.4,0-4.3-1.9-4.3-4.3c0-2.4,1.9-4.3,4.3-4.3h15.6v-15.6c0-2.4,1.9-4.3,4.3-4.3
		c2.4,0,4.3,1.9,4.3,4.3v19.9C1230.8,919,1228.9,920.9,1226.5,920.9z"/>
</g>
<g>
	<path class="st1" d="M1106.3,1029.4c-2.4,0-4.3-1.9-4.3-4.3v-19.9c0-2.4,1.9-4.3,4.3-4.3h19.9c2.4,0,4.3,1.9,4.3,4.3
		c0,2.4-1.9,4.3-4.3,4.3h-15.6v15.6C1110.6,1027.5,1108.7,1029.4,1106.3,1029.4z"/>
</g>
<g>
	<path class="st5" d="M351.4,284.7c76.6,0,138.7-62.1,138.7-138.7C490.1,69.4,428,7.3,351.4,7.3S212.7,69.4,212.7,146
		C212.7,222.6,274.8,284.7,351.4,284.7z"/>
</g>
<g>
	<path class="st1" d="M351.4,105.1c-23,0-61.9-4-61.9-19c0-15,38.9-19,61.9-19c23,0,61.9,4,61.9,19
		C413.3,101,374.4,105.1,351.4,105.1z M351.4,75.6c-35.3,0-52.5,7.6-53.4,10.6c0.9,2.8,18,10.4,53.4,10.4S403.9,89,404.7,86
		C403.9,83.1,386.7,75.6,351.4,75.6z"/>
</g>
<g>
	<path class="st1" d="M351.4,145c-23,0-61.9-4-61.9-19c0-2.4,1.9-4.3,4.3-4.3s4.3,1.9,4.3,4.3c0.9,2.9,18,10.5,53.3,10.5
		s52.5-7.6,53.4-10.6c0-2.4,1.9-4.2,4.3-4.2c2.4,0,4.3,2,4.3,4.3C413.3,141,374.4,145,351.4,145z"/>
</g>
<g>
	<path class="st1" d="M351.4,185c-18.2,0-35.1-2.1-46.5-5.8c-2.2-0.7-3.5-3.1-2.7-5.4c0.7-2.2,3.1-3.5,5.4-2.7
		c10.6,3.4,26.6,5.4,43.9,5.4c35.3,0,52.5-7.6,53.4-10.6c0-2.4,1.9-4.2,4.3-4.2c2.4,0,4.3,2,4.3,4.3C413.3,181,374.4,185,351.4,185z
		"/>
</g>
<g>
	<path class="st1" d="M409,183.7c-2.4,0-4.3-1.9-4.3-4.3V86c0-2.4,1.9-4.3,4.3-4.3s4.3,1.9,4.3,4.3v93.4
		C413.3,181.8,411.4,183.7,409,183.7z"/>
</g>
<g>
	<path class="st1" d="M351.4,224.9c-23,0-61.9-4-61.9-19v-92.1c0-2.4,1.9-4.3,4.3-4.3s4.3,1.9,4.3,4.3v92.1
		c0.9,2.9,18,10.5,53.3,10.5s52.5-7.6,53.4-10.6c0-2.4,1.9-4.2,4.3-4.2c2.4,0,4.3,2,4.3,4.3C413.3,220.9,374.4,224.9,351.4,224.9z"
		/>
</g>
<g>
	<path class="st6" d="M758.9,284.7c76.6,0,138.7-62.1,138.7-138.7c0-76.6-62.1-138.7-138.7-138.7S620.2,69.4,620.2,146
		C620.2,222.6,682.3,284.7,758.9,284.7z"/>
</g>
<g>
	<path class="st1" d="M758.9,186.1c-2.4,0-4.3-1.9-4.3-4.3v-22.6c0-2.4,1.9-4.3,4.3-4.3c2.4,0,4.3,1.9,4.3,4.3v22.6
		C763.2,184.2,761.3,186.1,758.9,186.1z"/>
</g>
<g>
	<path class="st1" d="M758.9,168.6c-5.2,0-9.4-4.2-9.4-9.4c0-5.2,4.2-9.4,9.4-9.4c5.2,0,9.4,4.2,9.4,9.4
		C768.4,164.4,764.1,168.6,758.9,168.6z M758.9,158.4c-0.5,0-0.9,0.4-0.9,0.9c0,0.5,0.4,0.9,0.9,0.9c0.5,0,0.9-0.4,0.9-0.9
		C759.8,158.8,759.4,158.4,758.9,158.4z"/>
</g>
<g>
	<path class="st1" d="M799.8,121.7c-2.4,0-4.3-1.9-4.3-4.3V99c0-9.7-3.9-18.8-10.8-25.7c-6.9-6.8-16.1-10.6-25.8-10.5
		c-0.1,0-0.1,0-0.2,0c-9.7,0-18.8,3.7-25.7,10.5c-6.9,6.8-10.8,16-10.8,25.7v18.4c0,2.4-1.9,4.3-4.3,4.3c-2.4,0-4.3-1.9-4.3-4.3V99
		c0.1-12,4.8-23.3,13.3-31.8c8.5-8.4,19.7-13,31.6-13c0.2,0,0.3,0,0.5,0c11.9,0,23.1,4.6,31.6,13c8.5,8.4,13.3,19.7,13.3,31.7v18.4
		C804.1,119.7,802.2,121.7,799.8,121.7z"/>
</g>
<g>
	<path class="st1" d="M817.4,212.1H700.5c-2.4,0-4.3-1.9-4.3-4.3v-65.2c0-2.4,1.9-4.3,4.3-4.3c2.4,0,4.3,1.9,4.3,4.3v60.9h112.6
		c2.4,0,4.3,1.9,4.3,4.3S819.7,212.1,817.4,212.1z"/>
</g>
<g>
	<path class="st1" d="M817.4,193.3c-2.4,0-4.3-1.9-4.3-4.3v-60.9H700.5c-2.4,0-4.3-1.9-4.3-4.3s1.9-4.3,4.3-4.3h116.9
		c2.4,0,4.3,1.9,4.3,4.3V189C821.6,191.4,819.7,193.3,817.4,193.3z"/>
</g>
<g>
	<path class="st7" d="M1166.5,284.7c76.6,0,138.7-62.1,138.7-138.7c0-76.6-62.1-138.7-138.7-138.7S1027.8,69.4,1027.8,146
		C1027.8,222.6,1089.9,284.7,1166.5,284.7z"/>
</g>
<g>
	<path class="st1" d="M1208.9,171.1L1208.9,171.1c-1.4,0-2.6-0.7-3.5-1.8l-10.4-14.3h-30.8c0,0,0,0-0.1,0c-3.9,0-7.7-1.5-10.5-4.3
		c-2.8-2.8-4.4-6.5-4.4-10.5V91.6c0-4,1.6-7.7,4.4-10.5c2.8-2.8,6.5-4.3,10.5-4.3c0,0,0,0,0.1,0h66.2c0,0,0,0,0.1,0
		c3.9,0,7.7,1.5,10.5,4.3c2.8,2.8,4.4,6.5,4.4,10.5v48.6c0,4-1.6,7.7-4.4,10.5c-2.8,2.8-6.5,4.3-10.5,4.3c0,0,0,0-0.1,0h-7.6
		l-10.4,14.3C1211.6,170.5,1210.3,171.1,1208.9,171.1z M1197.2,146.5c1.4,0,2.6,0.7,3.5,1.8l8.2,11.3l8.3-11.3
		c0.8-1.1,2.1-1.8,3.5-1.8h9.8c1.8,0.1,3.3-0.7,4.5-1.8c1.2-1.2,1.9-2.8,1.9-4.5V91.6c0-1.7-0.7-3.3-1.9-4.5
		c-1.2-1.2-2.8-1.8-4.5-1.8c0,0,0,0,0,0h-66.3c0,0,0,0-0.1,0c-1.7,0-3.3,0.7-4.5,1.8c-1.2,1.2-1.9,2.8-1.9,4.5v48.6
		c0,1.7,0.7,3.3,1.9,4.5c1.2,1.2,2.8,1.8,4.5,1.8c0,0,0,0,0,0H1197.2z"/>
</g>
<g>
	<path class="st1" d="M1214.2,120.2h-33.8c-2.4,0-4.3-1.9-4.3-4.3c0-2.4,1.9-4.3,4.3-4.3h33.8c2.4,0,4.3,1.9,4.3,4.3
		C1218.5,118.3,1216.6,120.2,1214.2,120.2z"/>
</g>
<g>
	<path class="st1" d="M1142.2,165.5h-23.5c-2.4,0-4.3-1.9-4.3-4.3c0-2.4,1.9-4.3,4.3-4.3h23.5c2.4,0,4.3,1.9,4.3,4.3
		C1146.5,163.6,1144.6,165.5,1142.2,165.5z"/>
</g>
<g>
	<path class="st1" d="M1124.1,215.2c-1.4,0-2.6-0.6-3.4-1.7l-10.5-14.3h-7.7c0,0-0.1,0-0.1,0c-3.9,0-7.6-1.5-10.5-4.3
		c-2.8-2.8-4.4-6.5-4.4-10.5v-48.6c0-4,1.6-7.7,4.4-10.5c2.8-2.8,6.5-4.3,10.5-4.3c0,0,0,0,0.1,0h31.2c2.4,0,4.3,1.9,4.3,4.3
		c0,2.4-1.9,4.3-4.3,4.3h-31.2c0,0,0,0,0,0c-1.7,0-3.3,0.7-4.5,1.8c-1.2,1.2-1.9,2.8-1.9,4.5v48.6c0,1.7,0.7,3.3,1.9,4.5
		c1.2,1.2,2.8,1.8,4.5,1.8c0,0,0,0,0,0h9.9c1.4,0,2.6,0.6,3.4,1.7l8.3,11.3l8.2-11.3c0.8-1.1,2.1-1.8,3.5-1.8h33
		c0.8,0,1.7-0.2,2.5-0.5c0.8-0.3,1.5-0.8,2.1-1.4c0.6-0.6,1.1-1.3,1.4-2.1c0.3-0.8,0.5-1.6,0.5-2.4V169c0-2.4,1.9-4.3,4.3-4.3
		s4.3,1.9,4.3,4.3v15.3c0,2-0.4,3.9-1.2,5.7c-0.8,1.8-1.9,3.4-3.3,4.8c-1.4,1.4-3,2.5-4.9,3.2c-1.8,0.7-3.7,1.1-5.6,1.1
		c0,0-0.1,0-0.1,0h-30.8l-10.3,14.3C1126.8,214.5,1125.5,215.2,1124.1,215.2C1124.1,215.2,1124.1,215.2,1124.1,215.2z"/>
</g>
<g>
	<path class="st8" d="M148.7,692.2c76.6,0,138.7-62.1,138.7-138.7s-62.1-138.7-138.7-138.7C72.1,414.8,10,476.9,10,553.5
		S72.1,692.2,148.7,692.2z"/>
</g>
<g>
	<path class="st1" d="M106.1,632.5c-5.7,0-11-2.2-15.1-6.2c-4.1-4-6.3-9.4-6.3-15.1v-81.3c0-2.4,1.9-4.3,4.3-4.3s4.3,1.9,4.3,4.3
		v81.3c0,3.4,1.4,6.6,3.8,9.1c2.4,2.4,5.6,3.7,9.1,3.7c0,0,0,0,0,0h59.5c0,0,0,0,0,0c3.4,0,6.7-1.3,9.1-3.7c2.4-2.4,3.8-5.6,3.8-9.1
		V495.9c0-3.4-1.4-6.6-3.8-9.1c-2.4-2.4-5.6-3.7-9.1-3.7c0,0,0,0,0,0h-59.5c0,0,0,0,0,0c-3.4,0-6.7,1.3-9.1,3.7
		c-2.4,2.4-3.8,5.6-3.8,9.1c0,2.4-1.9,4.3-4.3,4.3c0,0,0,0,0,0c-2.4,0-4.3-1.9-4.3-4.3c0-5.7,2.3-11.1,6.3-15.1
		c4-4,9.4-6.2,15.1-6.2c0,0,0,0,0.1,0h59.5c0,0,0,0,0.1,0c5.7,0,11,2.2,15.1,6.2c4.1,4,6.3,9.4,6.3,15.1v115.2
		c0,5.7-2.3,11.1-6.3,15.1c-4.1,4-9.4,6.3-15.1,6.2H106.1C106.1,632.5,106.1,632.5,106.1,632.5z"/>
</g>
<g>
	<path class="st1" d="M180.9,622.8c-0.9,0-1.8-0.3-2.6-0.9c-1.9-1.4-2.2-4.1-0.8-6l53.9-70.6c1-1.4,1.8-2.9,2.2-4.5
		c0.4-1.6,0.5-3.3,0.3-5c-0.2-1.7-0.8-3.3-1.7-4.7c-0.9-1.5-2-2.7-3.4-3.7l-53-39.4c-1.9-1.4-2.3-4.1-0.9-6c1.4-1.9,4.1-2.3,6-0.9
		l53,39.4c2.3,1.7,4.2,3.8,5.6,6.2c1.5,2.4,2.4,5.1,2.8,7.9c0.4,2.8,0.2,5.6-0.5,8.4c-0.7,2.7-2,5.3-3.7,7.5l-53.9,70.6
		C183.5,622.2,182.2,622.8,180.9,622.8z"/>
</g>
<g>
	<path class="st9" d="M556.2,692.2c76.6,0,138.7-62.1,138.7-138.7s-62.1-138.7-138.7-138.7c-76.6,0-138.7,62.1-138.7,138.7
		S479.6,692.2,556.2,692.2z"/>
</g>
<g>
	<path class="st1" d="M617.1,583.8c-1.5,0-3-0.8-3.8-2.3c-1.1-2.1-0.3-4.7,1.8-5.8c3.5-1.8,6.4-4.5,8.4-7.8c2-3.3,3.1-7.2,3.1-11.1
		c0-2.8-0.6-5.5-1.6-8.1c-1.1-2.6-2.6-4.9-4.6-6.9c-2-2-4.3-3.5-6.9-4.6c-2.6-1.1-5.3-1.6-8.1-1.6c0,0,0,0,0,0
		c-1.6,0-3.2,0.2-4.8,0.6c-1.4,0.3-2.8-0.1-3.8-1c-1-0.9-1.6-2.3-1.4-3.7c0.2-1.4,0.3-2.8,0.3-4.2c0-4.2-0.8-8.4-2.5-12.3
		c-1.6-3.9-4-7.4-7-10.4s-6.5-5.3-10.5-7c-3.9-1.6-8.1-2.4-12.3-2.4c0,0,0,0,0,0c-6.7,0-13.2,2-18.6,5.9c-5.5,3.9-9.6,9.3-11.8,15.6
		c-0.4,1.1-1.2,2-2.2,2.5c-1.1,0.5-2.3,0.5-3.3,0.1c-3.5-1.4-7.3-2.1-11-2.1c0,0,0,0,0,0c-4,0-7.9,0.8-11.7,2.3
		c-3.7,1.5-7,3.8-9.9,6.6c-2.9,2.8-5.1,6.2-6.6,9.9c-1.5,3.7-2.3,7.6-2.3,11.7c0,5.1,1.3,10.2,3.8,14.7c2.5,4.5,6.1,8.3,10.5,11
		c2,1.3,2.6,3.9,1.3,5.9c-1.3,2-3.9,2.6-5.9,1.3c-5.6-3.5-10.2-8.4-13.4-14.1c-3.2-5.8-4.9-12.3-4.9-18.9c0-5.2,1-10.2,3-14.9
		c2-4.8,4.8-9,8.5-12.7c3.6-3.6,7.9-6.5,12.7-8.4c4.7-2,9.8-3,14.9-3c0,0,0,0,0.1,0c3.4,0,6.8,0.5,10.1,1.3
		c3-6.3,7.5-11.8,13.3-15.9c6.9-4.9,15.1-7.5,23.6-7.5c0,0,0,0,0,0c5.4,0,10.6,1,15.5,3.1c5,2.1,9.4,5,13.2,8.8
		c3.8,3.8,6.8,8.2,8.8,13.2c2,4.9,3.1,10.1,3.1,15.4c0.4,0,0.8,0,1.2,0c3.9,0,7.8,0.8,11.4,2.3c3.6,1.5,6.9,3.7,9.7,6.5
		c2.8,2.8,5,6,6.5,9.7c1.5,3.6,2.3,7.5,2.3,11.4c0,5.5-1.5,10.8-4.4,15.5c-2.8,4.7-6.9,8.5-11.8,11
		C618.4,583.6,617.8,583.8,617.1,583.8z"/>
</g>
<g>
	<path class="st1" d="M532.1,592.3c-1.1,0-2.2-0.4-3-1.2l-12.3-12.3c-0.8-0.8-1.3-1.9-1.3-3c0-1.1,0.5-2.2,1.3-3l12.3-12.3
		c1.7-1.7,4.4-1.7,6,0c1.7,1.7,1.7,4.4,0,6l-9.3,9.3l9.3,9.3c1.7,1.7,1.7,4.4,0,6C534.3,591.9,533.2,592.3,532.1,592.3z"/>
</g>
<g>
	<path class="st1" d="M580.3,592.3c-1.1,0-2.2-0.4-3-1.3c-1.7-1.7-1.7-4.4,0-6l9.3-9.3l-9.3-9.3c-1.7-1.7-1.7-4.4,0-6
		c1.7-1.7,4.4-1.7,6,0l12.3,12.3c0.8,0.8,1.3,1.9,1.3,3c0,1.1-0.5,2.2-1.3,3L583.3,591C582.5,591.9,581.4,592.3,580.3,592.3z"/>
</g>
<g>
	<path class="st1" d="M549.8,599.1c-0.5,0-0.9-0.1-1.4-0.2c-2.2-0.8-3.4-3.2-2.7-5.4l12.9-37.8c0.8-2.2,3.2-3.4,5.4-2.7
		c2.2,0.8,3.4,3.2,2.7,5.4l-12.9,37.8C553.2,597.9,551.6,599.1,549.8,599.1z"/>
</g>
<g>
	<path class="st10" d="M963.8,692.2c76.6,0,138.7-62.1,138.7-138.7s-62.1-138.7-138.7-138.7s-138.7,62.1-138.7,138.7
		S887.2,692.2,963.8,692.2z"/>
</g>
<g>
	<path class="st1" d="M986.7,601c-2.4,0-4.3-1.9-4.3-4.3v-5.9c0-3.7-0.9-7.3-2.7-10.5c-1.8-3.2-4.3-6-7.4-7.9l-34.7-23.6
		c-4.3-2.9-7.8-6.9-10.2-11.5c-2.4-4.6-3.7-9.8-3.7-14.9v-16.6c0-2.4,1.9-4.3,4.3-4.3c2.4,0,4.3,1.9,4.3,4.3v16.6
		c0,3.8,0.9,7.6,2.7,11c1.8,3.4,4.4,6.3,7.5,8.4l34.6,23.5c4.2,2.7,7.8,6.5,10.2,11c2.4,4.5,3.7,9.5,3.7,14.6v5.9
		C991,599.1,989.1,601,986.7,601z"/>
</g>
<g>
	<path class="st1" d="M928,509.1c-9.4,0-17.1-7.8-17.1-17.3c0-9.5,7.7-17.3,17.1-17.3s17.1,7.8,17.1,17.3
		C945.1,501.4,937.4,509.1,928,509.1z M928,483.1c-4.7,0-8.5,3.9-8.5,8.8c0,4.8,3.8,8.8,8.5,8.8c4.7,0,8.5-3.9,8.5-8.8
		C936.5,487,932.7,483.1,928,483.1z"/>
</g>
<g>
	<path class="st1" d="M986.7,606.4c-2.4,0-4.3-1.9-4.3-4.3v-97.3c0-2.4,1.9-4.3,4.3-4.3c2.4,0,4.3,1.9,4.3,4.3v97.3
		C991,604.5,989.1,606.4,986.7,606.4z"/>
</g>
<g>
	<path class="st1" d="M986.7,509.1c-9.4,0-17.1-7.8-17.1-17.3c0-9.5,7.7-17.3,17.1-17.3s17.1,7.8,17.1,17.3
		C1003.8,501.4,996.1,509.1,986.7,509.1z M986.7,483.1c-4.7,0-8.5,3.9-8.5,8.8c0,4.8,3.8,8.8,8.5,8.8c4.7,0,8.5-3.9,8.5-8.8
		C995.3,487,991.4,483.1,986.7,483.1z"/>
</g>
<g>
	<path class="st1" d="M986.7,632.5c-9.4,0-17.1-7.8-17.1-17.3c0-9.5,7.7-17.3,17.1-17.3s17.1,7.8,17.1,17.3
		C1003.8,624.7,996.1,632.5,986.7,632.5z M986.7,606.4c-4.7,0-8.5,3.9-8.5,8.8c0,4.8,3.8,8.7,8.5,8.7c4.7,0,8.5-3.9,8.5-8.7
		C995.3,610.4,991.4,606.4,986.7,606.4z"/>
</g>
<g>
	<path class="st11" d="M1371.3,692.2c76.6,0,138.7-62.1,138.7-138.7s-62.1-138.7-138.7-138.7s-138.7,62.1-138.7,138.7
		S1294.7,692.2,1371.3,692.2z"/>
</g>
<g>
	<path class="st1" d="M1384.8,593.6c-0.5,0-1.1-0.1-1.6-0.3c-2.2-0.9-3.3-3.4-2.4-5.5l32.7-82.3c0.5-1.3,0.8-2.6,0.7-4
		c0-1.4-0.3-2.7-0.9-4c-0.5-1.3-1.3-2.4-2.3-3.3c-1-1-2.1-1.7-3.4-2.2l-20.2-8c-2.6-1-5.4-1-8,0.1c-2.6,1.1-4.5,3.1-5.6,5.7
		l-7.1,17.8c-0.9,2.2-3.3,3.3-5.5,2.4c-2.2-0.9-3.3-3.4-2.4-5.5l7.1-17.8c1.9-4.7,5.5-8.4,10.1-10.4c4.6-2,9.8-2.1,14.5-0.2l20.2,8
		c2.3,0.9,4.4,2.3,6.2,4c1.8,1.7,3.2,3.8,4.2,6.1c1,2.3,1.5,4.7,1.5,7.2c0,2.5-0.4,5-1.3,7.3l-32.7,82.3
		C1388.1,592.5,1386.5,593.6,1384.8,593.6z"/>
</g>
<g>
	<path class="st1" d="M1341.9,632.5c-0.5,0-1.1-0.1-1.6-0.3c-1.2-0.5-2.2-1.5-2.5-2.8l-11.3-40.6c-0.3-0.9-0.2-1.9,0.1-2.7
		l26.4-66.3c0.9-2.2,3.4-3.3,5.5-2.4c2.2,0.9,3.3,3.4,2.4,5.5l-25.8,64.9l9.5,33.8l31.3-18.8c2-1.2,4.6-0.6,5.9,1.5
		c1.2,2,0.6,4.6-1.5,5.9l-36.1,21.7C1343.4,632.3,1342.6,632.5,1341.9,632.5z"/>
</g>
<g>
	<path class="st1" d="M1378,610.8c-0.5,0-1.1-0.1-1.6-0.3l-47.5-18.9c-2.2-0.9-3.3-3.4-2.4-5.5c0.9-2.2,3.4-3.3,5.5-2.4l47.5,18.9
		c2.2,0.9,3.3,3.4,2.4,5.5C1381.3,609.7,1379.7,610.8,1378,610.8z"/>
</g>
<g>
	<path class="st1" d="M1350,626.1c-0.5,0-1.1-0.1-1.6-0.3l-10.6-4.2c-2.2-0.9-3.3-3.4-2.4-5.5c0.9-2.2,3.3-3.3,5.5-2.4l10.6,4.2
		c2.2,0.9,3.3,3.4,2.4,5.5C1353.3,625.1,1351.7,626.1,1350,626.1z"/>
</g>
<g>
	<path class="st1" d="M1410.5,529c-0.5,0-1.1-0.1-1.6-0.3l-47.5-18.9c-2.2-0.9-3.3-3.4-2.4-5.5c0.9-2.2,3.3-3.3,5.5-2.4l47.5,18.9
		c2.2,0.9,3.3,3.4,2.4,5.5C1413.8,528,1412.2,529,1410.5,529z"/>
</g>
<g>
	<path class="st1" d="M1354.2,601.3c-0.5,0-1.1-0.1-1.6-0.3c-2.2-0.9-3.3-3.4-2.4-5.5l32.5-81.7c0.9-2.2,3.4-3.3,5.5-2.4
		c2.2,0.9,3.3,3.4,2.4,5.5l-32.5,81.7C1357.5,600.3,1355.9,601.3,1354.2,601.3z"/>
</g>
<g>
	<path class="st1" d="M1427.9,575.9c-1.1,0-2.2-0.4-3-1.3c-1.7-1.7-1.7-4.4,0-6l15.1-15.1l-15.1-15.1c-1.7-1.7-1.7-4.4,0-6
		c1.7-1.7,4.4-1.7,6,0l18.1,18.1c0.8,0.8,1.3,1.9,1.3,3c0,1.1-0.5,2.2-1.3,3l-18.1,18.1C1430.1,575.5,1429,575.9,1427.9,575.9z"/>
</g>
<g>
	<path class="st1" d="M1314.7,575.9c-1.1,0-2.2-0.4-3-1.3l-18.1-18.1c-0.8-0.8-1.3-1.9-1.3-3c0-1.1,0.5-2.2,1.3-3l18.1-18.1
		c1.7-1.7,4.4-1.7,6,0c1.7,1.7,1.7,4.4,0,6l-15.1,15.1l15.1,15.1c1.7,1.7,1.7,4.4,0,6C1316.9,575.5,1315.8,575.9,1314.7,575.9z"/>
</g>
<g>
	<rect x="148.7" y="756.2" class="st12" width="1222.6" height="2.1"/>
</g>
<g>
	<rect x="148.7" y="348.7" class="st12" width="1222.6" height="2.1"/>
</g>
<g>
	<rect x="554.1" y="7.3" class="st12" width="2.1" height="341.4"/>
</g>
<g>
	<rect x="961.6" y="7.3" class="st12" width="2.1" height="341.4"/>
</g>
<g>
	<rect x="554.1" y="758.3" class="st12" width="2.1" height="341.4"/>
</g>
<g>
	<rect x="961.6" y="758.3" class="st12" width="2.1" height="341.4"/>
</g>
<g>
	<rect x="351.4" y="350.8" class="st12" width="2.1" height="405.4"/>
</g>
<g>
	<rect x="758.9" y="350.8" class="st12" width="2.1" height="405.4"/>
</g>
<g>
	<rect x="1166.5" y="350.8" class="st12" width="2.1" height="405.4"/>
</g>
</svg>
